{
  "name": "Common Level 9 Arcane Scrolls",
  "flags": {},
  "description": "",
  "results": [
    {
      "_id": "mejS5UB5MRBF8sqz",
      "flags": {},
      "type": 0,
      "text": "Scroll of Dominate Monster",
      "img": "icons/svg/d20-black.svg",
      "resultId": "",
      "weight": 6,
      "range": [1, 6],
      "drawn": false
    },
    {
      "_id": "MwQS4OiP7sr5BccB",
      "flags": {},
      "type": 0,
      "text": "Scroll of Energy Drain",
      "img": "icons/svg/d20-black.svg",
      "resultId": "",
      "weight": 5,
      "range": [7, 11],
      "drawn": false
    },
    {
      "_id": "ZXOyWYJCJlfQDYiB",
      "flags": {},
      "type": 0,
      "text": "Scroll of Freedom",
      "img": "icons/svg/d20-black.svg",
      "resultId": "",
      "weight": 5,
      "range": [12, 16],
      "drawn": false
    },
    {
      "_id": "ktWtKd6iiH3RnVoX",
      "flags": {},
      "type": 0,
      "text": "Scroll of Gate",
      "img": "icons/svg/d20-black.svg",
      "resultId": "",
      "weight": 7,
      "range": [17, 23],
      "drawn": false
    },
    {
      "_id": "PsUGIcnoILRzs6qH",
      "flags": {},
      "type": 0,
      "text": "Scroll of Hold Monster, Mass",
      "img": "icons/svg/d20-black.svg",
      "resultId": "",
      "weight": 5,
      "range": [24, 28],
      "drawn": false
    },
    {
      "_id": "4Ypl9RFLMgTfQ8Y6",
      "flags": {},
      "type": 0,
      "text": "Scroll of Imprisonment",
      "img": "icons/svg/d20-black.svg",
      "resultId": "",
      "weight": 5,
      "range": [29, 33],
      "drawn": false
    },
    {
      "_id": "1dKG6XSakDtFnToI",
      "flags": {},
      "type": 0,
      "text": "Scroll of Mage's Disjunction",
      "img": "icons/svg/d20-black.svg",
      "resultId": "",
      "weight": 6,
      "range": [34, 39],
      "drawn": false
    },
    {
      "_id": "VK0kYU0Up8YatYYd",
      "flags": {},
      "type": 0,
      "text": "Scroll of Meteor Swarm",
      "img": "icons/svg/d20-black.svg",
      "resultId": "",
      "weight": 8,
      "range": [40, 47],
      "drawn": false
    },
    {
      "_id": "Z2VgeamDWh5ujAGE",
      "flags": {},
      "type": 0,
      "text": "Scroll of Power Word Kill",
      "img": "icons/svg/d20-black.svg",
      "resultId": "",
      "weight": 8,
      "range": [48, 55],
      "drawn": false
    },
    {
      "_id": "5yGOPVsyDfgIuvnx",
      "flags": {},
      "type": 0,
      "text": "Scroll of Prismatic Sphere",
      "img": "icons/svg/d20-black.svg",
      "resultId": "",
      "weight": 6,
      "range": [56, 61],
      "drawn": false
    },
    {
      "_id": "JH0dE378dtTtVapk",
      "flags": {},
      "type": 0,
      "text": "Scroll of Shapechange",
      "img": "icons/svg/d20-black.svg",
      "resultId": "",
      "weight": 5,
      "range": [62, 66],
      "drawn": false
    },
    {
      "_id": "enuKIe2mFHukqN2Q",
      "flags": {},
      "type": 0,
      "text": "Scroll of Summon Monster IX",
      "img": "icons/svg/d20-black.svg",
      "resultId": "",
      "weight": 5,
      "range": [67, 71],
      "drawn": false
    },
    {
      "_id": "evx8vCY2vRgkYJLA",
      "flags": {},
      "type": 0,
      "text": "Scroll of Time Stop",
      "img": "icons/svg/d20-black.svg",
      "resultId": "",
      "weight": 8,
      "range": [72, 79],
      "drawn": false
    },
    {
      "_id": "JNhkRjNNNMkX0hPL",
      "flags": {},
      "type": 0,
      "text": "Scroll of Weird",
      "img": "icons/svg/d20-black.svg",
      "resultId": "",
      "weight": 6,
      "range": [80, 85],
      "drawn": false
    },
    {
      "_id": "Aghjajbrue9s7Hyj",
      "flags": {},
      "type": 0,
      "text": "Scroll of Astral Projection",
      "img": "icons/svg/d20-black.svg",
      "resultId": "",
      "weight": 5,
      "range": [86, 90],
      "drawn": false
    },
    {
      "_id": "c5SpiHBnbi90r96T",
      "flags": {},
      "type": 0,
      "text": "Scroll of Teleportation Circle",
      "img": "icons/svg/d20-black.svg",
      "resultId": "",
      "weight": 6,
      "range": [91, 96],
      "drawn": false
    },
    {
      "_id": "qVAVs4j1tj5OoYFT",
      "flags": {},
      "type": 0,
      "text": "Scroll of Wish",
      "img": "icons/svg/d20-black.svg",
      "resultId": "",
      "weight": 4,
      "range": [97, 100],
      "drawn": false
    }
  ],
  "formula": "1d100",
  "replacement": true,
  "displayRoll": true,
  "_id": "h3hFNWWe5joG5W2N"
}
