{
  "name": "Common Level 0 Wands",
  "flags": {},
  "description": "",
  "results": [
    {
      "_id": "pIXczgkk5yTuzKUn",
      "flags": {},
      "type": 0,
      "text": "Wand of Acid Splash",
      "img": "icons/svg/d20-black.svg",
      "resultId": "",
      "weight": 7,
      "range": [1, 7],
      "drawn": false
    },
    {
      "_id": "0drZlx8984gDNpGd",
      "flags": {},
      "type": 0,
      "text": "Wand of Create Water",
      "img": "icons/svg/d20-black.svg",
      "resultId": "",
      "weight": 7,
      "range": [8, 14],
      "drawn": false
    },
    {
      "_id": "HEdQZkMb29PR7YZS",
      "flags": {},
      "type": 0,
      "text": "Wand of Daze",
      "img": "icons/svg/d20-black.svg",
      "resultId": "",
      "weight": 6,
      "range": [15, 20],
      "drawn": false
    },
    {
      "_id": "rq9CRaBKhsOAPu3U",
      "flags": {},
      "type": 0,
      "text": "Wand of Detect Magic",
      "img": "icons/svg/d20-black.svg",
      "resultId": "",
      "weight": 8,
      "range": [21, 28],
      "drawn": false
    },
    {
      "_id": "jxDbkyC09JOijpBT",
      "flags": {},
      "type": 0,
      "text": "Wand of Ghost Sound",
      "img": "icons/svg/d20-black.svg",
      "resultId": "",
      "weight": 6,
      "range": [29, 34],
      "drawn": false
    },
    {
      "_id": "pHZvEpJ7pE1DOKz5",
      "flags": {},
      "type": 0,
      "text": "Wand of Light",
      "img": "icons/svg/d20-black.svg",
      "resultId": "",
      "weight": 8,
      "range": [35, 42],
      "drawn": false
    },
    {
      "_id": "V7MkwNXfj22U3Tmw",
      "flags": {},
      "type": 0,
      "text": "Wand of Mage Hand",
      "img": "icons/svg/d20-black.svg",
      "resultId": "",
      "weight": 7,
      "range": [43, 49],
      "drawn": false
    },
    {
      "_id": "uKwgBSoFQwOALiL2",
      "flags": {},
      "type": 0,
      "text": "Wand of Mending",
      "img": "icons/svg/d20-black.svg",
      "resultId": "",
      "weight": 6,
      "range": [50, 55],
      "drawn": false
    },
    {
      "_id": "8MLHbINZIWxhKaWW",
      "flags": {},
      "type": 0,
      "text": "Wand of Message",
      "img": "icons/svg/d20-black.svg",
      "resultId": "",
      "weight": 5,
      "range": [56, 60],
      "drawn": false
    },
    {
      "_id": "COb4rGhO0PFAVThc",
      "flags": {},
      "type": 0,
      "text": "Wand of Prestidigitation",
      "img": "icons/svg/d20-black.svg",
      "resultId": "",
      "weight": 6,
      "range": [61, 66],
      "drawn": false
    },
    {
      "_id": "1AuLhksDbQ0Dg8lw",
      "flags": {},
      "type": 0,
      "text": "Wand of Purify Food and Drink",
      "img": "icons/svg/d20-black.svg",
      "resultId": "",
      "weight": 7,
      "range": [67, 73],
      "drawn": false
    },
    {
      "_id": "WSVMIxnJVolFh7xd",
      "flags": {},
      "type": 0,
      "text": "Wand of Ray of Frost",
      "img": "icons/svg/d20-black.svg",
      "resultId": "",
      "weight": 8,
      "range": [74, 81],
      "drawn": false
    },
    {
      "_id": "xy4ESOFn1Q4xgG1W",
      "flags": {},
      "type": 0,
      "text": "Wand of Read Magic",
      "img": "icons/svg/d20-black.svg",
      "resultId": "",
      "weight": 7,
      "range": [82, 88],
      "drawn": false
    },
    {
      "_id": "BLbokT6q0h11cFgF",
      "flags": {},
      "type": 0,
      "text": "Wand of Stabilize",
      "img": "icons/svg/d20-black.svg",
      "resultId": "",
      "weight": 7,
      "range": [89, 95],
      "drawn": false
    },
    {
      "_id": "JQoORODIK0G09J6o",
      "flags": {},
      "type": 0,
      "text": "Wand of Touch of Fatigue",
      "img": "icons/svg/d20-black.svg",
      "resultId": "",
      "weight": 5,
      "range": [96, 100],
      "drawn": false
    }
  ],
  "formula": "1d201",
  "replacement": true,
  "displayRoll": true,
  "_id": "TeMae6GRt7G53JVJ"
}
