{
  "name": "Common Level 0 Potions and Oils",
  "flags": {},
  "description": "",
  "results": [
    {
      "_id": "zaeBCN4BElMaPPtn",
      "flags": {},
      "type": 0,
      "text": "Oil of Arcane Mark",
      "img": "icons/svg/d20-black.svg",
      "weight": 14,
      "range": [1, 14],
      "drawn": false,
      "documentId": null,
      "documentCollection": ""
    },
    {
      "_id": "WFjCdqQ2C66oYxAp",
      "flags": {},
      "type": 0,
      "text": "Potion of Guidance",
      "img": "icons/svg/d20-black.svg",
      "weight": 14,
      "range": [15, 28],
      "drawn": false,
      "documentId": null,
      "documentCollection": ""
    },
    {
      "_id": "PLoLWXQ7urRHiF4a",
      "flags": {},
      "type": 0,
      "text": "Oil of Light",
      "img": "icons/svg/d20-black.svg",
      "weight": 14,
      "range": [29, 44],
      "drawn": false,
      "documentId": null,
      "documentCollection": ""
    },
    {
      "_id": "uzRsZq7rWyfKQon4",
      "flags": {},
      "type": 0,
      "text": "Oil of Purify Food and Drink",
      "img": "icons/svg/d20-black.svg",
      "weight": 14,
      "range": [45, 58],
      "drawn": false,
      "documentId": null,
      "documentCollection": ""
    },
    {
      "_id": "6SCAHwEb3UVJv6PE",
      "flags": {},
      "type": 0,
      "text": "Potion of Resistance",
      "img": "icons/svg/d20-black.svg",
      "weight": 14,
      "range": [59, 72],
      "drawn": false,
      "documentId": null,
      "documentCollection": ""
    },
    {
      "_id": "LvstfhJOP85OANsX",
      "flags": {},
      "type": 0,
      "text": "Potion of Stabilize",
      "img": "icons/svg/d20-black.svg",
      "weight": 14,
      "range": [73, 86],
      "drawn": false,
      "documentId": null,
      "documentCollection": ""
    },
    {
      "_id": "jrP4CXrr1JPOeZun",
      "flags": {},
      "type": 0,
      "text": "Potion of Virtue",
      "img": "icons/svg/d20-black.svg",
      "weight": 14,
      "range": [87, 100],
      "drawn": false,
      "documentId": null,
      "documentCollection": ""
    }
  ],
  "formula": "1d100",
  "replacement": true,
  "displayRoll": true,
  "_id": "JPvmif4QLYg2mz0C",
  "img": "icons/svg/d20-grey.svg",
  "sort": 0
}
