{
  "name": "Greater Medium Hand",
  "flags": {},
  "description": "",
  "results": [
    {
      "_id": "yW8bMDLhjwuwUJB7",
      "flags": {},
      "type": 0,
      "text": "\tVampiric Gloves",
      "weight": 30,
      "range": [1, 30],
      "drawn": false
    },
    {
      "_id": "h0bb1rqkfzLVBvuU",
      "flags": {},
      "type": 0,
      "text": "\tGiant Fist Gauntlets",
      "weight": 35,
      "range": [31, 65],
      "drawn": false
    },
    {
      "_id": "74gQx2jTLhQiSIuV",
      "flags": {},
      "type": 0,
      "text": "\tGloves of the Shortened Path",
      "weight": 35,
      "range": [66, 100],
      "drawn": false
    }
  ],
  "formula": "1d100",
  "replacement": true,
  "displayRoll": true,
  "_id": "ARrMW8q5hUBEeovQ"
}
