{
  "name": "Lesser Medium Specific Armours",
  "flags": {},
  "description": "",
  "results": [
    {
      "_id": "W40SDkGtwjmjYeYM",
      "flags": {},
      "type": 0,
      "text": "Elven Chain",
      "weight": 33,
      "range": [1, 33],
      "drawn": false
    },
    {
      "_id": "6LsPprgnGupxKt3M",
      "flags": {},
      "type": 0,
      "text": "Rhino Hide",
      "weight": 33,
      "range": [34, 66],
      "drawn": false
    },
    {
      "_id": "49zVEqs9fQcNVF3u",
      "flags": {},
      "type": 0,
      "text": "Morlock Hide",
      "weight": 34,
      "range": [67, 100],
      "drawn": false
    }
  ],
  "formula": "1d100",
  "replacement": true,
  "displayRoll": true,
  "_id": "VuR6gkyqVdWknPOX"
}
