{
  "name": "Lesser Minor Feet",
  "flags": {},
  "description": "",
  "results": [
    {
      "_id": "FHJb96Syu15i3s99",
      "flags": {},
      "type": 0,
      "text": "\tBoots of the Cat",
      "weight": 11,
      "range": [1, 11],
      "drawn": false
    },
    {
      "_id": "0BRM2mHtgUwBlcbJ",
      "flags": {},
      "type": 0,
      "text": "\tDaredevil Boots",
      "weight": 11,
      "range": [12, 22],
      "drawn": false
    },
    {
      "_id": "FDGk1hPpxV1pKFuZ",
      "flags": {},
      "type": 0,
      "text": "\tBoots of the Enduring March",
      "weight": 9,
      "range": [23, 31],
      "drawn": false
    },
    {
      "_id": "dXIcK3Sm1ufutpyd",
      "flags": {},
      "type": 0,
      "text": "\tFeather Step Slippers",
      "weight": 10,
      "range": [32, 41],
      "drawn": false
    },
    {
      "_id": "kiwQwsG2IhJ8dSOt",
      "flags": {},
      "type": 0,
      "text": "\tBoots of Friendly Terrain",
      "weight": 9,
      "range": [42, 50],
      "drawn": false
    },
    {
      "_id": "GBPmaJXyjEQiiq5u",
      "flags": {},
      "type": 0,
      "text": "\tBoots of the Winterlands",
      "weight": 10,
      "range": [51, 60],
      "drawn": false
    },
    {
      "_id": "FzyC9vkes0uhayK3",
      "flags": {},
      "type": 0,
      "text": "\tBoots of Elvenkind",
      "weight": 16,
      "range": [61, 76],
      "drawn": false
    },
    {
      "_id": "4KyO0cgN2LsCmzFV",
      "flags": {},
      "type": 0,
      "text": "\tAcrobat Slippers",
      "weight": 9,
      "range": [77, 85],
      "drawn": false
    },
    {
      "_id": "HW1WMykIZUMB1tWO",
      "flags": {},
      "type": 0,
      "text": "\tHorseshoes of Speed",
      "weight": 7,
      "range": [86, 92],
      "drawn": false
    },
    {
      "_id": "jqRs3aeBYi2pzcYc",
      "flags": {},
      "type": 0,
      "text": "\tBoots of the Mire",
      "weight": 8,
      "range": [93, 100],
      "drawn": false
    }
  ],
  "formula": "1d100",
  "replacement": true,
  "displayRoll": true,
  "_id": "GhK94oQ7mfioCSaI"
}
