{
  "_id": "6n8ZEZaiwRPzQ0p4",
  "name": "Lesser Medium Divine Scrolls",
  "flags": {},
  "description": "",
  "results": [
    {
      "_id": "uwQc7yolwwfWhKKW",
      "flags": {},
      "type": 2,
      "text": "Common Level 2 Divine Scrolls",
      "img": "icons/svg/d20-black.svg",
      "collection": "pf1.ultimate-equipment",
      "resultId": "4K2GxrliYpHJs3tT",
      "weight": 10,
      "range": [1, 10],
      "drawn": false
    },
    {
      "_id": "ZcrmPfmdxTiL3KLR",
      "flags": {},
      "type": 2,
      "text": "Common Level 3 Divine Scrolls",
      "img": "icons/svg/d20-black.svg",
      "collection": "pf1.ultimate-equipment",
      "resultId": "haj5Z1NTEPbRQWtH",
      "weight": 45,
      "range": [11, 55],
      "drawn": false
    },
    {
      "_id": "yHbwbazCdZpUqMbM",
      "flags": {},
      "type": 2,
      "text": "Common Level 4 Divine Scrolls",
      "collection": "pf1.ultimate-equipment",
      "resultId": "RNrVll5rxHRbCQR3",
      "weight": 45,
      "range": [56, 100],
      "drawn": false
    }
  ],
  "formula": "1d100",
  "replacement": true,
  "displayRoll": true
}
