{
  "name": "One Handed Melee",
  "flags": {},
  "description": "",
  "results": [
    {
      "_id": "CsVGQctXxhshOGzH",
      "flags": {},
      "type": 0,
      "text": "Club",
      "weight": 1,
      "range": [1, 1],
      "drawn": false
    },
    {
      "_id": "WNPlPccpZ9EwJeBi",
      "flags": {},
      "type": 0,
      "text": "Heavy Mace",
      "weight": 1,
      "range": [2, 2],
      "drawn": false
    },
    {
      "_id": "pKvqH4b0WzI6eZBm",
      "flags": {},
      "type": 0,
      "text": "Mere Club",
      "weight": 1,
      "range": [3, 3],
      "drawn": false
    },
    {
      "_id": "CjLG9IKFo7x3rJ57",
      "flags": {},
      "type": 0,
      "text": "Morningstar",
      "weight": 1,
      "range": [4, 4],
      "drawn": false
    },
    {
      "_id": "xL8yhPPgrxcAqxjo",
      "flags": {},
      "type": 0,
      "text": "Shortspear",
      "weight": 1,
      "range": [5, 5],
      "drawn": false
    },
    {
      "_id": "C1OQR2aEJvO4xRDj",
      "flags": {},
      "type": 0,
      "text": "Battleaxe",
      "weight": 1,
      "range": [6, 6],
      "drawn": false
    },
    {
      "_id": "5ndQDzBLrZQP3Eho",
      "flags": {},
      "type": 0,
      "text": "Double Chicken Saber",
      "weight": 1,
      "range": [7, 7],
      "drawn": false
    },
    {
      "_id": "SzRgrV1eWHyjL1hn",
      "flags": {},
      "type": 0,
      "text": "Heavy Pick",
      "weight": 1,
      "range": [8, 8],
      "drawn": false
    },
    {
      "_id": "SG5d2a7zjLGzWpPQ",
      "flags": {},
      "type": 0,
      "text": "Heavy Steel Shield",
      "weight": 1,
      "range": [9, 9],
      "drawn": false
    },
    {
      "_id": "JImXhAghz67x2hGh",
      "flags": {},
      "type": 0,
      "text": "Heavy Wooden Shield",
      "weight": 1,
      "range": [10, 10],
      "drawn": false
    },
    {
      "_id": "PHoHWch3bRN2DiWj",
      "flags": {},
      "type": 0,
      "text": "Klar",
      "weight": 1,
      "range": [11, 11],
      "drawn": false
    },
    {
      "_id": "spPNTp74zI3Pg02B",
      "flags": {},
      "type": 0,
      "text": "Light Flail",
      "weight": 1,
      "range": [12, 12],
      "drawn": false
    },
    {
      "_id": "ccYjJxJTzd2Iw1Ax",
      "flags": {},
      "type": 0,
      "text": "Longsword",
      "weight": 1,
      "range": [13, 13],
      "drawn": false
    },
    {
      "_id": "MEFsZAibxSpRk0UW",
      "flags": {},
      "type": 0,
      "text": "Nine-Ring Broadsword",
      "weight": 1,
      "range": [14, 14],
      "drawn": false
    },
    {
      "_id": "WOn3YHPfFhyrQt0k",
      "flags": {},
      "type": 0,
      "text": "Rapier",
      "weight": 1,
      "range": [15, 15],
      "drawn": false
    },
    {
      "_id": "TtyZ24VInwSzSQpG",
      "flags": {},
      "type": 0,
      "text": "Scimitar",
      "weight": 1,
      "range": [16, 16],
      "drawn": false
    },
    {
      "_id": "a89qT7xDmDXTnclc",
      "flags": {},
      "type": 0,
      "text": "Scizore",
      "weight": 1,
      "range": [17, 17],
      "drawn": false
    },
    {
      "_id": "uyVOPjwYqaO5JVWU",
      "flags": {},
      "type": 0,
      "text": "Sibat",
      "weight": 1,
      "range": [18, 18],
      "drawn": false
    },
    {
      "_id": "V1WtVUVI82AGawzR",
      "flags": {},
      "type": 0,
      "text": "Spiked Heavy Steel Shield",
      "weight": 1,
      "range": [19, 19],
      "drawn": false
    },
    {
      "_id": "z8phMXNhGEcJiLlj",
      "flags": {},
      "type": 0,
      "text": "Spiked Heavy Wooden Shield",
      "weight": 1,
      "range": [20, 20],
      "drawn": false
    },
    {
      "_id": "nEOtFw0gy5EJXnzu",
      "flags": {},
      "type": 0,
      "text": "Sword Cane",
      "weight": 1,
      "range": [21, 21],
      "drawn": false
    },
    {
      "_id": "cV1k8m5ZHRNnXb1z",
      "flags": {},
      "type": 0,
      "text": "Terbutje",
      "weight": 1,
      "range": [22, 22],
      "drawn": false
    },
    {
      "_id": "t9BGRmaA2yqiltp8",
      "flags": {},
      "type": 0,
      "text": "Trident",
      "weight": 1,
      "range": [23, 23],
      "drawn": false
    },
    {
      "_id": "e8tIwC27mXsSlA1h",
      "flags": {},
      "type": 0,
      "text": "Warhammer",
      "weight": 1,
      "range": [24, 24],
      "drawn": false
    },
    {
      "_id": "292tKq70UhLZZeap",
      "flags": {},
      "type": 0,
      "text": "Bastard Sword",
      "weight": 1,
      "range": [25, 25],
      "drawn": false
    },
    {
      "_id": "IuLUd5hQd9mT2UCi",
      "flags": {},
      "type": 0,
      "text": "Dwarven Waraxe",
      "weight": 1,
      "range": [26, 26],
      "drawn": false
    },
    {
      "_id": "RP8uzY8a72TYAheH",
      "flags": {},
      "type": 0,
      "text": "Falcata",
      "weight": 1,
      "range": [27, 27],
      "drawn": false
    },
    {
      "_id": "l7smfhlzmTfBF831",
      "flags": {},
      "type": 0,
      "text": "Great Terbutje",
      "weight": 1,
      "range": [28, 28],
      "drawn": false
    },
    {
      "_id": "RmlXynhNUODbo2qY",
      "flags": {},
      "type": 0,
      "text": "Hooked Axe",
      "weight": 1,
      "range": [29, 29],
      "drawn": false
    },
    {
      "_id": "7cKowRzURBrzjxkW",
      "flags": {},
      "type": 0,
      "text": "Katana",
      "weight": 1,
      "range": [30, 30],
      "drawn": false
    },
    {
      "_id": "7WM0Xvz8HEAEVo68",
      "flags": {},
      "type": 0,
      "text": "Khopesh",
      "weight": 1,
      "range": [31, 31],
      "drawn": false
    },
    {
      "_id": "e1WCQDfHIjrgNILP",
      "flags": {},
      "type": 0,
      "text": "Nine-Section Whip",
      "weight": 1,
      "range": [32, 32],
      "drawn": false
    },
    {
      "_id": "rmbVujoDqiJchYtI",
      "flags": {},
      "type": 0,
      "text": "Rhoka Sword",
      "weight": 1,
      "range": [33, 33],
      "drawn": false
    },
    {
      "_id": "oZpKpIbYDOobiQI8",
      "flags": {},
      "type": 0,
      "text": "Sawtooth Sabre",
      "weight": 1,
      "range": [34, 34],
      "drawn": false
    },
    {
      "_id": "sqfjVWGKglupGri0",
      "flags": {},
      "type": 0,
      "text": "Shotel",
      "weight": 1,
      "range": [35, 35],
      "drawn": false
    },
    {
      "_id": "H2UXasmyx7X0cHWh",
      "flags": {},
      "type": 0,
      "text": "Taiaha",
      "weight": 1,
      "range": [36, 36],
      "drawn": false
    },
    {
      "_id": "ix6vRpUOQPvj6BZ7",
      "flags": {},
      "type": 0,
      "text": "Temple Sword",
      "weight": 1,
      "range": [37, 37],
      "drawn": false
    },
    {
      "_id": "WY10IZa9DZuKPNsa",
      "flags": {},
      "type": 0,
      "text": "Urumi",
      "weight": 1,
      "range": [38, 38],
      "drawn": false
    },
    {
      "_id": "zr9nnFgXMvxK2OhM",
      "flags": {},
      "type": 0,
      "text": "Wahaika",
      "weight": 1,
      "range": [39, 39],
      "drawn": false
    },
    {
      "_id": "g3TuMZRuEMknIPHI",
      "flags": {},
      "type": 0,
      "text": "Whip",
      "weight": 1,
      "range": [40, 40],
      "drawn": false
    }
  ],
  "formula": "1d40",
  "replacement": true,
  "displayRoll": true,
  "_id": "7oUe3wUklUUbAVhL"
}
