{
  "name": "Uncommon Level 6 Arcane Scrolls",
  "flags": {},
  "description": "",
  "results": [
    {
      "_id": "qVsBCQv7Z9hbK4uG",
      "flags": {},
      "type": 0,
      "text": "Scroll of Analyze Dweomer",
      "img": "icons/svg/d20-black.svg",
      "resultId": "",
      "weight": 4,
      "range": [1, 4],
      "drawn": false
    },
    {
      "_id": "0KvBsXyFtssrRFvO",
      "flags": {},
      "type": 0,
      "text": "Scroll of Battlemind Link",
      "img": "icons/svg/d20-black.svg",
      "resultId": "",
      "weight": 4,
      "range": [5, 8],
      "drawn": false
    },
    {
      "_id": "CUIHHH6Lpa4z6AqV",
      "flags": {},
      "type": 0,
      "text": "Scroll of Cloak of Dreams",
      "img": "icons/svg/d20-black.svg",
      "resultId": "",
      "weight": 4,
      "range": [9, 12],
      "drawn": false
    },
    {
      "_id": "2EhQI0uNcHgqs7Xh",
      "flags": {},
      "type": 0,
      "text": "Scroll of Contagion, Greater",
      "img": "icons/svg/d20-black.svg",
      "resultId": "",
      "weight": 3,
      "range": [13, 15],
      "drawn": false
    },
    {
      "_id": "3B4SOCXwOIhtf9AV",
      "flags": {},
      "type": 0,
      "text": "Scroll of Contagious Flame",
      "img": "icons/svg/d20-black.svg",
      "resultId": "",
      "weight": 5,
      "range": [16, 20],
      "drawn": false
    },
    {
      "_id": "fKLdZGcAppxzUStT",
      "flags": {},
      "type": 0,
      "text": "Scroll of Contingency",
      "img": "icons/svg/d20-black.svg",
      "resultId": "",
      "weight": 6,
      "range": [21, 26],
      "drawn": false
    },
    {
      "_id": "E8HSBSfhvf2aqv8x",
      "flags": {},
      "type": 0,
      "text": "Scroll of Control Water",
      "img": "icons/svg/d20-black.svg",
      "resultId": "",
      "weight": 4,
      "range": [27, 30],
      "drawn": false
    },
    {
      "_id": "PJSXUU5IAHvD7jcw",
      "flags": {},
      "type": 0,
      "text": "Scroll of Elemental Body III",
      "img": "icons/svg/d20-black.svg",
      "resultId": "",
      "weight": 5,
      "range": [31, 35],
      "drawn": false
    },
    {
      "_id": "zHdO2jNAHcgagLvC",
      "flags": {},
      "type": 0,
      "text": "Scroll of Fluid Form",
      "img": "icons/svg/d20-black.svg",
      "resultId": "",
      "weight": 4,
      "range": [36, 39],
      "drawn": false
    },
    {
      "_id": "EtrvELCzCeilnNfG",
      "flags": {},
      "type": 0,
      "text": "Scroll of Forceful Hand",
      "img": "icons/svg/d20-black.svg",
      "resultId": "",
      "weight": 6,
      "range": [40, 45],
      "drawn": false
    },
    {
      "_id": "3XdwhNevTJPS2ftE",
      "flags": {},
      "type": 0,
      "text": "Scroll of Freezing Sphere",
      "img": "icons/svg/d20-black.svg",
      "resultId": "",
      "weight": 3,
      "range": [46, 48],
      "drawn": false
    },
    {
      "_id": "OPjYo3xr09lJtOZy",
      "flags": {},
      "type": 0,
      "text": "Scroll of Geas/Quest",
      "img": "icons/svg/d20-black.svg",
      "resultId": "",
      "weight": 5,
      "range": [49, 53],
      "drawn": false
    },
    {
      "_id": "I6IEvlTQyjGOmE0Q",
      "flags": {},
      "type": 0,
      "text": "Scroll of Getaway",
      "img": "icons/svg/d20-black.svg",
      "resultId": "",
      "weight": 4,
      "range": [54, 57],
      "drawn": false
    },
    {
      "_id": "h4z1zevtDkBOGjou",
      "flags": {},
      "type": 0,
      "text": "Scroll of Guards and Wards",
      "img": "icons/svg/d20-black.svg",
      "resultId": "",
      "weight": 2,
      "range": [58, 59],
      "drawn": false
    },
    {
      "_id": "2JKBZkV9rcfGbHV9",
      "flags": {},
      "type": 0,
      "text": "Scroll of Mage's Lucubration",
      "img": "icons/svg/d20-black.svg",
      "resultId": "",
      "weight": 2,
      "range": [60, 61],
      "drawn": false
    },
    {
      "_id": "2kDEmzkR047G6IoW",
      "flags": {},
      "type": 0,
      "text": "Scroll of Monstrous Physique IV",
      "img": "icons/svg/d20-black.svg",
      "resultId": "",
      "weight": 5,
      "range": [62, 66],
      "drawn": false
    },
    {
      "_id": "H3kKFmnxxOhVsxpM",
      "flags": {},
      "type": 0,
      "text": "Scroll of Move Earth",
      "img": "icons/svg/d20-black.svg",
      "resultId": "",
      "weight": 2,
      "range": [67, 68],
      "drawn": false
    },
    {
      "_id": "69w26p3AkQFLS0tl",
      "flags": {},
      "type": 0,
      "text": "Scroll of Permanent Image",
      "img": "icons/svg/d20-black.svg",
      "resultId": "",
      "weight": 3,
      "range": [69, 71],
      "drawn": false
    },
    {
      "_id": "KMcSULchq0dGoXSM",
      "flags": {},
      "type": 0,
      "text": "Scroll of Plant Shape II",
      "img": "icons/svg/d20-black.svg",
      "resultId": "",
      "weight": 5,
      "range": [72, 76],
      "drawn": false
    },
    {
      "_id": "yiNDchnZ3fwKgn6o",
      "flags": {},
      "type": 0,
      "text": "Scroll of Repulsion",
      "img": "icons/svg/d20-black.svg",
      "resultId": "",
      "weight": 4,
      "range": [77, 80],
      "drawn": false
    },
    {
      "_id": "DNTQx3YJ5KYy2SKt",
      "flags": {},
      "type": 0,
      "text": "Scroll of Sirocco",
      "img": "icons/svg/d20-black.svg",
      "resultId": "",
      "weight": 4,
      "range": [81, 84],
      "drawn": false
    },
    {
      "_id": "L7B9qArAsO7oR16l",
      "flags": {},
      "type": 0,
      "text": "Scroll of Tar Pool",
      "img": "icons/svg/d20-black.svg",
      "resultId": "",
      "weight": 3,
      "range": [85, 87],
      "drawn": false
    },
    {
      "_id": "SmJn7EOjLFGOBDtt",
      "flags": {},
      "type": 0,
      "text": "Scroll of Undead Anatomy III",
      "img": "icons/svg/d20-black.svg",
      "resultId": "",
      "weight": 5,
      "range": [88, 92],
      "drawn": false
    },
    {
      "_id": "xdzJxdwvmCdJIb9a",
      "flags": {},
      "type": 0,
      "text": "Scroll of Programmed Image",
      "img": "icons/svg/d20-black.svg",
      "resultId": "",
      "weight": 3,
      "range": [93, 95],
      "drawn": false
    },
    {
      "_id": "q7cL9Wis25Nex5eF",
      "flags": {},
      "type": 0,
      "text": "Scroll of Undeath To Death",
      "img": "icons/svg/d20-black.svg",
      "resultId": "",
      "weight": 3,
      "range": [96, 98],
      "drawn": false
    },
    {
      "_id": "yE1Pqt01j1Ge5XGU",
      "flags": {},
      "type": 0,
      "text": "Scroll of Symbol of Persuasion",
      "img": "icons/svg/d20-black.svg",
      "resultId": "",
      "weight": 2,
      "range": [99, 100],
      "drawn": false
    }
  ],
  "formula": "1d100",
  "replacement": true,
  "displayRoll": true,
  "_id": "9ruauYSQzc8nZHNG"
}
