{
  "name": "Uncommon Level 3 Divine Scrolls",
  "flags": {},
  "description": "",
  "results": [
    {
      "_id": "yLWszNBcY6V93Ivx",
      "flags": {},
      "type": 0,
      "text": "Scroll of Aqueous Orb",
      "img": "icons/svg/d20-black.svg",
      "resultId": "",
      "weight": 4,
      "range": [1, 4],
      "drawn": false
    },
    {
      "_id": "LYSFOVNg2Uwnm2CS",
      "flags": {},
      "type": 0,
      "text": "Scroll of Archon's Aura",
      "img": "icons/svg/d20-black.svg",
      "resultId": "",
      "weight": 4,
      "range": [5, 8],
      "drawn": false
    },
    {
      "_id": "uJT1spJEn0ECvhrF",
      "flags": {},
      "type": 0,
      "text": "Scroll of Bestow Insight",
      "img": "icons/svg/d20-black.svg",
      "resultId": "",
      "weight": 4,
      "range": [9, 12],
      "drawn": false
    },
    {
      "_id": "IHexbKQ4CSlLMg52",
      "flags": {},
      "type": 0,
      "text": "Scroll of Blindness/Deafness",
      "img": "icons/svg/d20-black.svg",
      "resultId": "",
      "weight": 4,
      "range": [13, 16],
      "drawn": false
    },
    {
      "_id": "QWg0hnQEUnXwq3Bu",
      "flags": {},
      "type": 0,
      "text": "Scroll of Burst of Nettles",
      "img": "icons/svg/d20-black.svg",
      "resultId": "",
      "weight": 3,
      "range": [17, 19],
      "drawn": false
    },
    {
      "_id": "8jw27e8NqUMUzewK",
      "flags": {},
      "type": 0,
      "text": "Scroll of Chain of Perdition",
      "img": "icons/svg/d20-black.svg",
      "resultId": "",
      "weight": 3,
      "range": [20, 22],
      "drawn": false
    },
    {
      "_id": "DzwnznP4ADtvUmtj",
      "flags": {},
      "type": 0,
      "text": "Scroll of Contagion",
      "img": "icons/svg/d20-black.svg",
      "resultId": "",
      "weight": 4,
      "range": [23, 26],
      "drawn": false
    },
    {
      "_id": "f6oNQ6g2rBJNIFVo",
      "flags": {},
      "type": 0,
      "text": "Scroll of Create Food and Water",
      "img": "icons/svg/d20-black.svg",
      "resultId": "",
      "weight": 4,
      "range": [27, 30],
      "drawn": false
    },
    {
      "_id": "AMGgszibE5GBX4bQ",
      "flags": {},
      "type": 0,
      "text": "Scroll of Daybreak Arrow",
      "img": "icons/svg/d20-black.svg",
      "resultId": "",
      "weight": 4,
      "range": [31, 34],
      "drawn": false
    },
    {
      "_id": "F0TwiO5FcyKe3yKt",
      "flags": {},
      "type": 0,
      "text": "Scroll of Diminish Plants",
      "img": "icons/svg/d20-black.svg",
      "resultId": "",
      "weight": 2,
      "range": [35, 36],
      "drawn": false
    },
    {
      "_id": "PIkA2t5MQ5DHAKYW",
      "flags": {},
      "type": 0,
      "text": "Scroll of Discovery Torch",
      "img": "icons/svg/d20-black.svg",
      "resultId": "",
      "weight": 4,
      "range": [37, 40],
      "drawn": false
    },
    {
      "_id": "PnOgbj3soJe4DqV9",
      "flags": {},
      "type": 0,
      "text": "Scroll of Dominate Animal",
      "img": "icons/svg/d20-black.svg",
      "resultId": "",
      "weight": 5,
      "range": [41, 45],
      "drawn": false
    },
    {
      "_id": "c96q5Vucq8ILwneo",
      "flags": {},
      "type": 0,
      "text": "Scroll of Guiding Star",
      "img": "icons/svg/d20-black.svg",
      "resultId": "",
      "weight": 3,
      "range": [46, 48],
      "drawn": false
    },
    {
      "_id": "KcZL7XQWJbFLICVM",
      "flags": {},
      "type": 0,
      "text": "Scroll of Helping Hand",
      "img": "icons/svg/d20-black.svg",
      "resultId": "",
      "weight": 3,
      "range": [49, 51],
      "drawn": false
    },
    {
      "_id": "a9IW5dfI1DAJ9nCI",
      "flags": {},
      "type": 0,
      "text": "Scroll of Meld Into Stone",
      "img": "icons/svg/d20-black.svg",
      "resultId": "",
      "weight": 5,
      "range": [52, 56],
      "drawn": false
    },
    {
      "_id": "louAXQGrI7dL1irs",
      "flags": {},
      "type": 0,
      "text": "Scroll of Obscure Object",
      "img": "icons/svg/d20-black.svg",
      "resultId": "",
      "weight": 2,
      "range": [57, 58],
      "drawn": false
    },
    {
      "_id": "DYYTda1hwZmhH1cu",
      "flags": {},
      "type": 0,
      "text": "Scroll of Plant Growth",
      "img": "icons/svg/d20-black.svg",
      "resultId": "",
      "weight": 3,
      "range": [59, 61],
      "drawn": false
    },
    {
      "_id": "fx6bOSnkXX2uNQVU",
      "flags": {},
      "type": 0,
      "text": "Scroll of Quench",
      "img": "icons/svg/d20-black.svg",
      "resultId": "",
      "weight": 3,
      "range": [62, 64],
      "drawn": false
    },
    {
      "_id": "0ddsUA9w93SEWNzr",
      "flags": {},
      "type": 0,
      "text": "Scroll of Shifting Sands",
      "img": "icons/svg/d20-black.svg",
      "resultId": "",
      "weight": 3,
      "range": [65, 67],
      "drawn": false
    },
    {
      "_id": "apjq6q8u0ETcYfUc",
      "flags": {},
      "type": 0,
      "text": "Scroll of Snare",
      "img": "icons/svg/d20-black.svg",
      "resultId": "",
      "weight": 5,
      "range": [68, 72],
      "drawn": false
    },
    {
      "_id": "DwubPpRuEFPqv6RN",
      "flags": {},
      "type": 0,
      "text": "Scroll of Speak With Plants",
      "img": "icons/svg/d20-black.svg",
      "resultId": "",
      "weight": 3,
      "range": [73, 75],
      "drawn": false
    },
    {
      "_id": "eTDvFii3AAV2P37C",
      "flags": {},
      "type": 0,
      "text": "Scroll of Spike Growth",
      "img": "icons/svg/d20-black.svg",
      "resultId": "",
      "weight": 5,
      "range": [76, 80],
      "drawn": false
    },
    {
      "_id": "AmzyWCHLtIr59h5M",
      "flags": {},
      "type": 0,
      "text": "Scroll of Vision of Hell",
      "img": "icons/svg/d20-black.svg",
      "resultId": "",
      "weight": 3,
      "range": [81, 83],
      "drawn": false
    },
    {
      "_id": "bG3BQjX3ye4MkqDt",
      "flags": {},
      "type": 0,
      "text": "Scroll of Wind Wall",
      "img": "icons/svg/d20-black.svg",
      "resultId": "",
      "weight": 4,
      "range": [84, 87],
      "drawn": false
    },
    {
      "_id": "46hzlZ70YP2YpLai",
      "flags": {},
      "type": 0,
      "text": "Scroll of Wrathful Mantle",
      "img": "icons/svg/d20-black.svg",
      "resultId": "",
      "weight": 3,
      "range": [88, 90],
      "drawn": false
    },
    {
      "_id": "kmPJeQ0zSjCxnMLW",
      "flags": {},
      "type": 0,
      "text": "Scroll of Continual Flame",
      "img": "icons/svg/d20-black.svg",
      "resultId": "",
      "weight": 3,
      "range": [91, 93],
      "drawn": false
    },
    {
      "_id": "nBjADquPRaXYFBgm",
      "flags": {},
      "type": 0,
      "text": "Scroll of Nap Stack",
      "img": "icons/svg/d20-black.svg",
      "resultId": "",
      "weight": 3,
      "range": [94, 96],
      "drawn": false
    },
    {
      "_id": "CSGN2KoqzxzVLZIX",
      "flags": {},
      "type": 0,
      "text": "Scroll of Glyph of Warding",
      "img": "icons/svg/d20-black.svg",
      "resultId": "",
      "weight": 2,
      "range": [97, 98],
      "drawn": false
    },
    {
      "_id": "Znxu4knbhceX5TAz",
      "flags": {},
      "type": 0,
      "text": "Scroll of Symbol of Healing",
      "img": "icons/svg/d20-black.svg",
      "resultId": "",
      "weight": 2,
      "range": [99, 100],
      "drawn": false
    }
  ],
  "formula": "1d100",
  "replacement": true,
  "displayRoll": true,
  "_id": "zfNWMwks0c1hUmmE"
}
