{
  "name": "Uncommon Level 8 Arcane Scrolls",
  "flags": {},
  "description": "",
  "results": [
    {
      "_id": "pgENArVRl0cHV21F",
      "flags": {},
      "type": 0,
      "text": "Scroll of Antipathy",
      "img": "icons/svg/d20-black.svg",
      "resultId": "",
      "weight": 4,
      "range": [1, 4],
      "drawn": false
    },
    {
      "_id": "Aq868m4mkGx7CktX",
      "flags": {},
      "type": 0,
      "text": "Scroll of Clenched Fist",
      "img": "icons/svg/d20-black.svg",
      "resultId": "",
      "weight": 6,
      "range": [5, 10],
      "drawn": false
    },
    {
      "_id": "tZhCUkWrkY03PWAo",
      "flags": {},
      "type": 0,
      "text": "Scroll of Clone",
      "img": "icons/svg/d20-black.svg",
      "resultId": "",
      "weight": 2,
      "range": [11, 12],
      "drawn": false
    },
    {
      "_id": "M2aPNQXBudxj10Gu",
      "flags": {},
      "type": 0,
      "text": "Scroll of Create Demiplane",
      "img": "icons/svg/d20-black.svg",
      "resultId": "",
      "weight": 3,
      "range": [13, 15],
      "drawn": false
    },
    {
      "_id": "mhq6exF84FDc1qcU",
      "flags": {},
      "type": 0,
      "text": "Scroll of Discern Location",
      "img": "icons/svg/d20-black.svg",
      "resultId": "",
      "weight": 4,
      "range": [16, 19],
      "drawn": false
    },
    {
      "_id": "Qmo0xagJzpPx3EHx",
      "flags": {},
      "type": 0,
      "text": "Scroll of Euphoric Tranquility",
      "img": "icons/svg/d20-black.svg",
      "resultId": "",
      "weight": 5,
      "range": [20, 24],
      "drawn": false
    },
    {
      "_id": "XNtAwBc8onqWFrEi",
      "flags": {},
      "type": 0,
      "text": "Scroll of Frightful Aspect",
      "img": "icons/svg/d20-black.svg",
      "resultId": "",
      "weight": 5,
      "range": [25, 29],
      "drawn": false
    },
    {
      "_id": "RAk1Wqba1eFkkBKY",
      "flags": {},
      "type": 0,
      "text": "Scroll of Giant Form II",
      "img": "icons/svg/d20-black.svg",
      "resultId": "",
      "weight": 5,
      "range": [30, 34],
      "drawn": false
    },
    {
      "_id": "88SDhf6zjAn7eRDn",
      "flags": {},
      "type": 0,
      "text": "Scroll of Iron Body",
      "img": "icons/svg/d20-black.svg",
      "resultId": "",
      "weight": 4,
      "range": [35, 38],
      "drawn": false
    },
    {
      "_id": "2gqCTEsufHxqQvaM",
      "flags": {},
      "type": 0,
      "text": "Scroll of Moment of Prescience",
      "img": "icons/svg/d20-black.svg",
      "resultId": "",
      "weight": 5,
      "range": [39, 43],
      "drawn": false
    },
    {
      "_id": "Z6EwExL0KZ3U6Ogf",
      "flags": {},
      "type": 0,
      "text": "Scroll of Orb of the Void",
      "img": "icons/svg/d20-black.svg",
      "resultId": "",
      "weight": 4,
      "range": [44, 47],
      "drawn": false
    },
    {
      "_id": "J1eX5AvKZZzdPuTi",
      "flags": {},
      "type": 0,
      "text": "Scroll of Pyrying Eyes, Greater",
      "img": "icons/svg/d20-black.svg",
      "resultId": "",
      "weight": 5,
      "range": [48, 52],
      "drawn": false
    },
    {
      "_id": "PeZwFFcQMJ0eTDsZ",
      "flags": {},
      "type": 0,
      "text": "Scroll of Screen",
      "img": "icons/svg/d20-black.svg",
      "resultId": "",
      "weight": 4,
      "range": [53, 56],
      "drawn": false
    },
    {
      "_id": "jiCJ4Aom7CGVtznN",
      "flags": {},
      "type": 0,
      "text": "Scroll of Shadow Evocation, Greater",
      "img": "icons/svg/d20-black.svg",
      "resultId": "",
      "weight": 6,
      "range": [57, 62],
      "drawn": false
    },
    {
      "_id": "tBiBIef8Lj1YLraS",
      "flags": {},
      "type": 0,
      "text": "Scroll of Shout, Greater",
      "img": "icons/svg/d20-black.svg",
      "resultId": "",
      "weight": 4,
      "range": [63, 66],
      "drawn": false
    },
    {
      "_id": "uK0MNxdh6CnbmiUC",
      "flags": {},
      "type": 0,
      "text": "Scroll of Stormbolts",
      "img": "icons/svg/d20-black.svg",
      "resultId": "",
      "weight": 6,
      "range": [67, 72],
      "drawn": false
    },
    {
      "_id": "ptlYpVrWxt3TNykT",
      "flags": {},
      "type": 0,
      "text": "Scroll of Sunburst",
      "img": "icons/svg/d20-black.svg",
      "resultId": "",
      "weight": 4,
      "range": [73, 76],
      "drawn": false
    },
    {
      "_id": "p2BM44bZIpJzlx6r",
      "flags": {},
      "type": 0,
      "text": "Scroll of Undead Anatomy IV",
      "img": "icons/svg/d20-black.svg",
      "resultId": "",
      "weight": 5,
      "range": [77, 81],
      "drawn": false
    },
    {
      "_id": "kHjLRvkayHeqzXRJ",
      "flags": {},
      "type": 0,
      "text": "Scroll of Wall of Lava",
      "img": "icons/svg/d20-black.svg",
      "resultId": "",
      "weight": 6,
      "range": [82, 87],
      "drawn": false
    },
    {
      "_id": "cTFe3KjFUsgbO5DP",
      "flags": {},
      "type": 0,
      "text": "Scroll of Create Greater Undead",
      "img": "icons/svg/d20-black.svg",
      "resultId": "",
      "weight": 4,
      "range": [88, 91],
      "drawn": false
    },
    {
      "_id": "7GE8ktKdZy6Rm10T",
      "flags": {},
      "type": 0,
      "text": "Scroll of Sympathy",
      "img": "icons/svg/d20-black.svg",
      "resultId": "",
      "weight": 4,
      "range": [92, 95],
      "drawn": false
    },
    {
      "_id": "cTk8hUDmJKd0xI67",
      "flags": {},
      "type": 0,
      "text": "Scroll of Symbol of Insanity",
      "img": "icons/svg/d20-black.svg",
      "resultId": "",
      "weight": 3,
      "range": [96, 98],
      "drawn": false
    },
    {
      "_id": "uy7WbAXuRZi7oEVb",
      "flags": {},
      "type": 0,
      "text": "Scroll of Binding (Chaining)",
      "img": "icons/svg/d20-black.svg",
      "resultId": "",
      "weight": 2,
      "range": [99, 100],
      "drawn": false
    }
  ],
  "formula": "1d100",
  "replacement": true,
  "displayRoll": true,
  "_id": "7tvttdUlIEWLH73K"
}
