{
  "name": "Uncommon Level 3 Wands",
  "flags": {},
  "description": "",
  "results": [
    {
      "_id": "sV7jRv28GEmCznbJ",
      "flags": {},
      "type": 0,
      "text": "Wand of Animal Aspect, Greater",
      "img": "icons/svg/d20-black.svg",
      "resultId": "",
      "weight": 4,
      "range": [1, 4],
      "drawn": false
    },
    {
      "_id": "t2ZmNxwVWSGUFx4f",
      "flags": {},
      "type": 0,
      "text": "Wand of Aqueous Orb",
      "img": "icons/svg/d20-black.svg",
      "resultId": "",
      "weight": 2,
      "range": [5, 6],
      "drawn": false
    },
    {
      "_id": "UfX1rzdwxgSaSa7M",
      "flags": {},
      "type": 0,
      "text": "Wand of Arcane Sight",
      "img": "icons/svg/d20-black.svg",
      "resultId": "",
      "weight": 2,
      "range": [7, 8],
      "drawn": false
    },
    {
      "_id": "0l0TmV15nhiIsC68",
      "flags": {},
      "type": 0,
      "text": "Wand of Archon's Aura",
      "img": "icons/svg/d20-black.svg",
      "resultId": "",
      "weight": 3,
      "range": [9, 11],
      "drawn": false
    },
    {
      "_id": "8W8MmzJ16i5cqmth",
      "flags": {},
      "type": 0,
      "text": "Wand of Ash Storm",
      "img": "icons/svg/d20-black.svg",
      "resultId": "",
      "weight": 3,
      "range": [12, 14],
      "drawn": false
    },
    {
      "_id": "GGbq8n7Nky36XfcF",
      "flags": {},
      "type": 0,
      "text": "Wand of Bestow Curse",
      "img": "icons/svg/d20-black.svg",
      "resultId": "",
      "weight": 3,
      "range": [15, 17],
      "drawn": false
    },
    {
      "_id": "Y0kzjnMDAViiGwiT",
      "flags": {},
      "type": 0,
      "text": "Wand of Clairaudience/Clairvoyance",
      "img": "icons/svg/d20-black.svg",
      "resultId": "",
      "weight": 3,
      "range": [18, 20],
      "drawn": false
    },
    {
      "_id": "EPvBXs98Wj97xirO",
      "flags": {},
      "type": 0,
      "text": "Wand of Contagion",
      "img": "icons/svg/d20-black.svg",
      "resultId": "",
      "weight": 2,
      "range": [21, 22],
      "drawn": false
    },
    {
      "_id": "lCLS96oUGi8xd9QH",
      "flags": {},
      "type": 0,
      "text": "Wand of Diminish Plants",
      "img": "icons/svg/d20-black.svg",
      "resultId": "",
      "weight": 1,
      "range": [23, 23],
      "drawn": false
    },
    {
      "_id": "ns9UUUykYtUbMRFI",
      "flags": {},
      "type": 0,
      "text": "Wand of Dominate Animal",
      "img": "icons/svg/d20-black.svg",
      "resultId": "",
      "weight": 2,
      "range": [24, 25],
      "drawn": false
    },
    {
      "_id": "HmJEgxDFXwkX94m3",
      "flags": {},
      "type": 0,
      "text": "Wand of Elemental Aura",
      "img": "icons/svg/d20-black.svg",
      "resultId": "",
      "weight": 4,
      "range": [26, 29],
      "drawn": false
    },
    {
      "_id": "QEY9hWCbwe0oIuqw",
      "flags": {},
      "type": 0,
      "text": "Wand of Explosive Runes",
      "img": "icons/svg/d20-black.svg",
      "resultId": "",
      "weight": 1,
      "range": [30, 30],
      "drawn": false
    },
    {
      "_id": "zzhjqdQA90TCZ39y",
      "flags": {},
      "type": 0,
      "text": "Wand of Force Punch",
      "img": "icons/svg/d20-black.svg",
      "resultId": "",
      "weight": 4,
      "range": [31, 34],
      "drawn": false
    },
    {
      "_id": "4vXgqBid0QD5DeGF",
      "flags": {},
      "type": 0,
      "text": "Wand of Halt Undead",
      "img": "icons/svg/d20-black.svg",
      "resultId": "",
      "weight": 1,
      "range": [35, 35],
      "drawn": false
    },
    {
      "_id": "hPVDNhcgCl1FrhLj",
      "flags": {},
      "type": 0,
      "text": "Wand of Helping Hand",
      "img": "icons/svg/d20-black.svg",
      "resultId": "",
      "weight": 2,
      "range": [36, 37],
      "drawn": false
    },
    {
      "_id": "JIskc3VBWsKmfkRS",
      "flags": {},
      "type": 0,
      "text": "Wand of Hostile Levitation",
      "img": "icons/svg/d20-black.svg",
      "resultId": "",
      "weight": 3,
      "range": [38, 40],
      "drawn": false
    },
    {
      "_id": "WXo6rGqREDc6fRdz",
      "flags": {},
      "type": 0,
      "text": "Wand of Howling Agony",
      "img": "icons/svg/d20-black.svg",
      "resultId": "",
      "weight": 3,
      "range": [41, 43],
      "drawn": false
    },
    {
      "_id": "mMXGBPI79tqAFuAv",
      "flags": {},
      "type": 0,
      "text": "Wand of Hydraulic Torrent",
      "img": "icons/svg/d20-black.svg",
      "resultId": "",
      "weight": 2,
      "range": [44, 45],
      "drawn": false
    },
    {
      "_id": "XnMTI5WfexOtVPgG",
      "flags": {},
      "type": 0,
      "text": "Wand of Mad Monkeys",
      "img": "icons/svg/d20-black.svg",
      "resultId": "",
      "weight": 1,
      "range": [46, 46],
      "drawn": false
    },
    {
      "_id": "npTJwYdOQtPHwECB",
      "flags": {},
      "type": 0,
      "text": "Wand of Meld Into Stone",
      "img": "icons/svg/d20-black.svg",
      "resultId": "",
      "weight": 3,
      "range": [47, 49],
      "drawn": false
    },
    {
      "_id": "dMy1WEggvAEcpPAL",
      "flags": {},
      "type": 0,
      "text": "Wand of Neutralize Poison",
      "img": "icons/svg/d20-black.svg",
      "resultId": "",
      "weight": 3,
      "range": [50, 52],
      "drawn": false
    },
    {
      "_id": "w2CdzjAmmuTcFTP7",
      "flags": {},
      "type": 0,
      "text": "Wand of Pain Strike",
      "img": "icons/svg/d20-black.svg",
      "resultId": "",
      "weight": 2,
      "range": [53, 54],
      "drawn": false
    },
    {
      "_id": "AQmIYccdiTXjK3bd",
      "flags": {},
      "type": 0,
      "text": "Wand of Phantom Steed",
      "img": "icons/svg/d20-black.svg",
      "resultId": "",
      "weight": 1,
      "range": [55, 55],
      "drawn": false
    },
    {
      "_id": "BAhxxjJa9Ov7QjN4",
      "flags": {},
      "type": 0,
      "text": "Wand of Plant Growth",
      "img": "icons/svg/d20-black.svg",
      "resultId": "",
      "weight": 2,
      "range": [56, 57],
      "drawn": false
    },
    {
      "_id": "VzE9IeKkXcy3gopZ",
      "flags": {},
      "type": 0,
      "text": "Wand of Poison",
      "img": "icons/svg/d20-black.svg",
      "resultId": "",
      "weight": 3,
      "range": [58, 60],
      "drawn": false
    },
    {
      "_id": "Y0x206FqdaIiXXcz",
      "flags": {},
      "type": 0,
      "text": "Wand of Quench",
      "img": "icons/svg/d20-black.svg",
      "resultId": "",
      "weight": 1,
      "range": [61, 61],
      "drawn": false
    },
    {
      "_id": "ZusSkqC20ufVsfVc",
      "flags": {},
      "type": 0,
      "text": "Wand of Rage",
      "img": "icons/svg/d20-black.svg",
      "resultId": "",
      "weight": 4,
      "range": [62, 65],
      "drawn": false
    },
    {
      "_id": "w9iX2TRNwyiR0p6P",
      "flags": {},
      "type": 0,
      "text": "Wand of Ray of Exhaustion",
      "img": "icons/svg/d20-black.svg",
      "resultId": "",
      "weight": 2,
      "range": [66, 67],
      "drawn": false
    },
    {
      "_id": "JsPHHB8naOCi0r4B",
      "flags": {},
      "type": 0,
      "text": "Wand of Resinous Skin",
      "img": "icons/svg/d20-black.svg",
      "resultId": "",
      "weight": 2,
      "range": [68, 69],
      "drawn": false
    },
    {
      "_id": "jDGaa0borexMoLi8",
      "flags": {},
      "type": 0,
      "text": "Wand of Secret Page",
      "img": "icons/svg/d20-black.svg",
      "resultId": "",
      "weight": 1,
      "range": [70, 70],
      "drawn": false
    },
    {
      "_id": "ok7NLAaKkhhv9YwR",
      "flags": {},
      "type": 0,
      "text": "Wand of Shrink Item",
      "img": "icons/svg/d20-black.svg",
      "resultId": "",
      "weight": 1,
      "range": [71, 71],
      "drawn": false
    },
    {
      "_id": "EPgMpaJkhSEQrr7i",
      "flags": {},
      "type": 0,
      "text": "Wand of Snare",
      "img": "icons/svg/d20-black.svg",
      "resultId": "",
      "weight": 2,
      "range": [72, 73],
      "drawn": false
    },
    {
      "_id": "ndyvAJkJYPLChPwH",
      "flags": {},
      "type": 0,
      "text": "Wand of Speak With Plants",
      "img": "icons/svg/d20-black.svg",
      "resultId": "",
      "weight": 1,
      "range": [74, 74],
      "drawn": false
    },
    {
      "_id": "hl6cOM4BT1ww6Q1T",
      "flags": {},
      "type": 0,
      "text": "Wand of Spike Growth",
      "img": "icons/svg/d20-black.svg",
      "resultId": "",
      "weight": 2,
      "range": [75, 76],
      "drawn": false
    },
    {
      "_id": "VGwnBbyATYz4hAfK",
      "flags": {},
      "type": 0,
      "text": "Wand of Tiny Hut",
      "img": "icons/svg/d20-black.svg",
      "resultId": "",
      "weight": 1,
      "range": [77, 77],
      "drawn": false
    },
    {
      "_id": "KqlrYK9qsHeiml7a",
      "flags": {},
      "type": 0,
      "text": "Wand of Water Walk",
      "img": "icons/svg/d20-black.svg",
      "resultId": "",
      "weight": 4,
      "range": [78, 81],
      "drawn": false
    },
    {
      "_id": "IMaBCYxgcqjYNWuQ",
      "flags": {},
      "type": 0,
      "text": "Wand of Wind Wall",
      "img": "icons/svg/d20-black.svg",
      "resultId": "",
      "weight": 3,
      "range": [82, 84],
      "drawn": false
    },
    {
      "_id": "ol988lLAO53lJAN5",
      "flags": {},
      "type": 0,
      "text": "Wand of Wrathful Mantle",
      "img": "icons/svg/d20-black.svg",
      "resultId": "",
      "weight": 2,
      "range": [85, 86],
      "drawn": false
    },
    {
      "_id": "QIUi06gngJMcbv4S",
      "flags": {},
      "type": 0,
      "text": "Wand of Illusory Script",
      "img": "icons/svg/d20-black.svg",
      "resultId": "",
      "weight": 1,
      "range": [87, 87],
      "drawn": false
    },
    {
      "_id": "oRmBbRgidYkRu02F",
      "flags": {},
      "type": 0,
      "text": "Wand of Nondetection",
      "img": "icons/svg/d20-black.svg",
      "resultId": "",
      "weight": 2,
      "range": [88, 89],
      "drawn": false
    },
    {
      "_id": "DeRrcDTf9rG0d50b",
      "flags": {},
      "type": 0,
      "text": "Wand of Glibness",
      "img": "icons/svg/d20-black.svg",
      "resultId": "",
      "weight": 2,
      "range": [90, 91],
      "drawn": false
    },
    {
      "_id": "TWu48sxRn7YBQQAt",
      "flags": {},
      "type": 0,
      "text": "Wand of Good Hope",
      "img": "icons/svg/d20-black.svg",
      "resultId": "",
      "weight": 4,
      "range": [92, 95],
      "drawn": false
    },
    {
      "_id": "9I5VIbFytbJAldEE",
      "flags": {},
      "type": 0,
      "text": "Wand of Heal Mount",
      "img": "icons/svg/d20-black.svg",
      "resultId": "",
      "weight": 2,
      "range": [96, 97],
      "drawn": false
    },
    {
      "_id": "4sjJil5WL75dGMx7",
      "flags": {},
      "type": 0,
      "text": "Wand of Sculpt Sound",
      "img": "icons/svg/d20-black.svg",
      "resultId": "",
      "weight": 1,
      "range": [98, 98],
      "drawn": false
    },
    {
      "_id": "KJOLwAMUYTBZkbTG",
      "flags": {},
      "type": 0,
      "text": "Wand of Glyph of Warding",
      "img": "icons/svg/d20-black.svg",
      "resultId": "",
      "weight": 1,
      "range": [99, 99],
      "drawn": false
    },
    {
      "_id": "fm3JMkRu33tipdmM",
      "flags": {},
      "type": 0,
      "text": "Wand of Sepia Snake Sigil",
      "img": "icons/svg/d20-black.svg",
      "resultId": "",
      "weight": 1,
      "range": [100, 100],
      "drawn": false
    }
  ],
  "formula": "1d100",
  "replacement": true,
  "displayRoll": true,
  "_id": "tQ3dzkGqsrzhzHKl"
}
