{
  "name": "Uncommon Level 6 Divine Scrolls",
  "flags": {},
  "description": "",
  "results": [
    {
      "_id": "v8U8Whg9QvZhBEg0",
      "flags": {},
      "type": 0,
      "text": "Scroll of Animate Objects",
      "img": "icons/svg/d20-black.svg",
      "resultId": "",
      "weight": 5,
      "range": [1, 5],
      "drawn": false
    },
    {
      "_id": "DijIIhfosLHm2yh0",
      "flags": {},
      "type": 0,
      "text": "Scroll of Antilife Shell",
      "img": "icons/svg/d20-black.svg",
      "resultId": "",
      "weight": 4,
      "range": [6, 9],
      "drawn": false
    },
    {
      "_id": "KNYS3vBjuusaMvb8",
      "flags": {},
      "type": 0,
      "text": "Scroll of Banishment",
      "img": "icons/svg/d20-black.svg",
      "resultId": "",
      "weight": 6,
      "range": [10, 15],
      "drawn": false
    },
    {
      "_id": "oBLmwEmUg8OvgzTz",
      "flags": {},
      "type": 0,
      "text": "Scroll of Cold Ice Strike",
      "img": "icons/svg/d20-black.svg",
      "resultId": "",
      "weight": 4,
      "range": [16, 19],
      "drawn": false
    },
    {
      "_id": "n5dIIFWr9CirRHHM",
      "flags": {},
      "type": 0,
      "text": "Scroll of Dust Form",
      "img": "icons/svg/d20-black.svg",
      "resultId": "",
      "weight": 4,
      "range": [20, 23],
      "drawn": false
    },
    {
      "_id": "s5gajyX8Jr8GcoeQ",
      "flags": {},
      "type": 0,
      "text": "Scroll of Geas/Quest",
      "img": "icons/svg/d20-black.svg",
      "resultId": "",
      "weight": 6,
      "range": [24, 29],
      "drawn": false
    },
    {
      "_id": "q5ROkJwViCrrFQtr",
      "flags": {},
      "type": 0,
      "text": "Scroll of Ironwood",
      "img": "icons/svg/d20-black.svg",
      "resultId": "",
      "weight": 4,
      "range": [30, 33],
      "drawn": false
    },
    {
      "_id": "mSxHeW9sXZxH1dgY",
      "flags": {},
      "type": 0,
      "text": "Scroll of Joyful Rapture",
      "img": "icons/svg/d20-black.svg",
      "resultId": "",
      "weight": 4,
      "range": [34, 37],
      "drawn": false
    },
    {
      "_id": "uwiGnmuqOpjmCdr0",
      "flags": {},
      "type": 0,
      "text": "Scroll of Move Earth",
      "img": "icons/svg/d20-black.svg",
      "resultId": "",
      "weight": 5,
      "range": [38, 42],
      "drawn": false
    },
    {
      "_id": "2304EU2sFWyDircn",
      "flags": {},
      "type": 0,
      "text": "Scroll of Plague Storm",
      "img": "icons/svg/d20-black.svg",
      "resultId": "",
      "weight": 4,
      "range": [43, 46],
      "drawn": false
    },
    {
      "_id": "va8fOsQ3L1YUAbQs",
      "flags": {},
      "type": 0,
      "text": "Scroll of Planar Adaptation, Mass",
      "img": "icons/svg/d20-black.svg",
      "resultId": "",
      "weight": 5,
      "range": [47, 51],
      "drawn": false
    },
    {
      "_id": "ZAwxtDV3EDuLxK05",
      "flags": {},
      "type": 0,
      "text": "Scroll of Repel Wood",
      "img": "icons/svg/d20-black.svg",
      "resultId": "",
      "weight": 3,
      "range": [52, 54],
      "drawn": false
    },
    {
      "_id": "3ukemTgCkwHSPXyt",
      "flags": {},
      "type": 0,
      "text": "Scroll of Sirocco",
      "img": "icons/svg/d20-black.svg",
      "resultId": "",
      "weight": 5,
      "range": [55, 59],
      "drawn": false
    },
    {
      "_id": "16w0LOttQThcHvdK",
      "flags": {},
      "type": 0,
      "text": "Scroll of Spellstaff",
      "img": "icons/svg/d20-black.svg",
      "resultId": "",
      "weight": 4,
      "range": [60, 63],
      "drawn": false
    },
    {
      "_id": "h70OoDvrtnqrCb8E",
      "flags": {},
      "type": 0,
      "text": "Scroll of Stone Tell",
      "img": "icons/svg/d20-black.svg",
      "resultId": "",
      "weight": 4,
      "range": [64, 67],
      "drawn": false
    },
    {
      "_id": "kQe6aYwslx6qW1mH",
      "flags": {},
      "type": 0,
      "text": "Scroll of Swarm Skin",
      "img": "icons/svg/d20-black.svg",
      "resultId": "",
      "weight": 3,
      "range": [68, 70],
      "drawn": false
    },
    {
      "_id": "KF25GUMWCjygwg2T",
      "flags": {},
      "type": 0,
      "text": "Scroll of Tar Pool",
      "img": "icons/svg/d20-black.svg",
      "resultId": "",
      "weight": 4,
      "range": [71, 74],
      "drawn": false
    },
    {
      "_id": "LpwNigGMA1Bbeyvn",
      "flags": {},
      "type": 0,
      "text": "Scroll of Transport Via Plants",
      "img": "icons/svg/d20-black.svg",
      "resultId": "",
      "weight": 3,
      "range": [75, 77],
      "drawn": false
    },
    {
      "_id": "ZIEbycAJeqUZXsCM",
      "flags": {},
      "type": 0,
      "text": "Scroll of Wind Walk",
      "img": "icons/svg/d20-black.svg",
      "resultId": "",
      "weight": 6,
      "range": [78, 83],
      "drawn": false
    },
    {
      "_id": "O7X1uLJtMIjmJOZ8",
      "flags": {},
      "type": 0,
      "text": "Scroll of Create Undead",
      "img": "icons/svg/d20-black.svg",
      "resultId": "",
      "weight": 3,
      "range": [84, 86],
      "drawn": false
    },
    {
      "_id": "g8OZHDg3FCaLG0Jf",
      "flags": {},
      "type": 0,
      "text": "Scroll of Glyph of Warding, Greater",
      "img": "icons/svg/d20-black.svg",
      "resultId": "",
      "weight": 4,
      "range": [87, 90],
      "drawn": false
    },
    {
      "_id": "lJw5D1tqPIsjngSY",
      "flags": {},
      "type": 0,
      "text": "Scroll of Undeath To Death",
      "img": "icons/svg/d20-black.svg",
      "resultId": "",
      "weight": 2,
      "range": [91, 92],
      "drawn": false
    },
    {
      "_id": "eENJsxn2UnI29lJX",
      "flags": {},
      "type": 0,
      "text": "Scroll of Symbol of Fear",
      "img": "icons/svg/d20-black.svg",
      "resultId": "",
      "weight": 3,
      "range": [93, 95],
      "drawn": false
    },
    {
      "_id": "YXlTOhix6MVT3hsR",
      "flags": {},
      "type": 0,
      "text": "Scroll of Forbiddance",
      "img": "icons/svg/d20-black.svg",
      "resultId": "",
      "weight": 3,
      "range": [96, 98],
      "drawn": false
    },
    {
      "_id": "GN8tuUJz1tiqM6mh",
      "flags": {},
      "type": 0,
      "text": "Scroll of Symbol of Persuasion",
      "img": "icons/svg/d20-black.svg",
      "resultId": "",
      "weight": 2,
      "range": [99, 100],
      "drawn": false
    }
  ],
  "formula": "1d100",
  "replacement": true,
  "displayRoll": true,
  "_id": "xs6wLxdwimYTBKJN"
}
