{
  "_id": "4zQgEV3XyR9zvqwU",
  "name": "Hellknight Plate",
  "type": "equipment",
  "img": "systems/pf1/icons/items/armor/hellknight-plate.png",
  "sort": 0,
  "flags": {},
  "system": {
    "description": {
      "value": "<p>These distinctive suits of armor are a special type of masterwork full plate that grant additional effects when worn by a character with levels in the Hellknight prestige class. Apart from its distinctive look (each order of Hellknights has its own style of armor), a suit of Hellknight plate functions the same as a suit of masterwork full plate.</p>"
    },
    "tags": [["Hellknight Plate"], ["Hellknight"], ["Full Plate"]],
    "weight": {
      "value": 50
    },
    "price": 2000,
    "hp": {
      "max": 45,
      "value": 45
    },
    "hardness": 10,
    "changes": [],
    "contextNotes": [],
    "actions": [],
    "attackNotes": [],
    "effectNotes": [],
    "links": {
      "children": [],
      "charges": []
    },
    "scriptCalls": [],
    "equipmentSubtype": "heavyArmor",
    "armor": {
      "value": 9,
      "dex": 1,
      "acp": 5
    },
    "spellFailure": 35,
    "slot": "armor"
  }
}
