{
  "_id": "q73l4hJuDIREmqDJ",
  "name": "Kikko",
  "type": "equipment",
  "img": "systems/pf1/icons/items/armor/kikko.PNG",
  "sort": 0,
  "flags": {},
  "system": {
    "description": {
      "value": "<p>Kikko armor consists of a clever arrangement of hexagonal plates made from iron and sewn to cloth, granting the wearer greater flexibility than that provided by many armors that afford similar defense. The plates may be left exposed or hidden by a layer of cloth.</p>"
    },
    "tags": [["Kikko"]],
    "weight": {
      "value": 25
    },
    "price": 250,
    "hp": {
      "max": 25,
      "value": 25
    },
    "hardness": 10,
    "changes": [],
    "contextNotes": [],
    "actions": [],
    "attackNotes": [],
    "effectNotes": [],
    "links": {
      "children": [],
      "charges": []
    },
    "scriptCalls": [],
    "equipmentSubtype": "mediumArmor",
    "armor": {
      "value": 5,
      "dex": 4,
      "acp": 3
    },
    "spellFailure": 20,
    "slot": "armor"
  }
}
