{
  "_id": "QYHoLcZmc7ad1A1z",
  "name": "Barbarian (Quick)",
  "type": "feat",
  "img": "systems/pf1/icons/skills/violet_07.jpg",
  "sort": 0,
  "flags": {},
  "system": {
    "description": {
      "value": "<p><strong>Acquired/Inherited Template</strong> Acquired<br><strong>Simple Template</strong> Yes<br><strong>Usable with Summons</strong> No<p>A barbarian creature can fly into a rage, granting it numerous bonuses in combat. It also gains additional hit points and a few valuable defensive abilities. A barbarian creature's CR increases by 3 if the creature has 10 or more HD. A barbarian creature must be chaotic.<p><strong>Quick Rules:</strong> +2 on all rolls based on Str; can rage† for a number of rounds per day equal to 4 + its HD + its Con modifier (this functions as greater rage† if the creature has 10 or more HD); gains DR 1/— and uncanny dodge† (DR 3/— and improved uncanny dodge† if the creature has 10 or more HD).<p><strong>Rebuild Rules:</strong> Defensive Abilities uncanny dodge† (improved uncanny dodge† if the creature has 10 or more HD; DR 1/— (3/— if the creature has 10 or more HD); Special Attacks rage† (can be used a number of rounds per day equal to 4 + its HD + its Con modifier, functions as the greater rage† class feature if the creature has 10 or more HD); Ability Scores +4 Strength.</p>"
    },
    "tags": [],
    "actions": [],
    "attackNotes": [],
    "effectNotes": [],
    "changes": [
      {
        "_id": "jom5kuh0",
        "formula": "2",
        "operator": "add",
        "subTarget": "mattack",
        "modifier": "untyped",
        "priority": 0,
        "value": 0,
        "target": "attack"
      },
      {
        "_id": "15lozryn",
        "formula": "2",
        "operator": "add",
        "subTarget": "wdamage",
        "modifier": "untyped",
        "priority": 0,
        "value": 0,
        "target": "damage"
      },
      {
        "_id": "tdyzbynh",
        "formula": "2",
        "operator": "add",
        "subTarget": "strChecks",
        "modifier": "untyped",
        "priority": 0,
        "value": 0,
        "target": "abilityChecks"
      },
      {
        "_id": "wcl5ykjc",
        "formula": "2",
        "operator": "add",
        "subTarget": "strSkills",
        "modifier": "untyped",
        "priority": 0,
        "value": 0,
        "target": "skills"
      }
    ],
    "contextNotes": [],
    "links": {
      "children": [],
      "charges": []
    },
    "armorProf": {
      "value": []
    },
    "weaponProf": {
      "value": []
    },
    "languages": {
      "value": []
    },
    "scriptCalls": [],
    "subType": "template",
    "associations": {
      "classes": []
    },
    "crOffset": "@attributes.hd.total >= 10 ? 3 : 2"
  }
}
