{
  "_id": "zfZ7M3PGgvWeolOz",
  "name": "Degenerate (Quick)",
  "type": "feat",
  "img": "systems/pf1/icons/skills/violet_07.jpg",
  "sort": 0,
  "flags": {},
  "system": {
    "description": {
      "value": "<p><strong>Acquired/Inherited Template</strong> Acquired</p>\n<p><strong>Simple Template</strong> Yes<br><strong>Usable with Summons</strong> No<p>Degenerate creatures are weaker than their ordinary cousins.<p><strong>Quick Rules:</strong> -2 on all rolls (including damage rolls) and to special ability DCs; -2 to AC and CMD; -2 hp/HD.<p><strong>Rebuild Rules:</strong> Ability Scores -4 to all ability scores (minimum 1).</p>"
    },
    "tags": [],
    "actions": [],
    "attackNotes": [],
    "effectNotes": [],
    "changes": [
      {
        "_id": "fo7a8i2b",
        "formula": "-2",
        "operator": "add",
        "subTarget": "attack",
        "modifier": "untyped",
        "priority": 0,
        "value": 0,
        "target": "attack"
      },
      {
        "_id": "a1s71u71",
        "formula": "-2",
        "operator": "add",
        "subTarget": "wdamage",
        "modifier": "untyped",
        "priority": 0,
        "value": 0,
        "target": "damage"
      },
      {
        "_id": "bsizn2bg",
        "formula": "-2",
        "operator": "add",
        "subTarget": "allSavingThrows",
        "modifier": "untyped",
        "priority": 0,
        "value": 0,
        "target": "savingThrows"
      },
      {
        "_id": "qdi41w1u",
        "formula": "-2",
        "operator": "add",
        "subTarget": "skills",
        "modifier": "untyped",
        "priority": 0,
        "value": 0,
        "target": "skills"
      },
      {
        "_id": "q2i6pb89",
        "formula": "-2",
        "operator": "add",
        "subTarget": "allChecks",
        "modifier": "untyped",
        "priority": 0,
        "value": 0,
        "target": "abilityChecks"
      },
      {
        "_id": "hxx0uqfh",
        "formula": "-2",
        "operator": "add",
        "subTarget": "ac",
        "modifier": "untyped",
        "priority": 0,
        "value": 0,
        "target": "ac"
      },
      {
        "_id": "qy5ge54l",
        "formula": "-2",
        "operator": "add",
        "subTarget": "cmd",
        "modifier": "untyped",
        "priority": 0,
        "value": 0,
        "target": "misc"
      },
      {
        "_id": "so685yut",
        "formula": "@attributes.hd.total * -2",
        "operator": "add",
        "subTarget": "mhp",
        "modifier": "untyped",
        "priority": 0,
        "value": 0,
        "target": "misc"
      }
    ],
    "contextNotes": [],
    "links": {
      "children": [],
      "charges": []
    },
    "armorProf": {
      "value": []
    },
    "weaponProf": {
      "value": []
    },
    "languages": {
      "value": []
    },
    "scriptCalls": [],
    "subType": "template",
    "associations": {
      "classes": []
    },
    "crOffset": "-1"
  }
}
