{
  "_id": "CjtaI9O7kMVpmvpK",
  "name": "Hellbound Creature (Quick)",
  "type": "feat",
  "img": "systems/pf1/icons/skills/violet_07.jpg",
  "sort": 0,
  "flags": {},
  "system": {
    "description": {
      "value": "<p><strong>Acquired/Inherited Template</strong> Acquired<br><strong>Simple Template</strong> Yes<br><strong>Usable with Summons</strong> No<p>Hellbound creatures have consigned their souls to Hell in exchange for infernal power. A hellbound creature’s Hit Dice determine what type of devil it can summon with its summon spell-like ability and the summon ability’s spell level. It can instead choose to summon 1d3 devils of the next weaker category, or 1d4+1 devils of two categories weaker.<p><strong>Quick Rules:</strong> Darkvision; see in darkness; +1 to AC; +1 on rolls based on Str and Cha; contract bound*; gore attack that deals 1d4 points of damage (for Medium creatures); summon (see table; 100%).<p><strong>Rebuild Rules:</strong> Senses darkvision, see in darkness; AC natural armor bonus increases by 1; Weaknesses contract bound*; Melee gore attack that deals 1d4 points of damage (for Medium creatures); Spell-like Abilities summon (see table; 100%); Ability Scores +2 Str, +2 Cha.</p>\n<p><strong>Hellbound Summon</strong></p>\n<hr>\n<table>\n<tbody>\n<tr>\n<td><strong>Hellbound Creature HD</strong></td>\n<td><strong>Devil</strong></td>\n<td><strong>Spell Level</strong></td>\n</tr>\n<tr>\n<td>8 or fewer</td>\n<td>Lemure</td>\n<td>2nd</td>\n</tr>\n<tr>\n<td>9-10</td>\n<td>Bearded devil</td>\n<td>5th</td>\n</tr>\n<tr>\n<td>11-12</td>\n<td>Erinyes</td>\n<td>6th</td>\n</tr>\n<tr>\n<td>13-14</td>\n<td>Bone devil</td>\n<td>7th</td>\n</tr>\n<tr>\n<td>15-16</td>\n<td>Barbed devil</td>\n<td>8th</td>\n</tr>\n<tr>\n<td>17 or more</td>\n<td>Ice devil</td>\n<td>9th</td>\n</tr>\n</tbody>\n</table>"
    },
    "tags": [],
    "actions": [],
    "attackNotes": [],
    "effectNotes": [],
    "changes": [
      {
        "_id": "gqqsuro6",
        "formula": "1",
        "operator": "add",
        "subTarget": "nac",
        "modifier": "untyped",
        "priority": 0,
        "value": 0,
        "target": "ac"
      },
      {
        "_id": "5cskhiyh",
        "formula": "1",
        "operator": "add",
        "subTarget": "mattack",
        "modifier": "untyped",
        "priority": 0,
        "value": 0,
        "target": "attack"
      },
      {
        "_id": "cmjs18xp",
        "formula": "1",
        "operator": "add",
        "subTarget": "wdamage",
        "modifier": "untyped",
        "priority": 0,
        "value": 0,
        "target": "damage"
      },
      {
        "_id": "6gg5uajb",
        "formula": "1",
        "operator": "add",
        "subTarget": "strSkills",
        "modifier": "racial",
        "priority": 0,
        "value": 0,
        "target": "skills"
      },
      {
        "_id": "es2mrox2",
        "formula": "1",
        "operator": "add",
        "subTarget": "strChecks",
        "modifier": "untyped",
        "priority": 0,
        "value": 0,
        "target": "abilityChecks"
      },
      {
        "_id": "3m2ym8o6",
        "formula": "1",
        "operator": "add",
        "subTarget": "chaSkills",
        "modifier": "racial",
        "priority": 0,
        "value": 0,
        "target": "skills"
      },
      {
        "_id": "r3izkdeo",
        "formula": "1",
        "operator": "add",
        "subTarget": "chaChecks",
        "modifier": "untyped",
        "priority": 0,
        "value": 0,
        "target": "abilityChecks"
      }
    ],
    "contextNotes": [],
    "links": {
      "children": [],
      "charges": []
    },
    "armorProf": {
      "value": []
    },
    "weaponProf": {
      "value": []
    },
    "languages": {
      "value": []
    },
    "scriptCalls": [],
    "subType": "template",
    "associations": {
      "classes": []
    },
    "crOffset": "1"
  }
}
