{
  "_id": "BbSctxbenUZvX9T9",
  "name": "Lich Creature (Rebuild)",
  "type": "feat",
  "img": "systems/pf1/icons/skills/violet_07.jpg",
  "sort": 0,
  "flags": {},
  "system": {
    "description": {
      "value": "<p><strong>Acquired/Inherited Template</strong> Acquired<br><strong>Simple Template </strong>Yes<br><strong>Usable with Summons</strong> No<p>While it might not have followed the traditional path to lichdom, which requires a strong aptitude for magic, a lich creature’s connection to an object allows it to survive as an undead indefinitely, returning each time its foes destroy it unless they can destroy the lich creature’s phylactery (Bestiary 188).<p><strong>Quick Rules:</strong> Counts as undead; darkvision 60 ft.; rejuvenation*; immune to cold and electricity; undead immunities; +1 on rolls based on Int, Wis, and Cha; touch attack deals 1d8 + 1/2 HD points of damage plus paralyzing touch*; fear aura*.<p><strong>Rebuild Rules:</strong> Type change to undead; Senses darkvision 60 ft.; Defensive Abilities rejuvenation*; Immune cold, electricity; Melee touch attack deals 1d8 + 1/2 HD points of damage plus paralyzing touch*; Special Attacks fear aura*, paralyzing touch*; Ability Scores +2 Int, +2 Wis, +2 Cha.</p>"
    },
    "tags": [],
    "actions": [],
    "attackNotes": [],
    "effectNotes": [],
    "changes": [
      {
        "_id": "ab85d1qy",
        "formula": "2",
        "operator": "add",
        "subTarget": "int",
        "modifier": "untyped",
        "priority": 0,
        "value": 0,
        "target": "ability"
      },
      {
        "_id": "fg9k9d17",
        "formula": "2",
        "operator": "add",
        "subTarget": "wis",
        "modifier": "untyped",
        "priority": 0,
        "value": 0,
        "target": "ability"
      },
      {
        "_id": "t19ma33u",
        "formula": "2",
        "operator": "add",
        "subTarget": "cha",
        "modifier": "untyped",
        "priority": 0,
        "value": 0,
        "target": "ability"
      }
    ],
    "contextNotes": [],
    "links": {
      "children": [],
      "charges": []
    },
    "armorProf": {
      "value": []
    },
    "weaponProf": {
      "value": []
    },
    "languages": {
      "value": []
    },
    "scriptCalls": [],
    "subType": "template",
    "associations": {
      "classes": []
    },
    "crOffset": "1"
  }
}
