{
  "_id": "4BOuZZKzHQ8FdVEG",
  "name": "Skeletal Champion",
  "type": "feat",
  "img": "systems/pf1/icons/skills/violet_07.jpg",
  "sort": 0,
  "flags": {},
  "system": {
    "description": {
      "value": "<p><strong>Acquired/Inherited Template</strong> Acquired<br><strong>Simple Template</strong> No<br><strong>Usable with Summons</strong> No<p>Some skeletons retain their intelligence and cunning, making them formidable warriors. These undead are far more powerful than their mindless kin, and many gain class levels.<p>“Skeletal Champion” is an acquired template that can be added to any corporeal creature (other than an undead) that has a skeletal system (referred to hereafter as the base creature) and a minimum Intelligence of 3.<p><strong>CR:</strong> A skeletal champion’s CR is +1 higher than a normal skeleton with the same HD.<p><strong>Type:</strong> The creature’s type becomes undead. It keeps subtypes save for alignment subtypes and subtypes that indicate kind.<p><strong>Alignment: </strong>Any evil.<p><strong>Armor Class:</strong> Natural armor as per skeleton.<p><strong>Hit Dice:</strong> Change all of the creature’s racial HD to d8s, then add 2 racial Hit Dice to this total (creatures without racial HD gain 2). HD from class levels are unchanged.<p><strong>Defensive Abilities:</strong> A skeletal champion gains DR 5/bludgeoning, channel resistance +4, and immunity to cold. It also gains all of the standard undead traits.<p><strong>Speed: </strong>As standard skeleton.<p><strong>Attacks: </strong>As standard skeleton.<p><strong>Abilities: </strong>Str +2, Dex +2. As undead, it has no Constitution score.<p><strong>BAB:</strong> Its BAB for racial HD equals 3/4 of its HD.<p><strong>Skills:</strong> Gains skill ranks per racial Hit Die equal to 4 + its Int modifier. Class skills for racial HD are Climb, Disguise, Fly, Intimidate, Knowledge (arcana), Knowledge (religion), Perception, Sense Motive, Spellcraft, and Stealth. Skills gained from class levels remain unchanged.<p><strong>Feats: </strong>A skeletal champion gains Improved Initiative as a bonus feat.<p><strong>Saves:</strong> Base save bonuses for racial Hit Dice are Fort +1/3 HD, Ref +1/3 HD, and Will +1/2 HD + 2.</p>"
    },
    "tags": [],
    "actions": [],
    "attackNotes": [],
    "effectNotes": [],
    "changes": [
      {
        "_id": "vnyyukym",
        "formula": "2",
        "operator": "add",
        "subTarget": "str",
        "modifier": "untyped",
        "priority": 0,
        "value": 0,
        "target": "ability"
      },
      {
        "_id": "osi23s1e",
        "formula": "2",
        "operator": "add",
        "subTarget": "dex",
        "modifier": "untyped",
        "priority": 0,
        "value": 0,
        "target": "ability"
      }
    ],
    "contextNotes": [],
    "links": {
      "children": [],
      "charges": []
    },
    "armorProf": {
      "value": []
    },
    "weaponProf": {
      "value": []
    },
    "languages": {
      "value": []
    },
    "scriptCalls": [],
    "subType": "template",
    "associations": {
      "classes": []
    },
    "crOffset": "1"
  }
}
