{
  "_id": "X2WLdbFFedaah6VC",
  "name": "Dragon",
  "type": "class",
  "img": "systems/pf1/icons/skills/fire_05.jpg",
  "sort": 0,
  "flags": {},
  "system": {
    "description": {
      "value": "<p>A dragon is a reptile-like creature, usually winged, with magical or unusual abilities.</p>\n<h2>Features</h2>\n<p>A dragon has the following features.</p>\n<ul>\n<li>d12 Hit Die.</li>\n<li>Base attack bonus equal to total Hit Dice (fast progression).</li>\n<li>Good <em>Fortitude</em>, <em>Reflex</em>, and <em>Will</em> Saves.</li>\n<li>Skill points equal to 6 + Int modifier (minimum 1) per Hit Die. The following are class skills for dragons: <em>Appraise</em>, <em>Bluff</em>, <em>Climb</em>, <em>Craft</em>, <em>Diplomacy</em>, <em>Fly</em>, <em>Heal</em>, <em>Intimidate</em>, <em>Knowledge</em> (all), <em>Linguistics</em>, <em>Perception</em>, <em>Sense Motive</em>, <em>Spellcraft</em>, <em>Stealth</em>, <em>Survival</em>, <em>Swim</em>, and <em>Use Magic Device</em>.</li>\n</ul>\n<h2>Traits</h2>\n<p>A dragon possesses the following traits (unless otherwise noted in a creature’s entry).</p>\n<ul>\n<li><em>Darkvision</em> 60 feet and <em>low-light vision</em>.</li>\n<li>Immunity to magic sleep effects and paralysis effects.</li>\n<li>Proficient with its natural weapons only unless humanoid in form (or capable of assuming humanoid form), in which case proficient with all simple weapons and any weapons mentioned in its entry.</li>\n<li>Proficient with no armor.</li>\n<li>Dragons breathe, eat, and sleep.</li>\n</ul>"
    },
    "tags": [],
    "changes": [],
    "links": "",
    "tag": "dragon",
    "armorProf": {
      "value": []
    },
    "weaponProf": {
      "value": []
    },
    "languages": {
      "value": []
    },
    "scriptCalls": [],
    "subType": "racial",
    "hd": 12,
    "hp": 12,
    "bab": "high",
    "skillsPerLevel": 6,
    "savingThrows": {
      "fort": {
        "value": "high"
      },
      "ref": {
        "value": "high"
      },
      "will": {
        "value": "high"
      }
    },
    "classSkills": {
      "acr": false,
      "apr": true,
      "art": false,
      "blf": true,
      "clm": true,
      "crf": true,
      "dip": true,
      "dev": false,
      "dis": false,
      "esc": false,
      "fly": true,
      "han": false,
      "hea": true,
      "int": true,
      "kar": true,
      "kdu": true,
      "ken": true,
      "kge": true,
      "khi": true,
      "klo": true,
      "kna": true,
      "kno": true,
      "kpl": true,
      "kre": true,
      "lin": true,
      "lor": false,
      "per": true,
      "prf": false,
      "pro": false,
      "rid": false,
      "sen": true,
      "slt": false,
      "spl": true,
      "ste": true,
      "sur": true,
      "swm": true,
      "umd": true
    }
  }
}
