{
  "_id": "qQCgBVieojhmMuHL",
  "name": "Armor Proficiency, Medium",
  "type": "feat",
  "img": "systems/pf1/icons/feats/armor-proficiency-medium.png",
  "sort": 0,
  "flags": {},
  "system": {
    "description": {
      "value": "<em>You are skilled at wearing medium armor.</em><p><b>Prerequisites</b><br>Light Armor Proficiency.<p><b>Benefits</b><br>See Armor Proficiency, Light.<p><b>Normal</b><br>See Armor Proficiency, Light.<p><b>Special</b><br>Barbarians, clerics, druids, fighters, paladins, and rangers automatically have Medium Armor Proficiency as a bonus feat. They need not select it."
    },
    "tags": [["PFS"], ["Combat"]],
    "actions": [],
    "attackNotes": [],
    "effectNotes": [],
    "changes": [],
    "contextNotes": [],
    "links": {
      "children": [],
      "charges": []
    },
    "tag": "feat_armorProficiencyMedium",
    "useCustomTag": true,
    "armorProf": {
      "value": ["med"]
    },
    "weaponProf": {
      "value": []
    },
    "languages": {
      "value": []
    },
    "scriptCalls": [],
    "associations": {
      "classes": []
    }
  }
}
