{
  "name": "Crushing Impact",
  "type": "feat",
  "img": "systems/pf1/icons/skills/fire_13.jpg",
  "system": {
    "description": {
      "value": "<p><strong>Source</strong> Martial Arts Handbook pg. 24</p><p><em>You slam into your foes with brute strength as unyielding as a wall.</em></p><p><strong>Prerequisites</strong>: Str 13, Improved Bull Rush, Improved Unarmed Strike, Power Attack.</p><p><strong>Benefit</strong>: Whenever you successfully bull rush an enemy and its movement is stopped by a solid object or barrier, you deal your unarmed strike damage to the foe, as long as it’s within your threatened area. If you performed your bull rush as part of a charge, you gain a +2 bonus on your damage roll.</p>"
    },
    "tags": [["Combat"]],
    "actions": [],
    "uses": {
      "per": ""
    },
    "attackNotes": [],
    "effectNotes": [],
    "changes": [],
    "contextNotes": [],
    "links": {
      "children": [],
      "charges": []
    },
    "armorProf": {
      "value": []
    },
    "weaponProf": {
      "value": []
    },
    "languages": {
      "value": []
    },
    "scriptCalls": [],
    "associations": {
      "classes": []
    },
    "classSkills": {
      "acr": false,
      "apr": false,
      "art": false,
      "blf": false,
      "clm": false,
      "crf": false,
      "dip": false,
      "dev": false,
      "dis": false,
      "esc": false,
      "fly": false,
      "han": false,
      "hea": false,
      "int": false,
      "kar": false,
      "kdu": false,
      "ken": false,
      "kge": false,
      "khi": false,
      "klo": false,
      "kna": false,
      "kno": false,
      "kpl": false,
      "kre": false,
      "lin": false,
      "lor": false,
      "per": false,
      "prf": false,
      "pro": false,
      "rid": false,
      "sen": false,
      "slt": false,
      "spl": false,
      "ste": false,
      "sur": false,
      "swm": false,
      "umd": false
    }
  },
  "flags": {},
  "sort": 0,
  "_id": "PjyRS3MdzvsVPyN8"
}
