{
  "_id": "RDgJ7awoKBhacWsu",
  "name": "Extra Lay On Hands",
  "type": "feat",
  "img": "systems/pf1/icons/feats/extra-lay-on-hands.jpg",
  "sort": 0,
  "flags": {},
  "system": {
    "description": {
      "value": "<i>You can use your lay on hands ability more often.</i>\n<p>\n<p><b>Prerequisites</b></p>\n<p>Lay on hands class feature.</p>\n<br>\n<p><b>Benefits</b></p>\n<p><p>You can use your lay on hands ability two additional times per day.</p></p>\n<br>\n<p><b>Special</b></p>\n<p><p>You can gain Extra Lay On Hands multiple times. Its effects stack.</p></p>"
    },
    "tags": [["General"]],
    "actions": [],
    "attackNotes": [],
    "effectNotes": [],
    "changes": [],
    "contextNotes": [],
    "links": {
      "children": [],
      "charges": []
    },
    "tag": "feat_extraLayOnHands",
    "useCustomTag": true,
    "armorProf": {
      "value": []
    },
    "weaponProf": {
      "value": []
    },
    "languages": {
      "value": []
    },
    "scriptCalls": [],
    "associations": {
      "classes": []
    }
  }
}
