{
  "_id": "asmQDyDYTtuXg8b4",
  "name": "Greater Weapon Specialization",
  "type": "feat",
  "img": "systems/pf1/icons/feats/greater-weapon-specialization.jpg",
  "sort": 0,
  "flags": {},
  "system": {
    "description": {
      "value": "<i>Choose one type of weapon (including unarmed strike or grapple) for which you possess the Weapon Specialization feat. Your attacks with the chosen weapon are more devastating than normal.</i>\n<p>\n<p><b>Prerequisites</b></p>\n<p>Proficiency with selected weapon, Greater Weapon Focus with selected weapon, Weapon Focus with selected weapon, Weapon Specialization with selected weapon, 12th-level fighter.</p>\n<br>\n<p><b>Benefits</b></p>\n<p><p>You gain a +2 bonus on all damage rolls you make using the selected weapon. This bonus to damage stacks with other damage roll bonuses, including any you gain from Weapon Specialization.</p></p>\n<br>\n<p><b>Special</b></p>\n<p><p>You can gain Greater Weapon Specialization multiple times. Its effects do not stack. Each time you take the feat, it applies to a new type of weapon.</p></p>"
    },
    "tags": [["Combat"], ["Offensive"], ["Weapon"]],
    "actions": [],
    "attackNotes": [],
    "effectNotes": [],
    "changes": [],
    "contextNotes": [],
    "links": {
      "children": [],
      "charges": []
    },
    "tag": "feat_greaterWeaponSpecialization",
    "useCustomTag": true,
    "armorProf": {
      "value": []
    },
    "weaponProf": {
      "value": []
    },
    "languages": {
      "value": []
    },
    "scriptCalls": [],
    "associations": {
      "classes": []
    }
  }
}
