{
  "_id": "2aTFNMs3pW6nUBlr",
  "name": "Improved Unarmed Strike",
  "type": "feat",
  "img": "systems/pf1/icons/feats/improved-unarmed-strike.jpg",
  "sort": 0,
  "flags": {},
  "system": {
    "description": {
      "value": "<i>You are skilled at fighting while unarmed.</i>\n<p>\n<p><b>Benefits</b></p>\n<p><p>You are considered to be armed even when unarmed — you do not provoke attacks of opportunity when you attack foes while unarmed. Your unarmed strikes can deal lethal or nonlethal damage, at your choice.</p></p>\n<br>\n<p><b>Normal</b></p>\n<p><p>Without this feat, you are considered unarmed when attacking with an unarmed strike, and you can deal only nonlethal damage with such an attack.</p></p>"
    },
    "tags": [["Combat"], ["Unarmed"], ["Offensive"]],
    "actions": [],
    "attackNotes": [],
    "effectNotes": [],
    "changes": [],
    "contextNotes": [],
    "links": {
      "children": [],
      "charges": []
    },
    "tag": "feat_improvedUnarmedStrike",
    "useCustomTag": true,
    "armorProf": {
      "value": []
    },
    "weaponProf": {
      "value": []
    },
    "languages": {
      "value": []
    },
    "scriptCalls": [],
    "associations": {
      "classes": []
    }
  }
}
