{
  "_id": "ZmQkRk93nbHxsQSt",
  "name": "Improved Grapple",
  "type": "feat",
  "img": "systems/pf1/icons/feats/improved-grapple.jpg",
  "sort": 0,
  "flags": {},
  "system": {
    "description": {
      "value": "<i>You are skilled at grappling opponents.</i>\n<p>\n<p><b>Prerequisites</b></p>\n<p>Dex 13, Improved Unarmed Strike.</p>\n<br>\n<p><b>Benefits</b></p>\n<p><p>You do not provoke an attack of opportunity when performing a grapple combat maneuver. In addition, you receive a +2 bonus on checks made to grapple a foe. You also receive a +2 bonus to your Combat Maneuver Defense whenever an opponent tries to grapple you.</p></p>\n<br>\n<p><b>Normal</b></p>\n<p><p>You provoke an attack of opportunity when performing a grapple combat maneuver.</p></p>"
    },
    "tags": [["Combat"], ["Combat Maneuver"], ["Offensive"]],
    "actions": [],
    "attackNotes": [],
    "effectNotes": [],
    "changes": [],
    "contextNotes": [],
    "links": {
      "children": [],
      "charges": []
    },
    "tag": "feat_improvedGrapple",
    "useCustomTag": true,
    "armorProf": {
      "value": []
    },
    "weaponProf": {
      "value": []
    },
    "languages": {
      "value": []
    },
    "scriptCalls": [],
    "associations": {
      "classes": []
    }
  }
}
