{
  "_id": "Kbuy0bkPlOYz5yaO",
  "name": "Improved Steal",
  "type": "feat",
  "img": "systems/pf1/icons/feats/greater-disarm.jpg",
  "system": {
    "description": {
      "value": "<p><em>You have a knack for snatching items from your opponents.</em><p><strong>Prerequisites</strong><br>Int 13, Combat Expertise.<p><strong>Benefits</strong><br>You do not provoke an attack of opportunity when performing a steal combat maneuver. In addition, you receive a +2 bonus on checks made to steal an item from a foe. You also receive a +2 bonus to your Combat Maneuver Defense when an opponent tries to steal an item from you.<p><strong>Normal</strong><br>You provoke an attack of opportunity when performing a steal combat maneuver.</p>"
    },
    "tags": [["Combat"]],
    "actions": [],
    "attackNotes": [],
    "effectNotes": [],
    "changes": [],
    "contextNotes": [
      {
        "subTarget": "cmb",
        "text": "No AoO from Steal. +2 to Steal from foe."
      },
      {
        "subTarget": "cmd",
        "text": "+2 CMD vs Steal"
      }
    ],
    "links": {
      "children": [],
      "charges": []
    },
    "tag": "feat_improvedSteal",
    "useCustomTag": true,
    "armorProf": {
      "value": []
    },
    "weaponProf": {
      "value": []
    },
    "languages": {
      "value": []
    },
    "scriptCalls": [],
    "associations": {
      "classes": []
    }
  },
  "sort": 0,
  "flags": {}
}
