{
  "name": "Ki Throw",
  "type": "feat",
  "img": "systems/pf1/icons/skills/yellow_40.jpg",
  "system": {
    "description": {
      "value": "<p><strong>Source</strong> Advanced Player's Guide pg. 164</p><p>Your physical control and mastery of momentum allows you to throw enemies.</p><p><strong>Prerequisites</strong>: Improved Trip, Improved Unarmed Strike.</p><p><strong>Benefit</strong>: On a successful unarmed trip attack against a target your size or smaller, you may throw the target prone in any square you threaten rather than its own square. This movement does not provoke attacks of opportunity, and you cannot throw the creature into a space occupied by other creatures.</p><p><strong>Special</strong>: A monk may gain Ki Throw as a bonus feat at 10th level. A monk with this feat can affect creatures larger than his own size by spending 1 ki point per size category difference.</p><h2>Combat Trick</h2><p>You can spend 5 stamina points to throw a creature one size category larger than you.</p>"
    },
    "tags": [["Combat"], ["Combat Trick"]],
    "actions": [],
    "uses": {
      "per": ""
    },
    "attackNotes": [],
    "effectNotes": [],
    "changes": [],
    "contextNotes": [],
    "links": {
      "children": [],
      "charges": []
    },
    "armorProf": {
      "value": []
    },
    "weaponProf": {
      "value": []
    },
    "languages": {
      "value": []
    },
    "scriptCalls": [],
    "associations": {
      "classes": []
    },
    "classSkills": {
      "acr": false,
      "apr": false,
      "art": false,
      "blf": false,
      "clm": false,
      "crf": false,
      "dip": false,
      "dev": false,
      "dis": false,
      "esc": false,
      "fly": false,
      "han": false,
      "hea": false,
      "int": false,
      "kar": false,
      "kdu": false,
      "ken": false,
      "kge": false,
      "khi": false,
      "klo": false,
      "kna": false,
      "kno": false,
      "kpl": false,
      "kre": false,
      "lin": false,
      "lor": false,
      "per": false,
      "prf": false,
      "pro": false,
      "rid": false,
      "sen": false,
      "slt": false,
      "spl": false,
      "ste": false,
      "sur": false,
      "swm": false,
      "umd": false
    }
  },
  "flags": {},
  "sort": 0,
  "_id": "IWcbDa0ITsDdiHjo"
}
