{
  "_id": "CLSsMyNmdcNAOUKC",
  "name": "Magical Aptitude",
  "type": "feat",
  "img": "systems/pf1/icons/feats/magical-aptitude.jpg",
  "sort": 0,
  "flags": {},
  "system": {
    "description": {
      "value": "<em>You are skilled at spellcasting and using magic items.</em><p><b>Benefits</b><br>You get a +2 bonus on all Spellcraft checks and Use Magic Device checks. If you have 10 or more ranks in one of these skills, the bonus increases to +4 for that skill."
    },
    "tags": [["PFS"], ["General"]],
    "actions": [],
    "attackNotes": [],
    "effectNotes": [],
    "changes": [
      {
        "_id": "eo8ln916",
        "formula": "@skills.spl.rank >= 10 ? 4 : 2",
        "operator": "add",
        "subTarget": "skill.spl",
        "modifier": "untyped",
        "priority": 0,
        "value": 2
      },
      {
        "_id": "6inqws2o",
        "formula": "@skills.umd.rank >= 10 ? 4 : 2",
        "operator": "add",
        "subTarget": "skill.umd",
        "modifier": "untyped",
        "priority": 0,
        "value": 4
      }
    ],
    "contextNotes": [],
    "links": {
      "children": [],
      "charges": []
    },
    "tag": "feat_magicalAptitude",
    "useCustomTag": true,
    "armorProf": {
      "value": []
    },
    "weaponProf": {
      "value": []
    },
    "languages": {
      "value": []
    },
    "scriptCalls": [],
    "associations": {
      "classes": []
    }
  }
}
