{
  "name": "Precise Strike",
  "type": "feat",
  "img": "icons/skills/melee/strike-sword-dagger-runes-yellow.webp",
  "system": {
    "description": {
      "value": "<p><strong>Source</strong> Advanced Player's Guide pg. 167</p><p><em>You are skilled at striking where it counts, as long as an ally distracts your foe.</em></p><p><strong>Prerequisites</strong>: Dex 13, base attack bonus +1.</p><p><strong>Benefit</strong>: Whenever you and an ally who also has this feat are flanking the same the creature, you deal an additional 1d6 points of precision damage with each successful melee attack. This bonus damage stacks with other sources of precision damage, such as sneak attack. This bonus damage is not multiplied on a critical hit.</p><h2>Combat Trick</h2><p>When dealing precision damage with this feat, you can spend 2 stamina points to increase that precision damage to 2d6.</p>"
    },
    "tags": [["Combat"], ["Teamwork"], ["Combat Trick"]],
    "actions": [
      {
        "_id": "b9xTPk7q6OOLVZCz",
        "name": "Use",
        "img": "icons/skills/melee/strike-sword-dagger-runes-yellow.webp",
        "description": "",
        "tag": "",
        "activation": {
          "cost": 1,
          "type": "special"
        },
        "unchainedAction": {
          "activation": {
            "cost": 1,
            "type": ""
          }
        },
        "duration": {
          "value": null,
          "units": ""
        },
        "target": {
          "value": ""
        },
        "range": {
          "value": null,
          "units": "",
          "maxIncrements": 1,
          "minValue": null,
          "minUnits": ""
        },
        "uses": {
          "autoDeductChargesCost": "",
          "self": {
            "value": 0,
            "maxFormula": "",
            "per": ""
          }
        },
        "measureTemplate": {
          "type": "",
          "size": "",
          "overrideColor": false,
          "customColor": "",
          "overrideTexture": false,
          "customTexture": ""
        },
        "attackName": "",
        "actionType": "other",
        "attackBonus": "",
        "critConfirmBonus": "",
        "damage": {
          "critParts": [],
          "nonCritParts": [],
          "parts": [
            {
              "formula": "1d6",
              "type": {
                "values": ["precision"],
                "custom": ""
              }
            }
          ]
        },
        "attackParts": [],
        "formulaicAttacks": {
          "count": {
            "formula": ""
          },
          "bonus": {
            "formula": ""
          },
          "label": null
        },
        "formula": "",
        "ability": {
          "attack": null,
          "damage": "",
          "damageMult": 1,
          "critRange": 20,
          "critMult": 2
        },
        "save": {
          "dc": "",
          "type": "",
          "description": ""
        },
        "effectNotes": [],
        "attackNotes": [],
        "soundEffect": "",
        "powerAttack": {
          "multiplier": null,
          "damageBonus": 2,
          "critMultiplier": 1
        },
        "naturalAttack": {
          "primaryAttack": true,
          "secondary": {
            "attackBonus": "-5",
            "damageMult": 0.5
          }
        },
        "nonlethal": false,
        "touch": false,
        "usesAmmo": false,
        "spellEffect": "",
        "spellArea": "",
        "conditionals": [],
        "enh": {
          "value": null
        }
      }
    ],
    "uses": {
      "per": ""
    },
    "attackNotes": [],
    "effectNotes": [],
    "changes": [],
    "contextNotes": [],
    "links": {
      "children": [],
      "charges": []
    },
    "armorProf": {
      "value": []
    },
    "weaponProf": {
      "value": []
    },
    "languages": {
      "value": []
    },
    "scriptCalls": [],
    "associations": {
      "classes": []
    },
    "classSkills": {
      "acr": false,
      "apr": false,
      "art": false,
      "blf": false,
      "clm": false,
      "crf": false,
      "dip": false,
      "dev": false,
      "dis": false,
      "esc": false,
      "fly": false,
      "han": false,
      "hea": false,
      "int": false,
      "kar": false,
      "kdu": false,
      "ken": false,
      "kge": false,
      "khi": false,
      "klo": false,
      "kna": false,
      "kno": false,
      "kpl": false,
      "kre": false,
      "lin": false,
      "lor": false,
      "per": false,
      "prf": false,
      "pro": false,
      "rid": false,
      "sen": false,
      "slt": false,
      "spl": false,
      "ste": false,
      "sur": false,
      "swm": false,
      "umd": false
    }
  },
  "flags": {},
  "sort": 0,
  "_id": "NdrNsfFKYGy3VXDF"
}
