{
  "_id": "WnWRcte0jppClLpz",
  "name": "Selective Channeling",
  "type": "feat",
  "img": "systems/pf1/icons/feats/selective-channeling.jpg",
  "sort": 0,
  "flags": {},
  "system": {
    "description": {
      "value": "<i>You can choose whom to affect when you channel energy.</i>\n<p>\n<p><b>Prerequisites</b></p>\n<p>Cha 13, channel energy class feature.</p>\n<br>\n<p><b>Benefits</b></p>\n<p><p>When you channel energy, you can choose a number of targets in the area up to your Charisma modifier. These targets are not affected by your channeled energy.</p></p>\n<br>\n<p><b>Normal</b></p>\n<p><p>All targets in a 30-foot burst are affected when you channel energy. You can only choose whether or not you are affected.</p></p>"
    },
    "tags": [["Channeling"]],
    "actions": [],
    "attackNotes": [],
    "effectNotes": [],
    "changes": [],
    "contextNotes": [],
    "links": {
      "children": [],
      "charges": []
    },
    "tag": "feat_selectiveChanneling",
    "useCustomTag": true,
    "armorProf": {
      "value": []
    },
    "weaponProf": {
      "value": []
    },
    "languages": {
      "value": []
    },
    "scriptCalls": [],
    "associations": {
      "classes": []
    }
  }
}
