{
  "name": "Signature Skill",
  "type": "feat",
  "img": "systems/pf1/icons/skills/blue_01.jpg",
  "system": {
    "description": {
      "value": "<p><strong>Source</strong> Pathfinder Unchained pg. 82</p><p><em>Your ability with a particular skill is the stuff of legends, and you can do things with that skill that others cannot.</em></p><p><strong>Prerequisites</strong>: 5 ranks in the chosen skill.</p><p><strong>Benefit</strong>: Choose one skill. You gain the ability listed in that skill’s 5 Ranks entry. As you gain more ranks in the chosen skill, you gain additional abilities. If you have 10 or more ranks in the chosen skill, you gain the appropriate abilities immediately. If your chosen skill is Craft, Knowledge, Perform, or Profession, you gain the listed powers only for one category of that skill, such as Craft (bows). This feat can be taken only once, but it stacks with the rogue’s edge ability and the cutting edge rogue talent.</p>"
    },
    "tags": [],
    "actions": [],
    "uses": {
      "per": ""
    },
    "attackNotes": [],
    "effectNotes": [],
    "changes": [],
    "contextNotes": [],
    "links": {
      "children": [],
      "charges": []
    },
    "armorProf": {
      "value": []
    },
    "weaponProf": {
      "value": []
    },
    "languages": {
      "value": []
    },
    "scriptCalls": [],
    "associations": {
      "classes": []
    },
    "classSkills": {
      "acr": false,
      "apr": false,
      "art": false,
      "blf": false,
      "clm": false,
      "crf": false,
      "dip": false,
      "dev": false,
      "dis": false,
      "esc": false,
      "fly": false,
      "han": false,
      "hea": false,
      "int": false,
      "kar": false,
      "kdu": false,
      "ken": false,
      "kge": false,
      "khi": false,
      "klo": false,
      "kna": false,
      "kno": false,
      "kpl": false,
      "kre": false,
      "lin": false,
      "lor": false,
      "per": false,
      "prf": false,
      "pro": false,
      "rid": false,
      "sen": false,
      "slt": false,
      "spl": false,
      "ste": false,
      "sur": false,
      "swm": false,
      "umd": false
    }
  },
  "flags": {},
  "sort": 0,
  "_id": "zOxJqI5CG4VoycmQ"
}
