{
  "_id": "Mz8ZG6nqW3NKFZhK",
  "name": "Step Up",
  "type": "feat",
  "img": "systems/pf1/icons/feats/step-up.png",
  "sort": 0,
  "flags": {},
  "system": {
    "description": {
      "value": "<i>You can close the distance when a foe tries to move away.</i>\n<p>\n<p><b>Prerequisites</b></p>\n<p>Base attack bonus +1.</p>\n<br>\n<p><b>Benefits</b></p>\n<p><p>Whenever an adjacent foe attempts to take a 5-foot step away from you, you may also make a 5-foot step as an immediate action so long as you end up adjacent to the foe that triggered this ability. If you take this step, you cannot take a 5-foot step during your next turn. If you take an action to move during your next turn, subtract 5 feet from your total movement.</p></p>"
    },
    "tags": [["Combat"], ["Movement"], ["Offensive"]],
    "actions": [],
    "attackNotes": [],
    "effectNotes": [],
    "changes": [],
    "contextNotes": [],
    "links": {
      "children": [],
      "charges": []
    },
    "tag": "feat_stepUp",
    "useCustomTag": true,
    "armorProf": {
      "value": []
    },
    "weaponProf": {
      "value": []
    },
    "languages": {
      "value": []
    },
    "scriptCalls": [],
    "associations": {
      "classes": []
    }
  }
}
