{
  "_id": "gGfXQq0IZrxdcZDx",
  "name": "Throw Anything",
  "type": "feat",
  "img": "systems/pf1/icons/feats/throw-anything.jpg",
  "sort": 0,
  "flags": {},
  "system": {
    "description": {
      "value": "<i>You are used to throwing things you have on hand.</i>\n<p>\n<p><b>Benefits</b></p>\n<p><p>You do not suffer any penalties for using an improvised ranged weapon. You receive a +1 circumstance bonus on attack rolls made with thrown splash weapons.</p></p>\n<br>\n<p><b>Normal</b></p>\n<p><p>You take a -4 penalty on attack rolls made with an improvised weapon.</p></p>"
    },
    "tags": [["Combat"], ["Offensive"], ["Weapon"]],
    "actions": [],
    "attackNotes": [],
    "effectNotes": [],
    "changes": [],
    "contextNotes": [],
    "links": {
      "children": [],
      "charges": []
    },
    "tag": "feat_throwAnything",
    "useCustomTag": true,
    "armorProf": {
      "value": []
    },
    "weaponProf": {
      "value": []
    },
    "languages": {
      "value": []
    },
    "scriptCalls": [],
    "associations": {
      "classes": []
    }
  }
}
