{
  "_id": "PsRZOF49ZKtorZbs",
  "name": "Wyrwood",
  "type": "race",
  "img": "systems/pf1/icons/races/creature-types/construct.png",
  "sort": 0,
  "flags": {},
  "system": {
    "description": {
      "value": "<h2>Standard Racial Traits</h2><ul><li><strong>Ability Score Modifiers</strong>: Standard (+2 <em>Dexterity</em>, +2 <em>Intelligence</em>, –2 <em>Charisma</em>)</li><li><strong>Type</strong>: <em>Construct</em></li><li><strong>Size</strong>: Small</li><li><strong>Base Speed</strong>: Normal</li><li><strong>Languages</strong>: Standard</li></ul><h3>Senses</h3><ul><li><strong>Darkvision</strong>: Wyrwoods have <em>darkvision</em> and so can see perfectly in the dark up to 60 feet.</li><li><strong>Low-Light Vision</strong>: Wyrwood can see twice as far as humans in dim light.</li></ul>"
    },
    "tags": [],
    "changes": [
      {
        "_id": "jr8cauoc",
        "formula": "2",
        "operator": "add",
        "subTarget": "dex",
        "modifier": "racial",
        "priority": 0,
        "value": 0,
        "target": "ability"
      },
      {
        "_id": "tsqhgti0",
        "formula": "2",
        "operator": "add",
        "subTarget": "int",
        "modifier": "racial",
        "priority": 0,
        "value": 0,
        "target": "ability"
      },
      {
        "_id": "izdo32ly",
        "formula": "-2",
        "operator": "add",
        "subTarget": "cha",
        "modifier": "racial",
        "priority": 0,
        "value": 0,
        "target": "ability"
      }
    ],
    "contextNotes": [],
    "links": {
      "children": []
    },
    "armorProf": {
      "value": []
    },
    "weaponProf": {
      "value": []
    },
    "languages": {
      "value": ["common"]
    },
    "scriptCalls": [],
    "creatureType": "construct",
    "subTypes": []
  }
}
