{
  "_id": "30zWiZ47MwsViPEE",
  "name": "Crushing Wheel",
  "type": "weapon",
  "img": "icons/commodities/wood/wood-carved-runes.webp",
  "sort": 0,
  "flags": {},
  "system": {
    "description": {
      "value": "<p><strong>Source</strong> <em>Belkzen, Hold of the Orc Hordes pg. 39</em></p><h3>Statistics</h3><p><strong>Cost</strong> 500 gp <strong>Weight</strong> -</p><p><strong>Damage</strong> 4d6; <strong>Critical</strong> -; <strong>Range</strong> -; <strong>Type</strong> B</p><p><strong>Crew</strong> 4; <strong>Aim</strong> 0; <strong>Load</strong> 0; <strong>Speed</strong> 0 ft.</p><p><strong>Category</strong> Close Assault; <strong>Proficiency</strong> Siege Engine</p><h3>Description</h3><p>The bulk of this weapon is a steel roller nearly 10 feet wide. Handles or a harness project from the axle, allowing four orcs or one Large beast to push the crushing wheel from behind. As a full-round action, its crew can roll the crushing wheel over creatures in front of it. This functions as the trample monster ability except as noted here. Creatures that are overrun fall prone and take 4d6 points of damage. Targets that succeed at a DC 15 Reflex saving throw take only half damage and avoid falling prone. A crushing wheel has a hardness of 10 and 100 hit points.</p><p>A crushing wheel is a Large siege engine.</p>"
    },
    "tags": [["Crushing Wheel"]],
    "price": 500,
    "hardness": 10,
    "identifiedName": "Crushing Wheel",
    "changes": [],
    "actions": [
      {
        "_id": "0ukbx5m4s1v7f327",
        "name": "Attack",
        "img": "icons/commodities/wood/wood-carved-runes.webp",
        "description": "",
        "tag": "",
        "activation": {
          "cost": 1,
          "type": "attack"
        },
        "unchainedAction": {
          "activation": {
            "cost": 1,
            "type": ""
          }
        },
        "duration": {
          "value": null,
          "units": "inst"
        },
        "target": {
          "value": ""
        },
        "range": {
          "value": "0",
          "units": "melee",
          "maxIncrements": 1,
          "minValue": null,
          "minUnits": ""
        },
        "uses": {
          "autoDeductChargesCost": "",
          "self": {
            "value": 0,
            "maxFormula": "",
            "per": null
          },
          "per": "",
          "value": 0,
          "maxFormula": ""
        },
        "measureTemplate": {
          "type": "",
          "size": "",
          "overrideColor": false,
          "customColor": "",
          "overrideTexture": false,
          "customTexture": ""
        },
        "attackName": "",
        "actionType": "mwak",
        "attackBonus": "",
        "critConfirmBonus": "",
        "damage": {
          "parts": [
            [
              "sizeRoll(4, 6, @size)",
              {
                "values": ["bludgeoning"],
                "custom": ""
              }
            ]
          ],
          "critParts": [],
          "nonCritParts": []
        },
        "attackParts": [],
        "formulaicAttacks": {
          "count": {
            "formula": "min(3, ceil(@attributes.bab.total / 5) - 1)"
          },
          "bonus": {
            "formula": "@formulaicAttack * -5"
          },
          "label": null
        },
        "formula": "",
        "ability": {
          "attack": "str",
          "damage": "str",
          "damageMult": 1,
          "critRange": null,
          "critMult": 2
        },
        "save": {
          "dc": "0",
          "type": "",
          "description": ""
        },
        "effectNotes": [],
        "attackNotes": [],
        "soundEffect": "",
        "powerAttack": {
          "multiplier": "",
          "damageBonus": 2,
          "critMultiplier": 1
        },
        "naturalAttack": {
          "primaryAttack": true,
          "secondary": {
            "attackBonus": "-5",
            "damageMult": 0.5
          }
        },
        "nonlethal": false,
        "usesAmmo": false,
        "spellEffect": "",
        "spellArea": "",
        "conditionals": [],
        "enh": {
          "value": null
        }
      }
    ],
    "uses": {
      "per": ""
    },
    "attackNotes": [],
    "effectNotes": [],
    "contextNotes": [],
    "links": {
      "children": []
    },
    "tag": "crushingWheel",
    "scriptCalls": [],
    "weaponGroups": {
      "value": []
    },
    "subType": "misc",
    "weaponSubtype": "other"
  }
}
