{
  "_id": "uzKEhoSnSenjM9TJ",
  "name": "Distance Arrow (Iron-tipped)",
  "type": "loot",
  "img": "systems/pf1/icons/items/weapons/arrow.PNG",
  "sort": 0,
  "flags": {},
  "system": {
    "description": {
      "value": "<p><strong>Source</strong> <em>Ultimate Combat pg. 130</em></p>\n<h3><span title=\"PFS Legal\">[PFS]</span> Statistics</h3>\n<p><strong>Cost</strong> 1 gp <strong>Weight</strong> 4 lbs.</p>\n<p><strong>Category</strong> Ammunition; <strong>Proficiency</strong> Ammunition</p>\n<h3>Description</h3>\n<p>Used tactically for long-range attacks on troops, these arrows are fitted with heavy iron heads. While these heads help them travel great distances, they make the arrows less effective at dealing damage.</p>\n<p>Iron-tipped distance arrows increase their bow's range increment by 10 feet but take a <strong>-1 penalty on damage</strong> dealt per range increment (minimum 1 point of damage).</p>\n<p>They are sold in leather quivers in quantities of 20.</p>"
    },
    "tags": [],
    "quantity": 20,
    "weight": {
      "value": 0.2
    },
    "price": 0.05,
    "equipped": false,
    "hp": {
      "max": 1,
      "value": 1
    },
    "hardness": 5,
    "unidentified": {
      "price": 0.05
    },
    "identifiedName": "Distance Arrow (Iron-tipped)",
    "changes": [],
    "contextNotes": [],
    "links": {
      "children": []
    },
    "scriptCalls": [],
    "subType": "ammo",
    "extraType": "arrow"
  }
}
