{
  "_id": "x1nte1KpHWKsDlww",
  "name": "Dwarven Chain-Flail",
  "type": "weapon",
  "img": "systems/pf1/icons/items/weapons/dwarven-dorn-dergar.png",
  "sort": 0,
  "flags": {},
  "system": {
    "description": {
      "value": "<p><em>This 10-foot-long chain is weighted at the end by a ball of solid iron the size of a large fist.</em></p>\n<p>By adjusting the slack of the chain, the weapon can be used either with or without reach. Changing between using it as a normal weapon and a reach weapon is a <em>move action</em>.</p>"
    },
    "tags": [["Dwarven Chain-Flail"], ["Dwarven"]],
    "weight": {
      "value": 15
    },
    "price": 50,
    "hardness": 10,
    "changes": [],
    "actions": [
      {
        "_id": "3s819odpl93wr6fz",
        "name": "Attack",
        "img": "systems/pf1/icons/items/weapons/dwarven-dorn-dergar.png",
        "description": "",
        "tag": "",
        "activation": {
          "cost": 1,
          "type": "attack"
        },
        "unchainedAction": {
          "activation": {
            "cost": 1,
            "type": ""
          }
        },
        "duration": {
          "value": null,
          "units": "inst"
        },
        "target": {
          "value": ""
        },
        "range": {
          "value": null,
          "units": "melee",
          "maxIncrements": 1,
          "minValue": null,
          "minUnits": ""
        },
        "uses": {
          "autoDeductChargesCost": "",
          "self": {
            "value": 0,
            "maxFormula": "",
            "per": null
          },
          "per": null,
          "value": 0,
          "maxFormula": ""
        },
        "measureTemplate": {
          "type": "",
          "size": "",
          "overrideColor": false,
          "customColor": "",
          "overrideTexture": false,
          "customTexture": ""
        },
        "attackName": "",
        "actionType": "mwak",
        "attackBonus": "",
        "critConfirmBonus": "",
        "damage": {
          "parts": [
            [
              "sizeRoll(1, 10, @size)",
              {
                "values": ["bludgeoning"],
                "custom": ""
              }
            ]
          ],
          "critParts": [],
          "nonCritParts": []
        },
        "attackParts": [],
        "formulaicAttacks": {
          "count": {
            "formula": "min(3, ceil(@attributes.bab.total / 5) - 1)"
          },
          "bonus": {
            "formula": "@formulaicAttack * -5"
          },
          "label": null
        },
        "formula": "",
        "ability": {
          "attack": "str",
          "damage": "str",
          "damageMult": 1.5,
          "critRange": "20",
          "critMult": "2"
        },
        "save": {
          "dc": 0,
          "type": "",
          "description": ""
        },
        "effectNotes": [],
        "attackNotes": [],
        "soundEffect": "",
        "powerAttack": {
          "multiplier": "",
          "damageBonus": 2,
          "critMultiplier": 1
        },
        "naturalAttack": {
          "primaryAttack": true,
          "secondary": {
            "attackBonus": "-5",
            "damageMult": 0.5
          }
        },
        "nonlethal": false,
        "usesAmmo": false,
        "spellEffect": "",
        "spellArea": "",
        "conditionals": [],
        "enh": {
          "value": null
        }
      }
    ],
    "attackNotes": [],
    "effectNotes": [],
    "contextNotes": [],
    "links": {
      "children": []
    },
    "scriptCalls": [],
    "held": "2h",
    "weaponGroups": {
      "value": []
    },
    "subType": "exotic",
    "weaponSubtype": "2h"
  }
}
