{
  "_id": "bTmiY6Bkj2kSPUKV",
  "name": "Dwarven Sphinx Hammer",
  "type": "weapon",
  "img": "systems/pf1/icons/items/weapons/dwarven-sphinx-hammer.PNG",
  "sort": 0,
  "flags": {},
  "system": {
    "description": {
      "value": "<p><strong>Source</strong> <em>Heroes from the Fringe pg. 8</em></p><h3>Statistics</h3><p><strong>Cost</strong> 45 gp <strong>Weight</strong> 8 lbs.</p><p><strong>Damage</strong> 1d8 (small), 1d10 (medium); <strong>Critical</strong> x3; <strong>Range</strong> 20 ft.; <strong>Type</strong> B; <strong>Special</strong> -</p><p><strong>Category</strong> Two-Handed; <strong>Proficiency</strong> Exotic</p><p><strong>Weapon Groups</strong> Hammers; Thrown</p><h3>Description</h3><p>The dwarven sphinx hammer is a long-handled hammer with a striking head that is artfully designed to look like a ram-headed criosphinx. Most commonly found among the Pahmet, the dwarven sphinx hammer is balanced for use as both a melee weapon and a thrown weapon.</p>"
    },
    "tags": [["Dwarven Sphinx Hammer"], ["Dwarven"]],
    "weight": {
      "value": 8
    },
    "price": 45,
    "hardness": 10,
    "identifiedName": "Dwarven Sphinx Hammer",
    "changes": [],
    "actions": [
      {
        "_id": "m50ds28lnooa637f",
        "name": "Attack",
        "img": "systems/pf1/icons/items/weapons/dwarven-sphinx-hammer.PNG",
        "description": "",
        "tag": "",
        "activation": {
          "cost": 1,
          "type": "attack"
        },
        "unchainedAction": {
          "activation": {
            "cost": 1,
            "type": ""
          }
        },
        "duration": {
          "value": null,
          "units": "inst"
        },
        "target": {
          "value": ""
        },
        "range": {
          "value": "20",
          "units": "melee",
          "maxIncrements": 1,
          "minValue": null,
          "minUnits": ""
        },
        "uses": {
          "autoDeductChargesCost": "",
          "self": {
            "value": 0,
            "maxFormula": "",
            "per": null
          },
          "per": null,
          "value": 0,
          "maxFormula": ""
        },
        "measureTemplate": {
          "type": "",
          "size": "",
          "overrideColor": false,
          "customColor": "",
          "overrideTexture": false,
          "customTexture": ""
        },
        "attackName": "",
        "actionType": "mwak",
        "attackBonus": "",
        "critConfirmBonus": "",
        "damage": {
          "parts": [
            [
              "sizeRoll(1, 10, @size)",
              {
                "values": ["bludgeoning"],
                "custom": ""
              }
            ]
          ],
          "critParts": [],
          "nonCritParts": []
        },
        "attackParts": [],
        "formulaicAttacks": {
          "count": {
            "formula": "min(3, ceil(@attributes.bab.total / 5) - 1)"
          },
          "bonus": {
            "formula": "@formulaicAttack * -5"
          },
          "label": null
        },
        "formula": "",
        "ability": {
          "attack": "str",
          "damage": "str",
          "damageMult": 1.5,
          "critRange": 20,
          "critMult": 3
        },
        "save": {
          "dc": 0,
          "type": "",
          "description": ""
        },
        "effectNotes": [],
        "attackNotes": [],
        "soundEffect": "",
        "powerAttack": {
          "multiplier": "",
          "damageBonus": 2,
          "critMultiplier": 1
        },
        "naturalAttack": {
          "primaryAttack": true,
          "secondary": {
            "attackBonus": "-5",
            "damageMult": 0.5
          }
        },
        "nonlethal": false,
        "usesAmmo": false,
        "spellEffect": "",
        "spellArea": "",
        "conditionals": [],
        "enh": {
          "value": null
        }
      }
    ],
    "attackNotes": [],
    "effectNotes": [],
    "contextNotes": [],
    "links": {
      "children": []
    },
    "tag": "dwarvenSphinxHammer",
    "scriptCalls": [],
    "held": "2h",
    "weaponGroups": {
      "value": ["hammers", "thrown"]
    },
    "subType": "exotic",
    "weaponSubtype": "2h"
  }
}
