{
  "_id": "syi2cVWBrZ5zdPUO",
  "name": "Metal Cartridge",
  "type": "loot",
  "img": "icons/containers/ammunition/bullets-belt.webp",
  "sort": 0,
  "flags": {},
  "system": {
    "description": {
      "value": "<p><strong>Source</strong> <em>Ultimate Equipment pg. 41</em>, <em>Ultimate Combat pg. 141</em></p><h3>Statistics</h3><p><strong>Cost</strong> 15 gp <strong>Weight</strong> -</p><p><strong>Category</strong> Ammunition; <strong>Proficiency</strong> Exotic</p><h3>Description</h3><p>These sturdier versions of alchemical cartridges serve as the ammunition for advanced firearms. They can hold either bullets or pellets.</p>"
    },
    "tags": [],
    "price": 15,
    "equipped": false,
    "hp": {
      "max": 1,
      "value": 1
    },
    "hardness": 5,
    "identifiedName": "Metal Cartridge",
    "changes": [],
    "contextNotes": [],
    "links": {
      "children": []
    },
    "tag": "metalCartridge",
    "scriptCalls": [],
    "subType": "ammo",
    "extraType": "gunBullet"
  }
}
