{
  "_id": "LA6TC5679iOXDNwq",
  "name": "Rapier",
  "type": "weapon",
  "img": "systems/pf1/icons/items/weapons/rapier.PNG",
  "sort": 0,
  "flags": {},
  "system": {
    "description": {
      "value": "<p><strong>Source</strong> <em>Ultimate Equipment pg. 18</em>, <em>PRPG Core Rulebook pg. 142</em></p><h3><span title=\"PFS Legal\">[PFS]</span> Statistics</h3><p><strong>Cost</strong> 20 gp <strong>Weight</strong> 2 lbs.</p><p><strong>Damage</strong> 1d4 (small), 1d6 (medium); <strong>Critical</strong> 18-20/x2; <strong>Range</strong> -; <strong>Type</strong> P; <strong>Special</strong> -</p><p><strong>Category</strong> One-Handed; <strong>Proficiency</strong> Martial</p><p><strong>Weapon Groups</strong> Blades, Light</p><h3>Description</h3><p>You can use the Weapon Finesse feat to apply your Dexterity modifier instead of your Strength modifier to attack rolls with a rapier sized for you, even though it isn't a light weapon. You can't wield a rapier in two hands in order to apply 1-1/2 times your Strength modifier to its damage.</p>"
    },
    "tags": [["Rapier"]],
    "weight": {
      "value": 2
    },
    "price": 20,
    "hp": {
      "max": 5,
      "value": 5
    },
    "hardness": 10,
    "identifiedName": "Rapier",
    "changes": [],
    "actions": [
      {
        "_id": "0d81rmzzhwlf6sfo",
        "name": "Attack",
        "img": "systems/pf1/icons/items/weapons/rapier.PNG",
        "description": "",
        "tag": "",
        "activation": {
          "cost": 1,
          "type": "attack"
        },
        "unchainedAction": {
          "activation": {
            "cost": 1,
            "type": ""
          }
        },
        "duration": {
          "value": null,
          "units": "inst"
        },
        "target": {
          "value": ""
        },
        "range": {
          "value": "0",
          "units": "melee",
          "maxIncrements": 1,
          "minValue": null,
          "minUnits": ""
        },
        "uses": {
          "autoDeductChargesCost": "",
          "self": {
            "value": 0,
            "maxFormula": "",
            "per": null
          },
          "per": "",
          "value": 0,
          "maxFormula": ""
        },
        "measureTemplate": {
          "type": "",
          "size": "",
          "overrideColor": false,
          "customColor": "",
          "overrideTexture": false,
          "customTexture": ""
        },
        "attackName": "",
        "actionType": "mwak",
        "attackBonus": "",
        "critConfirmBonus": "",
        "damage": {
          "parts": [
            [
              "sizeRoll(1, 6, @size)",
              {
                "values": ["piercing"],
                "custom": ""
              }
            ]
          ],
          "critParts": [],
          "nonCritParts": []
        },
        "attackParts": [],
        "formulaicAttacks": {
          "count": {
            "formula": "min(3, ceil(@attributes.bab.total / 5) - 1)"
          },
          "bonus": {
            "formula": "@formulaicAttack * -5"
          },
          "label": null
        },
        "formula": "",
        "ability": {
          "attack": "str",
          "damage": "str",
          "damageMult": 1,
          "critRange": 18,
          "critMult": 2
        },
        "save": {
          "dc": "0",
          "type": "",
          "description": ""
        },
        "effectNotes": [],
        "attackNotes": [],
        "soundEffect": "",
        "powerAttack": {
          "multiplier": "",
          "damageBonus": 2,
          "critMultiplier": 1
        },
        "naturalAttack": {
          "primaryAttack": true,
          "secondary": {
            "attackBonus": "-5",
            "damageMult": 0.5
          }
        },
        "nonlethal": false,
        "usesAmmo": false,
        "spellEffect": "",
        "spellArea": "",
        "conditionals": [],
        "enh": {
          "value": null
        }
      }
    ],
    "uses": {
      "per": ""
    },
    "attackNotes": [],
    "effectNotes": [],
    "contextNotes": [],
    "links": {
      "children": []
    },
    "tag": "rapier",
    "scriptCalls": [],
    "weaponGroups": {
      "value": ["bladesLight"]
    },
    "subType": "martial",
    "weaponSubtype": "1h"
  }
}
