{
  "_id": "hIKoJ07Ykvh9IWQU",
  "name": "Shield Spikes (Light)",
  "type": "weapon",
  "img": "systems/pf1/icons/items/weapons/shield-spikes.PNG",
  "sort": 0,
  "flags": {},
  "system": {
    "description": {
      "value": "<p>These spikes turn a shield into a martial piercing weapon and increase the damage dealt by a <em>shield bash</em> as if the shield were designed for a creature one size category larger than you. You can’t put spikes on a buckler or a tower shield. Otherwise, attacking with a spiked shield is like making a shield bash attack.</p><p>An enhancement bonus on a spiked shield does not improve the effectiveness of a shield bash made with it, but a spiked shield can be made into a magic weapon in its own right.</p>"
    },
    "tags": [["Shield Spikes (Light)"]],
    "weight": {
      "value": 5
    },
    "price": 10,
    "hp": {
      "max": 2,
      "value": 2
    },
    "hardness": 10,
    "changes": [],
    "actions": [
      {
        "_id": "imhu9gg515eh0g19",
        "name": "Attack",
        "img": "systems/pf1/icons/items/weapons/shield-spikes.PNG",
        "description": "",
        "tag": "",
        "activation": {
          "cost": 1,
          "type": "attack"
        },
        "unchainedAction": {
          "activation": {
            "cost": 1,
            "type": ""
          }
        },
        "duration": {
          "value": null,
          "units": "inst"
        },
        "target": {
          "value": ""
        },
        "range": {
          "value": null,
          "units": "melee",
          "maxIncrements": 1,
          "minValue": null,
          "minUnits": ""
        },
        "uses": {
          "autoDeductChargesCost": "",
          "self": {
            "value": 0,
            "maxFormula": "",
            "per": ""
          },
          "per": null,
          "value": 0,
          "maxFormula": ""
        },
        "measureTemplate": {
          "type": "",
          "size": "",
          "overrideColor": false,
          "customColor": "",
          "overrideTexture": false,
          "customTexture": ""
        },
        "attackName": "",
        "actionType": "mwak",
        "attackBonus": "",
        "critConfirmBonus": "",
        "damage": {
          "critParts": [],
          "nonCritParts": [],
          "parts": [
            [
              "sizeRoll(1, 4, @size)",
              {
                "values": ["piercing"],
                "custom": ""
              }
            ]
          ]
        },
        "attackParts": [],
        "formulaicAttacks": {
          "count": {
            "formula": "min(3, ceil(@attributes.bab.total / 5) - 1)"
          },
          "bonus": {
            "formula": "@formulaicAttack * -5"
          },
          "label": ""
        },
        "formula": "",
        "ability": {
          "attack": "str",
          "damage": "str",
          "damageMult": 1,
          "critRange": 20,
          "critMult": 2
        },
        "save": {
          "dc": "0",
          "type": "",
          "description": ""
        },
        "effectNotes": [],
        "attackNotes": [],
        "soundEffect": "",
        "powerAttack": {
          "multiplier": null,
          "damageBonus": 2,
          "critMultiplier": 1
        },
        "naturalAttack": {
          "primaryAttack": true,
          "secondary": {
            "attackBonus": "-5",
            "damageMult": 0.5
          }
        },
        "nonlethal": false,
        "usesAmmo": false,
        "spellEffect": "",
        "spellArea": "",
        "conditionals": [],
        "enh": {
          "value": null
        },
        "touch": false
      }
    ],
    "uses": {
      "per": ""
    },
    "attackNotes": [],
    "effectNotes": [],
    "contextNotes": [],
    "links": {
      "children": []
    },
    "scriptCalls": [],
    "weaponGroups": {
      "value": ["close"]
    },
    "subType": "martial"
  }
}
