{
  "_id": "gIEY6TLpLfVIzcCA",
  "name": "Softstones Sling Bullet",
  "type": "loot",
  "img": "icons/weapons/ammunition/shot-round-silver.webp",
  "sort": 0,
  "flags": {},
  "system": {
    "description": {
      "value": "<p><strong>Source</strong> <em>Halflings of Golarion pg. 23</em></p><h3><span title=\"PFS Legal\">[PFS]</span> Statistics</h3><p><strong>Cost</strong> 1 sp <strong>Weight</strong> 4 lbs.</p><p><strong>Category</strong> Ammunition; <strong>Proficiency</strong> Ammunition</p><h3>Description</h3><p>These tight bundles of elastic fibers deal nonlethal damage when fired from a sling.</p>"
    },
    "tags": [],
    "quantity": 10,
    "weight": {
      "value": 0.4
    },
    "price": 0.01,
    "equipped": false,
    "hp": {
      "max": 1,
      "value": 1
    },
    "hardness": 5,
    "identifiedName": "Softstones Sling Bullet",
    "changes": [],
    "contextNotes": [],
    "links": {
      "children": []
    },
    "tag": "halflingSoftstones10",
    "scriptCalls": [],
    "subType": "ammo",
    "extraType": "slingBullet"
  }
}
