{
  "_id": "FvNfZb72TIpdRPTv",
  "name": "Tongi",
  "type": "weapon",
  "img": "systems/pf1/icons/items/weapons/tongi.png",
  "sort": 0,
  "flags": {},
  "system": {
    "description": {
      "value": "<p><strong>Source</strong> <em>Melee Tactics Toolbox pg. 19</em></p><h3><span title=\"PFS Legal\">[PFS]</span> Statistics</h3><p><strong>Cost</strong> 18 gp <strong>Weight</strong> 4 lbs.</p><p><strong>Damage</strong> 1d4 (small), 1d6 (medium); <strong>Critical</strong> 19-20/x3; <strong>Range</strong> -; <strong>Type</strong> P; <strong>Special</strong> -</p><p><strong>Category</strong> One-Handed; <strong>Proficiency</strong> Exotic</p><p><strong>Weapon Groups</strong> Axes</p><h3>Description</h3><p>This rare weapon resembles a battleaxe with wedges cut out of the head, presenting four sharp points that splay from the handle rather than a single convex blade.</p>"
    },
    "tags": [["Tongi"]],
    "weight": {
      "value": 4
    },
    "price": 18,
    "hp": {
      "max": 5,
      "value": 5
    },
    "hardness": 10,
    "identifiedName": "Tongi",
    "changes": [],
    "actions": [
      {
        "_id": "05wi5tsd6ifqipp6",
        "name": "Attack",
        "img": "systems/pf1/icons/items/weapons/tongi.png",
        "description": "",
        "tag": "",
        "activation": {
          "cost": 1,
          "type": "attack"
        },
        "unchainedAction": {
          "activation": {
            "cost": 1,
            "type": ""
          }
        },
        "duration": {
          "value": null,
          "units": "inst"
        },
        "target": {
          "value": ""
        },
        "range": {
          "value": "0",
          "units": "melee",
          "maxIncrements": 1,
          "minValue": null,
          "minUnits": ""
        },
        "uses": {
          "autoDeductChargesCost": "",
          "self": {
            "value": 0,
            "maxFormula": "",
            "per": null
          },
          "per": null,
          "value": 0,
          "maxFormula": ""
        },
        "measureTemplate": {
          "type": "",
          "size": "",
          "overrideColor": false,
          "customColor": "",
          "overrideTexture": false,
          "customTexture": ""
        },
        "attackName": "",
        "actionType": "mwak",
        "attackBonus": "",
        "critConfirmBonus": "",
        "damage": {
          "parts": [
            [
              "sizeRoll(1, 6, @size)",
              {
                "values": ["piercing"],
                "custom": ""
              }
            ]
          ],
          "critParts": [],
          "nonCritParts": []
        },
        "attackParts": [],
        "formulaicAttacks": {
          "count": {
            "formula": "min(3, ceil(@attributes.bab.total / 5) - 1)"
          },
          "bonus": {
            "formula": "@formulaicAttack * -5"
          },
          "label": null
        },
        "formula": "",
        "ability": {
          "attack": "str",
          "damage": "str",
          "damageMult": 1,
          "critRange": 19,
          "critMult": 3
        },
        "save": {
          "dc": 0,
          "type": "",
          "description": ""
        },
        "effectNotes": [],
        "attackNotes": [],
        "soundEffect": "",
        "powerAttack": {
          "multiplier": "",
          "damageBonus": 2,
          "critMultiplier": 1
        },
        "naturalAttack": {
          "primaryAttack": true,
          "secondary": {
            "attackBonus": "-5",
            "damageMult": 0.5
          }
        },
        "nonlethal": false,
        "usesAmmo": false,
        "spellEffect": "",
        "spellArea": "",
        "conditionals": [],
        "enh": {
          "value": null
        }
      }
    ],
    "attackNotes": [],
    "effectNotes": [],
    "contextNotes": [],
    "links": {
      "children": []
    },
    "tag": "tongi",
    "scriptCalls": [],
    "weaponGroups": {
      "value": ["axes"]
    },
    "subType": "exotic",
    "weaponSubtype": "1h"
  }
}
