{
  "_id": "jplmkdpgjrlouwzu",
  "name": "Alkali Flask",
  "type": "loot",
  "img": "systems/pf1/icons/items/inventory/dice.jpg",
  "sort": 0,
  "flags": {},
  "system": {
    "description": {
      "value": "<p class=\"source\"><b>Source</b> <em>PZO1115</em></p>\n<p>This flask of caustic liquid reacts with an <em>ooze's</em> <em>natural</em> acids. You can throw an alkali flask as a <em>splash weapon</em> with a range increment of 10 feet. Against non-ooze creatures, an alkali flask functions as a normal flask of acid. Against <em>oozes</em> and other acid-based creatures, the alkali flask inflicts double damage.</p>\n<p><b>Create</b>: <em>Craft</em> (alchemy) DC 20</p>"
    },
    "tags": [],
    "weight": {
      "value": 1
    },
    "price": 15,
    "equipped": false,
    "changes": [],
    "contextNotes": [],
    "links": {
      "children": []
    },
    "scriptCalls": [],
    "subType": "gear"
  }
}
