{
  "_id": "yvchrbosbrxsabit",
  "name": "Anvil",
  "type": "loot",
  "img": "systems/pf1/icons/items/inventory/dice.jpg",
  "sort": 0,
  "flags": {},
  "system": {
    "description": {
      "value": "<p><b>Price</b> 5 gp; <b>Weight</b> 10-100 lbs.</p>\n<p>While anvil sizes vary depending on the type of smithing for which they are used, all anvils have the same basic shape and construction. Blacksmith anvils are much heavier and larger (100 pounds) than farrier anvils (50 pounds), which in turn are much bigger than silver- or goldsmith anvils (10 pounds). Many metalworking tasks are impossible without the proper anvil.</p>"
    },
    "tags": [],
    "weight": {
      "value": 10
    },
    "price": 5,
    "equipped": false,
    "changes": [],
    "contextNotes": [],
    "links": {
      "children": []
    },
    "scriptCalls": [],
    "subType": "gear"
  }
}
