{
  "_id": "qdyvrjjqsrjhgway",
  "name": "Barbarian Chew",
  "type": "loot",
  "img": "systems/pf1/icons/items/inventory/dice.jpg",
  "sort": 0,
  "flags": {},
  "system": {
    "description": {
      "value": "<p class=\"source\"><b>Source</b> <em>PZO9410</em></p>\n<p>This bitter red chew comes from dried leaves of a stunted bush found in northern climates. It stains the teeth dark crimson but also increases the duration of <em>barbarian</em> <em>rage</em> entered into during the next hour by 1 round.</p>"
    },
    "tags": [],
    "price": 1,
    "equipped": false,
    "changes": [],
    "contextNotes": [],
    "links": {
      "children": []
    },
    "scriptCalls": [],
    "subType": "gear"
  }
}
