{
  "_id": "xgzgqavuwmmmwcup",
  "name": "Beast Lure",
  "type": "loot",
  "img": "systems/pf1/icons/items/inventory/dice.jpg",
  "sort": 0,
  "flags": {},
  "system": {
    "description": {
      "value": "<p class=\"source\"><b>Source</b> <em>PZO9410</em></p>\n<p>This light brown oil works similar to <em>wild animal musk</em> but attracts one specific kind of creature (dogs, giant bees, and so on).</p>\n<p><b>Create</b>: <em>Craft</em> (alchemy) DC 20</p>"
    },
    "tags": [],
    "weight": {
      "value": 0.5
    },
    "price": 30,
    "equipped": false,
    "changes": [],
    "contextNotes": [],
    "links": {
      "children": []
    },
    "scriptCalls": [],
    "subType": "gear"
  }
}
