{
  "_id": "fgf3caghH3ca4edJ",
  "name": "Belt of Giant Strength +6",
  "type": "equipment",
  "img": "systems/pf1/icons/items/equipment/belt-buckle.jpg",
  "sort": 0,
  "flags": {},
  "system": {
    "description": {
      "value": "<p>This belt is a thick leather affair, often decorated with huge metal buckles. The belt grants the wearer an <em>enhancement bonus</em> to <em>Strength</em> of +2, +4, or +6. Treat this as a temporary ability bonus for the first 24 hours the belt is worn.</p>",
      "unidentified": "<p>This belt is a thick leather affair, decorated with huge metal buckle.</p>"
    },
    "tags": [],
    "weight": {
      "value": 1
    },
    "price": 36000,
    "resizing": true,
    "unidentified": {
      "name": "Belt"
    },
    "identifiedName": "Belt of Giant Strength +6",
    "cl": 8,
    "aura": {
      "school": "trs"
    },
    "changes": [
      {
        "_id": "2inouhs4",
        "formula": "6",
        "operator": "add",
        "subTarget": "str",
        "modifier": "enh",
        "priority": 0,
        "value": 0,
        "target": "ability"
      }
    ],
    "contextNotes": [],
    "actions": [],
    "attackNotes": [],
    "effectNotes": [],
    "links": {
      "children": [],
      "charges": []
    },
    "scriptCalls": [],
    "subType": "misc",
    "equipmentSubtype": "wondrous",
    "slot": "belt"
  }
}
