{
  "_id": "cK51QG96kIE1lSFr",
  "name": "Caltrops (Vicious)",
  "type": "loot",
  "img": "systems/pf1/icons/items/inventory/dice.jpg",
  "sort": 0,
  "flags": {},
  "system": {
    "description": {
      "value": "<p>Source <a href=\"http://paizo.com/store/games/roleplayingGames/p/pathfinderRPG/paizo/pathfinderCompanion/v5748btpy8mfk\">Goblins of Golarion pg. 12</a><br>Price 50 gp; Weight 4 lbs.<br>Category Adventuring Gear</p>\n<h3>Description</h3>\n<p>These specially modified caltrops have clusters of needle-sharp spines that are slightly longer and more brittle than those on normal caltrops. Like standard caltrops, a 2-pound bag of vicious caltrops covers a 5-foot-square area. Vicious caltrops work just like normal caltrops, save that they have an attack bonus of +4, do 1d2 points of damage, and require a DC 20 Heal check to fully treat.</p>"
    },
    "tags": [],
    "weight": {
      "value": 4
    },
    "price": 50,
    "equipped": false,
    "identifiedName": "Caltrops (Vicious)",
    "changes": [],
    "contextNotes": [],
    "links": {
      "children": []
    },
    "scriptCalls": [],
    "subType": "gear"
  }
}
