{
  "_id": "ivujqhmcdthziwog",
  "name": "Candlerod",
  "type": "loot",
  "img": "systems/pf1/icons/items/inventory/dice.jpg",
  "sort": 0,
  "flags": {},
  "system": {
    "description": {
      "value": "<p><b>Price</b> 1 gp; <b>Weight</b> 1 lb.</p>\n<p>Similar to but weaker than a sunrod, this stick glows like a candle when struck and lasts for 12 hours.</p>"
    },
    "tags": [],
    "weight": {
      "value": 1
    },
    "price": 1,
    "equipped": false,
    "changes": [],
    "contextNotes": [],
    "links": {
      "children": []
    },
    "scriptCalls": [],
    "subType": "gear"
  }
}
