{
  "_id": "cqtwroqmkbwubpyn",
  "name": "Cauldron",
  "type": "loot",
  "img": "systems/pf1/icons/items/inventory/dice.jpg",
  "sort": 0,
  "flags": {},
  "system": {
    "description": {
      "value": "<table>\n<thead>\n<tr>\n<th>Type</th>\n<th>Price</th>\n<th>Weight</th>\n</tr>\n</thead>\n<tbody>\n<tr>\n<td>Common</td>\n<td>1 gp</td>\n<td>5 lbs.</td>\n</tr>\n<tr>\n<td>Mithral</td>\n<td>1,251 gp</td>\n<td>2-1/2 lbs.</td>\n</tr>\n</tbody>\n</table>\n<p>This larger version of an iron pot holds approximately 1 gallon-enough to fill the bellies of four hungry humans for one meal. It can also be used for potion-making and similar activities. A mithral cauldron is lighter, and food rarely sticks to it.</p>"
    },
    "tags": [],
    "weight": {
      "value": 5
    },
    "price": 1,
    "equipped": false,
    "changes": [],
    "contextNotes": [],
    "links": {
      "children": []
    },
    "scriptCalls": [],
    "subType": "gear"
  }
}
