{
  "_id": "gvZCNwBTcBtShuRZ",
  "name": "Chocolate (Bar)",
  "type": "loot",
  "img": "systems/pf1/icons/items/inventory/dice.jpg",
  "sort": 0,
  "flags": {},
  "system": {
    "description": {
      "value": "<strong>Source</strong> <a href=\"http://paizo.com/products/btpy8tmc?Pathfinder-Roleplaying-Game-Ultimate-Equipment\"><em>Ultimate Equipment pg. 95</em></a><p>This dark, bitter treat can be consumed as a solid or melted and added to a beverage such as milk. In some lands it is mixed with sugar or chilies."
    },
    "tags": [],
    "weight": {
      "value": 0.5
    },
    "price": 5,
    "equipped": false,
    "identifiedName": "Chocolate (Bar)",
    "changes": [],
    "contextNotes": [],
    "links": {
      "children": []
    },
    "scriptCalls": []
  }
}
