{
  "_id": "usbkdgavtrcoetyo",
  "name": "Dimmer Dust",
  "type": "loot",
  "img": "systems/pf1/icons/items/inventory/dice.jpg",
  "sort": 0,
  "flags": {},
  "system": {
    "description": {
      "value": "<p class=\"source\"><b>Source</b> <em>PZO9432</em></p>\n<p>This small leather pouch is filled with a faintly radioactive ore, with a small percentage of reactants that activate the dust. When used, dimmer dust must be sprinkled in a 5-foot square, which then becomes the center of the dust's effect. All bright or normal light within 30 feet of the activated dust is reduced to dim light, and any creature attempting to cast a spell with the <em>light descriptor</em> in this area must succeed at a DC 15 <em>caster level</em> check or have spell's effect be negated. If dimmer dust is exposed to sunlight, it immediately becomes permanently inert. Each pouch contains enough dust for two applications.</p>\n<p><b>Create</b>: <em>Craft</em> (alchemy) DC 25</p>"
    },
    "tags": [],
    "weight": {
      "value": 0.5
    },
    "price": 25,
    "equipped": false,
    "changes": [],
    "contextNotes": [],
    "links": {
      "children": []
    },
    "scriptCalls": [],
    "subType": "gear"
  }
}
