{
  "_id": "gxbmvhmcyfyetnmt",
  "name": "Flotation Device",
  "type": "loot",
  "img": "systems/pf1/icons/items/inventory/dice.jpg",
  "sort": 0,
  "flags": {},
  "system": {
    "description": {
      "value": "<h4>Flotation Device</h4>\n<p class=\"source\"><b>Source</b> <em>PPZO9410</em></p>\n<p>Usually composed of an inflated animal bladder sealed with pitch, a held flotation device adds a +1 <em>circumstance bonus</em> on <em>Swim</em> checks.</p>"
    },
    "tags": [],
    "equipped": false,
    "changes": [],
    "contextNotes": [],
    "links": {
      "children": []
    },
    "scriptCalls": [],
    "subType": "gear"
  }
}
