{
  "_id": "dthfczwrxurvmcyo",
  "name": "Furs",
  "type": "loot",
  "img": "systems/pf1/icons/items/inventory/dice.jpg",
  "sort": 0,
  "flags": {},
  "system": {
    "description": {
      "value": "<p class=\"source\"><b>Source</b> <em>PZO1115</em></p>\n<p>The most basic of cold-weather gear, animal furs serve to keep their wearers warm. Wearing enough fur to cover the body provides a +2 bonus on <em>Fortitude</em> saves to resist cold weather. This does not stack with any bonuses gained from the <em>Survival</em> skill.</p>"
    },
    "tags": [],
    "weight": {
      "value": 5
    },
    "price": 12,
    "equipped": false,
    "changes": [],
    "contextNotes": [],
    "links": {
      "children": []
    },
    "scriptCalls": [],
    "subType": "gear"
  }
}
