{
  "_id": "khjlezdjpmtutbfr",
  "name": "Kit, Leeching",
  "type": "loot",
  "img": "systems/pf1/icons/items/inventory/dice.jpg",
  "sort": 0,
  "flags": {},
  "system": {
    "description": {
      "value": "<p><b>Price</b> 5 gp; <b>Weight</b> 5 lbs.</p>\n<p>This sturdy ceramic jar has a heavy lid with a few tiny holes to let air in. It is normally half-filled with water and contains four adult leeches, each about 6 inches long. A leeching kit grants you a +2 <em>circumstance bonus</em> on <em>Heal</em> checks to treat <em>poison</em>. Used for medicinal bloodletting, a <em>leech</em> can survive for 6 months between feedings.</p>"
    },
    "tags": [],
    "weight": {
      "value": 5
    },
    "price": 5,
    "equipped": false,
    "changes": [],
    "contextNotes": [],
    "links": {
      "children": []
    },
    "scriptCalls": [],
    "subType": "gear"
  }
}
