{
  "_id": "sikjdplmndnxlwrd",
  "name": "Kit, Spelunking",
  "type": "loot",
  "img": "systems/pf1/icons/items/inventory/dice.jpg",
  "sort": 0,
  "flags": {},
  "system": {
    "description": {
      "value": "<p><b>Price</b> 174 gp; <b>Weight</b> 32 lbs.</p>\n<p>This kit holds equipment for exploring underground, consisting of a lantern with 4 flasks of oil, a hammer and 8 pitons, 100 feet of silk rope, a grappling hook, and a climber's kit.</p>"
    },
    "tags": [],
    "weight": {
      "value": 32
    },
    "price": 174,
    "equipped": false,
    "changes": [],
    "contextNotes": [],
    "links": {
      "children": []
    },
    "scriptCalls": [],
    "subType": "gear"
  }
}
