{
  "_id": "xkunfssqoyoupryi",
  "name": "Kit, Alchemy Crafting",
  "type": "loot",
  "img": "systems/pf1/icons/items/inventory/chest-stone.jpg",
  "sort": 0,
  "flags": {},
  "system": {
    "description": {
      "value": "<p>An @Compendium[pf1.classes.JcaqlAawhf14q1lq]{Alchemist} with an alchemy crafting kit is assumed to have all the material <em>components</em> needed for his extracts, mutagens, and bombs, except for those <em>components</em> that have a specific cost. An alchemy crafting kit provides no bonuses on @Compendium[pf1.skills.L6LEhHRrn53cMuhE]{Craft (alchemy)} checks. (This item was previously called an \"alchemist's kit\", and was renamed to avoid confusion with the set of adventuring gear called an \"alchemist's kit.\")</p>"
    },
    "tags": [],
    "weight": {
      "value": 5
    },
    "price": 25,
    "equipped": false,
    "identifiedName": "Kit, Alchemy Crafting",
    "changes": [],
    "contextNotes": [],
    "links": {
      "children": []
    },
    "scriptCalls": [],
    "subType": "gear"
  }
}
