{
  "_id": "qpeofmksdupchzly",
  "name": "Kit, Knight's",
  "type": "loot",
  "img": "systems/pf1/icons/items/inventory/dice.jpg",
  "sort": 0,
  "flags": {},
  "system": {
    "description": {
      "value": "<p class=\"source\"><b>Source</b>: <em>PZO9434</em></p>\n<p><b>Price</b> 751 gp; <b>Weight</b> 17 lbs.</p>\n<p>This kit is designed for melee-focused warriors who hope to kill or capture a <em>dragon</em>. It includes 50 feet of chain, a crowbar, an everburning torch, an application of fire (or frost) ward gel, fire-resistant boots, a <em>potion of</em> <em>resist energy</em>, three sacks, a shield sconce, a simple lock, and a weapon cord.</p>"
    },
    "tags": [],
    "weight": {
      "value": 17
    },
    "price": 751,
    "equipped": false,
    "changes": [],
    "contextNotes": [],
    "links": {
      "children": []
    },
    "scriptCalls": [],
    "subType": "gear"
  }
}
