{
  "_id": "jjdfqhjenucvwfbt",
  "name": "Lamp",
  "type": "loot",
  "img": "systems/pf1/icons/items/inventory/dice.jpg",
  "sort": 0,
  "flags": {},
  "system": {
    "description": {
      "value": "<h4>Lamp</h4>\n<p class=\"source\"><b>Source</b> <em>PZO1110</em></p>\n<p><b>Price</b> 1 sp; <b>Weight</b> 1 lb.</p>\n<p>A common lamp illuminates a small area, providing normal light in a 15-foot radius and increasing the light level by one step for an additional 15 feet beyond that area (darkness becomes dim light and dim light becomes normal light). A lamp does not increase the light level in normal light or bright light. A lamp burns for 6 hours on 1 pint of <em>oil</em>. You can carry a lamp in one hand.</p>"
    },
    "tags": [],
    "weight": {
      "value": 1
    },
    "price": 0.1,
    "equipped": false,
    "changes": [],
    "contextNotes": [],
    "links": {
      "children": []
    },
    "scriptCalls": [],
    "subType": "gear"
  }
}
