{
  "_id": "gtnquulctezsntua",
  "name": "Mask, Doctor's",
  "type": "loot",
  "img": "systems/pf1/icons/items/inventory/mask-bird.jpg",
  "sort": 0,
  "flags": {},
  "system": {
    "description": {
      "value": "<p class=\"source\"><b>Source</b> <em>PZO9410</em></p>\n<p>This mask gives you a +1 <em>circumstance bonus</em> on <em>Fortitude</em> saves made against airborne toxins and scent-based effects. It is sometimes a crime to wear a doctor's mask in public if you are not a healer or physician.</p>"
    },
    "tags": [],
    "weight": {
      "value": 2
    },
    "price": 50,
    "equipped": false,
    "identifiedName": "Mask, Doctor's",
    "changes": [],
    "contextNotes": [],
    "links": {
      "children": []
    },
    "scriptCalls": [],
    "subType": "gear"
  }
}
