{
  "_id": "jggzupouobzbodro",
  "name": "Mug/Tankard, Clay",
  "type": "loot",
  "img": "systems/pf1/icons/items/inventory/dice.jpg",
  "sort": 0,
  "flags": {},
  "system": {
    "description": {
      "value": "<p class=\"source\"><b>Source</b> <em>PZO1110</em></p>\n<p>A clay mug or tankard.</p>\n<p><b>Empty Weight</b>: -; <b>Capacity</b>: 1 pint/1 lb.</p>"
    },
    "tags": [],
    "weight": {
      "value": 1
    },
    "price": 0.02,
    "equipped": false,
    "changes": [],
    "contextNotes": [],
    "links": {
      "children": []
    },
    "scriptCalls": [],
    "subType": "gear"
  }
}
