{
  "_id": "sipyivqdvdoyddov",
  "name": "Observations Of The Drowned City",
  "type": "loot",
  "img": "systems/pf1/icons/items/inventory/dice.jpg",
  "sort": 0,
  "flags": {},
  "system": {
    "description": {
      "value": "<p class=\"source\"><b>Source</b> <em>PPC:DHB</em></p>\n<p><b>Price</b> 3,500 gp; <b>Accuracy</b> +5; <b>Associated Skill</b> <em>Knowledge</em> (geography) (DC 25)</p>\n<p>DESCRIPTION</p>\n<p>Compiled from the recovered diaries of a clerk, this waterproof volume is a useful guide to those exploring the drowned city. Most of the information is dated, but the sketched maps and descriptions of major buildings remain useful.</p>\n<p>SKILL BONUSES</p>\n<ul>\n<li>Balance on slippery surface (<em>Acrobatics</em> +4)</li>\n</ul>"
    },
    "tags": [],
    "weight": {
      "value": 2
    },
    "price": 3500,
    "equipped": false,
    "changes": [],
    "contextNotes": [],
    "links": {
      "children": []
    },
    "scriptCalls": [],
    "subType": "gear"
  }
}
