{
  "_id": "6ke1HTaBi01fCCGo",
  "name": "Outfit, Pickpocket's",
  "type": "equipment",
  "img": "systems/pf1/icons/items/equipment/cowl.jpg",
  "sort": 0,
  "flags": {},
  "system": {
    "description": {
      "value": "<p class=\"source\"><strong>Source</strong> <em>PZO9410</em></p>\n<p>Outfitted with concealed pockets, this clothing gives you a +2 bonus on hiding small objects on your person.</p>"
    },
    "tags": [],
    "weight": {
      "value": 3
    },
    "price": 5,
    "identifiedName": "Outfit, Pickpocket's",
    "changes": [],
    "contextNotes": [],
    "actions": [],
    "attackNotes": [],
    "effectNotes": [],
    "links": {
      "children": [],
      "charges": []
    },
    "scriptCalls": [],
    "subType": "misc",
    "equipmentSubtype": "clothing",
    "slot": "body"
  }
}
