{
  "_id": "AFSexNaKtkveQC6S",
  "name": "Pellet grenade (Adamantine)",
  "type": "loot",
  "img": "systems/pf1/icons/items/inventory/dice.jpg",
  "sort": 0,
  "flags": {},
  "system": {
    "description": {
      "value": "<p>Source <a href=\"http://paizo.com/products/btpy8tmc?Pathfinder-Roleplaying-Game-Ultimate-Equipment\">Ultimate Equipment pg. 107</a><br>Price 150 gp (adamantine), 100 gp (cold iron), 50 gp (iron), 70 gp (silver); Weight 1 lb. (adamantine), 1 lb. (cold iron), 1 lb. (iron), 1 lb. (silver)</p>\n<h3>Description</h3>\n<p>This variant of a fuse grenade has most of the black powder replaced with metal pellets. When it explodes, it deals 1d6 points of bludgeoning damage, 1d6 points of piercing damage, and 1d6 points of fire damage in a 10-foot-radius burst (Reflex DC 15 halves). A typical pellet grenade uses iron pellets, but they can instead be packed with silver, cold iron, or adamantine, bypassing damage reduction as appropriate to that material type. Like ammunition, the pellets are destroyed after one use. Crafting a pellet grenade is a DC 25 Craft (alchemy) check.</p>\n<h3>Construction</h3>\n<p>Craft (Alchemy) DC 25</p>"
    },
    "tags": [],
    "weight": {
      "value": 1
    },
    "price": 150,
    "equipped": false,
    "identifiedName": "Pellet grenade (Adamantine)",
    "changes": [],
    "contextNotes": [],
    "links": {
      "children": []
    },
    "scriptCalls": [],
    "subType": "gear"
  }
}
