{
  "_id": "f8ylRQHZTqeJTQZZ",
  "name": "Periscope",
  "type": "loot",
  "img": "systems/pf1/icons/items/inventory/dice.jpg",
  "sort": 0,
  "flags": {},
  "system": {
    "description": {
      "value": "<p>Source <a href=\"http://paizo.com/products/btpy8tmc?Pathfinder-Roleplaying-Game-Ultimate-Equipment\">Ultimate Equipment pg. 57</a>, <a href=\"http://paizo.com/pathfinderRPG/v5748btpy8fo1\">Advanced Player's Guide pg. 181</a><br>Price 20 gp; Weight 4 lbs.<br>Category Adventuring Gear</p>\n<h3>Description</h3>\n<p>This 2-foot-long metal tube has right angles at each end with mirrors inside; if you look in one end, you can see out the other end, allowing you safely peer over obstacles, around corners, or into small spaces your head where wouldn’t fit. When using a periscope, the end of the tube counts as a Diminutive object, making it much less likely that an observed creature notices you; if you have total concealment from the creature except for the end of the periscope, use the tube’s Diminutive size modifier on your Stealth check instead of your own size modifier. Distortion from the mirrors gives you a –4 penalty on Perception checks while looking through the periscope. Though the tube is fairly sturdy (hardness 5, 2 hit points), the mirrors inside are fragile (hardness 1, 1 hit point), and any damage that gets through the tube’s hardness applies to the tube and the mirrors.</p>"
    },
    "tags": [],
    "weight": {
      "value": 4
    },
    "price": 20,
    "equipped": false,
    "identifiedName": "Periscope",
    "changes": [],
    "contextNotes": [],
    "links": {
      "children": []
    },
    "scriptCalls": [],
    "subType": "gear"
  }
}
