{
  "_id": "ucgkbtqiybhyiwwk",
  "name": "Pouch, Spell Component",
  "type": "loot",
  "img": "systems/pf1/icons/items/inventory/pouch-sealed.jpg",
  "sort": 0,
  "flags": {},
  "system": {
    "description": {
      "value": "<p><b>Price</b> 5 gp; <b>Weight</b> 2 lbs.</p>\n<p>A spellcaster with a spell component pouch is assumed to have all the material <em>components</em> and focuses needed for spellcasting, except for <em>components</em> that have a specific cost, divine focuses, and focuses that wouldn't fit in a pouch. Most spell component pouches are waterproof and can be strung onto a belt or bandolier.</p>"
    },
    "tags": [],
    "weight": {
      "value": 2
    },
    "price": 5,
    "equipped": false,
    "identifiedName": "Pouch, Spell Component",
    "changes": [],
    "contextNotes": [],
    "links": {
      "children": []
    },
    "scriptCalls": [],
    "subType": "gear"
  }
}
