{
  "_id": "KPNvysfviHeHJ3PY",
  "name": "Pull-cord grenade",
  "type": "loot",
  "img": "systems/pf1/icons/items/inventory/dice.jpg",
  "sort": 0,
  "flags": {},
  "system": {
    "description": {
      "value": "<p>Source <a href=\"http://paizo.com/products/btpy9h7x?Pathfinder-Player-Companion-Black-Markets\">Black Markets pg. 21</a><br>Price 150 gp; Weight 2 lbs.<br>Category Adventuring Gear</p>\n<h3>Description</h3>\n<p>This clay container resembles a fuse grenadeUE, but trails a pulley and wire rather than a fuse. Pulling the cord (a move action) sparks a flint and steel within the device, causing the grenade to explode. The pull cord can be attached to a door or drawer within 5 feet, or strung across a 5-foot square, causing the grenade to detonate when its tripwire is disturbed. A pull-cord grenade cannot be reused.<p>This can be crafted with a DC 25 Craft (traps) check.</p>\n<h2>Pull-Cord Grenade</h2>\n<p>Type mechanical; Perception DC 15; Disable Device DC 15</p>\n<h3>Effects</h3>\n<p>Trigger touch; Reset none<br>Effect explosion (2d6 bludgeoning damage and 1d6 fire damage); Reflex DC 15 half; multiple targets (all targets within 10 feet)</p>"
    },
    "tags": [],
    "weight": {
      "value": 2
    },
    "price": 150,
    "equipped": false,
    "identifiedName": "Pull-cord grenade",
    "changes": [],
    "contextNotes": [],
    "links": {
      "children": []
    },
    "scriptCalls": [],
    "subType": "gear"
  }
}
