{
  "_id": "sorreutkcxqcljmq",
  "name": "Rations, Elven Trail",
  "type": "loot",
  "img": "systems/pf1/icons/items/inventory/meat.jpg",
  "sort": 0,
  "flags": {},
  "system": {
    "description": {
      "value": "<h4>Rations, Elven Trail</h4>\n<p><b>Price</b> 2 gp; <b>Weight</b> 1 lb.</p>\n<p>Elves favor soft trail bread made of oats mixed with other grains, berries, and nuts and sweetened with honey. They supplement this trail bread with dried fruits and nuts. If you are an elf who subsists on nothing but these rations for at least 1 week, you receive a +2 bonus on checks and saves that benefit from the Endurance feat. This benefit lasts until you eat a meal other than the rations or go for a full day without eating a day's worth.</p>"
    },
    "tags": [],
    "weight": {
      "value": 1
    },
    "price": 2,
    "equipped": false,
    "identifiedName": "Rations, Elven Trail",
    "changes": [],
    "contextNotes": [],
    "links": {
      "children": []
    },
    "scriptCalls": [],
    "subType": "gear"
  }
}
