{
  "_id": "0AIz2Gk74uaiLQIh",
  "name": "Ring of Protection +2",
  "type": "equipment",
  "img": "systems/pf1/icons/items/jewelry/ring-iron.jpg",
  "sort": 0,
  "flags": {},
  "system": {
    "description": {
      "value": "<p>This ring offers continual magical protection in the form of a <em>deflection</em> bonus of +1 to +5 to <em>AC</em>.</p>"
    },
    "tags": [],
    "price": 8000,
    "resizing": true,
    "unidentified": {
      "name": "Ring"
    },
    "identifiedName": "Ring of Protection +2",
    "cl": 6,
    "aura": {
      "school": "abj"
    },
    "changes": [
      {
        "_id": "kl3v8dsf",
        "formula": "2",
        "operator": "add",
        "subTarget": "ac",
        "modifier": "deflection",
        "priority": 0,
        "value": 0,
        "target": "ac"
      }
    ],
    "contextNotes": [],
    "actions": [],
    "attackNotes": [],
    "effectNotes": [],
    "links": {
      "children": [],
      "charges": []
    },
    "tag": "ringOfProtection2",
    "scriptCalls": [],
    "subType": "misc",
    "equipmentSubtype": "wondrous",
    "slot": "ring"
  }
}
