{
  "_id": "yrgbjejhfwctpvbe",
  "name": "Ring, Poison Pill",
  "type": "loot",
  "img": "systems/pf1/icons/items/inventory/dice.jpg",
  "sort": 0,
  "flags": {},
  "system": {
    "description": {
      "value": "<p class=\"source\"><b>Source</b> <em>PZO1115</em></p>\n<p>This ring has a tiny compartment under the setting, typically used to hold <em>poison</em>. Opening and closing a ring is a <em>move action</em>; doing so unseen requires a DC 20 <em>Sleight of Hand</em> check.</p>"
    },
    "tags": [],
    "price": 20,
    "equipped": false,
    "changes": [],
    "contextNotes": [],
    "links": {
      "children": []
    },
    "scriptCalls": [],
    "subType": "gear"
  }
}
