{
  "_id": "utmeueljqhfoiihp",
  "name": "Sack",
  "type": "loot",
  "img": "systems/pf1/icons/items/inventory/dice.jpg",
  "sort": 0,
  "flags": {},
  "system": {
    "description": {
      "value": "<p class=\"source\"><b>Source</b> <em>PZO1110</em></p>\n<p>A sack is a cloth bag that weighs 1/2 lb. empty and holds 1 cubic ft. or 60 lbs. of contents full.</p>\n<p><b>Empty Weight</b>: 1/2 lb.<sup>1</sup> <b>Capacity</b>: 1 cubic ft./60 lb.<sup>1</sup></p>\n<p class=\"source\"><sup>1</sup> When made for Medium characters. Weighs one-quarter the normal amount when made for Small characters. Weighs twice the normal amount when made for Large characters. Containers carry one-quarter the normal amount when made for Small characters.</p>"
    },
    "tags": [],
    "weight": {
      "value": 0.5
    },
    "price": 0.1,
    "equipped": false,
    "changes": [],
    "contextNotes": [],
    "links": {
      "children": []
    },
    "scriptCalls": [],
    "subType": "gear"
  }
}
