{
  "_id": "cegkskqzbdwnqwez",
  "name": "Salve Exemplar Weapon",
  "type": "loot",
  "img": "systems/pf1/icons/items/inventory/dice.jpg",
  "sort": 0,
  "flags": {},
  "system": {
    "description": {
      "value": "<p class=\"source\"><b>Source</b> <em>PZO9455</em></p>\n<p><b>Price</b> 350 gp; <b>Weight</b> 1 lb.</p>\n<p>DESCRIPTION</p>\n<p>This alchemical salve strengthens the material of a weapon, improves its balance, gives it greater flexibility without sacrificing resilience, and enhances its ability to hold an edge or point and survive an impact. An application turns a typical non-magical melee weapon into a masterwork weapon. A double weapon requires 2 doses of exemplar weapon salve, and 50 arrows, bolts, or similar ammunition can be enhanced by a single application.</p>"
    },
    "tags": [],
    "equipped": false,
    "changes": [],
    "contextNotes": [],
    "links": {
      "children": []
    },
    "scriptCalls": [],
    "subType": "gear"
  }
}
