{
  "name": "Scissors",
  "type": "loot",
  "img": "systems/pf1/icons/items/inventory/dice.jpg",
  "system": {
    "tags": [["Mundane"], ["Grooming"], ["Crafting"]],
    "equipped": false,
    "changes": [],
    "contextNotes": [],
    "links": {
      "children": []
    },
    "scriptCalls": [],
    "subType": "gear"
  },
  "flags": {},
  "sort": 0,
  "_id": "MyTszOhmpMPGkDO8"
}
