{
  "name": "Spoon",
  "type": "loot",
  "img": "icons/tools/cooking/soup-ladle.webp",
  "system": {
    "tags": [["Mundane"], ["Cooking"]],
    "weight": {
      "value": 0.1
    },
    "equipped": false,
    "changes": [],
    "contextNotes": [],
    "links": {
      "children": []
    },
    "scriptCalls": [],
    "subType": "gear"
  },
  "flags": {},
  "sort": 0,
  "_id": "Asg5Ek4CFqb80P7C"
}
