{
  "_id": "xgpkubiejthpawmf",
  "name": "String or Twine",
  "type": "loot",
  "img": "systems/pf1/icons/items/inventory/dice.jpg",
  "sort": 0,
  "flags": {},
  "system": {
    "description": {
      "value": "<h4>String or Twine</h4>\n<p><b>Price</b> 1 cp; <b>Weight</b> 1/2 lb.</p>\n<p>Sold in balls or spools of 50 feet, string and twine are useful for rigging traps and alarms and are a vital component of grappling bolts and arrows. String or twine has hardness 0, 1 hit point, and a break DC of 14.</p>"
    },
    "tags": [],
    "weight": {
      "value": 0.5
    },
    "price": 0.01,
    "equipped": false,
    "changes": [],
    "contextNotes": [],
    "links": {
      "children": []
    },
    "scriptCalls": [],
    "subType": "gear"
  }
}
