{
  "_id": "gzzxhljwovioecgj",
  "name": "Tonic, Blight",
  "type": "loot",
  "img": "systems/pf1/icons/items/inventory/dice.jpg",
  "sort": 0,
  "flags": {},
  "system": {
    "description": {
      "value": "<p class=\"source\"><b>Source</b> <em>PZO1121</em></p>\n<p>Blight tonic increases the potency of a creature's <em>disease</em> attack transmitted by physical contact, such as a <em>dire rat's</em> filth fever. The next time a creature must save against the drinker's <em>disease</em> save DC, the DC for the initial infection increases by +2. The tonic lasts for 10 minutes or until the next time a creature must save against the drinker's <em>disease</em> DC, whichever comes first.</p>"
    },
    "tags": [],
    "weight": {
      "value": 1
    },
    "price": 150,
    "equipped": false,
    "changes": [],
    "contextNotes": [],
    "links": {
      "children": []
    },
    "scriptCalls": [],
    "subType": "gear"
  }
}
