{
  "_id": "UJvYJmYnOITo7OSe",
  "name": "Tools, Thieves' (Masterwork)",
  "type": "loot",
  "img": "systems/pf1/icons/items/inventory/lockpick.jpg",
  "sort": 0,
  "flags": {},
  "system": {
    "description": {
      "value": "<p>This kit contains lockpicks and other tools you need to use the @Compendium[pf1.skills.CCy1fajKKU3K02iQ]{Disable Device} skill. Without these tools, you must use improvised tools, and you take a -2 circumstance penalty on @Compendium[pf1.skills.CCy1fajKKU3K02iQ]{Disable Device} checks.</p>\n<p>This kit contains extra tools and tools of better make, which grant a +2 <em>circumstance bonus</em> on @Compendium[pf1.skills.CCy1fajKKU3K02iQ]{Disable Device} checks.</p>"
    },
    "tags": [],
    "weight": {
      "value": 2
    },
    "price": 100,
    "equipped": false,
    "identifiedName": "Tools, Thieves' (Masterwork)",
    "changes": [
      {
        "_id": "l4a2mlpi",
        "formula": "2",
        "operator": "add",
        "subTarget": "skill.dev",
        "modifier": "circumstance",
        "priority": 0,
        "value": 2
      }
    ],
    "contextNotes": [],
    "links": {
      "children": []
    },
    "tag": "toolsThievesMasterwork",
    "scriptCalls": [],
    "subType": "gear"
  }
}
