{
  "_id": "my3pmvBJuGvimyGX",
  "name": "Whet bone",
  "type": "loot",
  "img": "systems/pf1/icons/items/inventory/dice.jpg",
  "sort": 0,
  "flags": {},
  "system": {
    "description": {
      "value": "<p>Source <a href=\"http://paizo.com/products/btpy8w7p?Pathfinder-Player-Companion-Animal-Archive\">Animal Archive pg. 12</a><br>Price 1 sp; Weight 2 lbs.<br>Category Animal Gear</p>\n<h3>Description</h3>\n<p>This hardened mixture of animal marrow and minerals is shaped into a long bone. When chewed upon by a creature for no fewer than 15 minutes, a whet bone grants the creature a +1 bonus on its next damage roll the first time it hits with a bite attack. This only works on nonmagical bite attacks.</p>"
    },
    "tags": [],
    "weight": {
      "value": 2
    },
    "price": 0.1,
    "equipped": false,
    "identifiedName": "Whet bone",
    "changes": [],
    "contextNotes": [],
    "links": {
      "children": []
    },
    "scriptCalls": [],
    "subType": "gear"
  }
}
