{
  "_id": "ufgxrhfkgrmgfqgf",
  "name": "Wine, Sealord",
  "type": "loot",
  "img": "systems/pf1/icons/items/inventory/dice.jpg",
  "sort": 0,
  "flags": {},
  "system": {
    "description": {
      "value": "<h4>Wine, Sealord</h4>\n<p><b>Price</b> 15 gp; <b>Weight</b> 1/2 lb.</p>\n<p>These red and white wines grown in certain coastal vineyards have a sweet-tart flavor valued by nobles in many lands.</p>\n<h3>Beverages (Nonalcoholic)</h3>"
    },
    "tags": [],
    "weight": {
      "value": 0.5
    },
    "price": 15,
    "equipped": false,
    "changes": [],
    "contextNotes": [],
    "links": {
      "children": []
    },
    "scriptCalls": [],
    "subType": "gear"
  }
}
