{
  "_id": "ribzueaayiedcene",
  "name": "Wolfsbane",
  "type": "loot",
  "img": "systems/pf1/icons/items/inventory/dice.jpg",
  "sort": 0,
  "flags": {},
  "system": {
    "description": {
      "value": "<p class=\"source\"><b>Source</b> <em>PZO9410</em></p>\n<p>The root of this tall plant with blue flowers is toxic, but herbalists use it in low doses to reduce pain and regulate the heart. Folklore says it can help a victim of lycanthropy throw off the curse.</p>\n<h3>Hunting Aids</h3>"
    },
    "tags": [],
    "price": 0.5,
    "equipped": false,
    "changes": [],
    "contextNotes": [],
    "links": {
      "children": []
    },
    "scriptCalls": [],
    "subType": "gear"
  }
}
