{
  "_id": "3j7RxplJSeXVt0X1",
  "name": "Abjuration School",
  "type": "feat",
  "img": "systems/pf1/icons/items/inventory/badge-blue.jpg",
  "sort": 0,
  "flags": {},
  "system": {
    "description": {
      "value": "<p>The abjurer uses magic against itself, and masters the art of defensive and warding magics.</p>"
    },
    "tags": [],
    "actions": [],
    "attackNotes": [],
    "effectNotes": [],
    "changes": [],
    "contextNotes": [],
    "links": {
      "children": [],
      "charges": []
    },
    "tag": "classFeat_abjurationSchool",
    "useCustomTag": true,
    "armorProf": {
      "value": []
    },
    "weaponProf": {
      "value": []
    },
    "languages": {
      "value": []
    },
    "scriptCalls": [],
    "subType": "classFeat",
    "associations": {
      "classes": [["Wizard"]]
    }
  }
}
