{
  "_id": "21iorFixz8NVU28A",
  "name": "Air's Reach",
  "type": "feat",
  "img": "systems/pf1/icons/spells/wind-sky-3.jpg",
  "sort": 0,
  "flags": {},
  "system": {
    "description": {
      "value": "<p><strong>Element </strong>air; <strong>Type </strong>utility (Su); <strong>Level </strong>1; <strong>Burn </strong>—</p>\n<p>When using air blasts, air wild talents, or composite blasts that include air, double the blast’s effective range. This effect applies after altering the range due to effects such as the extended range infusion. This doubles only the blast’s effective range, not the area of effect for infusions like cloud and cyclone.</p>"
    },
    "tags": [],
    "actions": [],
    "attackNotes": [],
    "effectNotes": [],
    "changes": [],
    "contextNotes": [],
    "links": {
      "children": [],
      "charges": []
    },
    "tag": "classFeat_airsReach",
    "useCustomTag": true,
    "armorProf": {
      "value": []
    },
    "weaponProf": {
      "value": []
    },
    "languages": {
      "value": []
    },
    "scriptCalls": [],
    "subType": "classFeat",
    "associations": {
      "classes": [["Kineticist"]]
    },
    "abilityType": "su"
  }
}
