{
  "_id": "3ggXCz7WmYP55vu5",
  "name": "Amazing Inspiration",
  "type": "feat",
  "img": "systems/pf1/icons/items/weapons/sword-cane.png",
  "sort": 0,
  "flags": {},
  "system": {
    "description": {
      "value": "<p>When using inspiration, the investigator rolls a d8 instead of a d6.</p>\n<p>At 20th level, the investigator rolls 2d8 and adds both dice to the result.</p>\n<p>An investigator must be at least 7th level to select this talent.</p>"
    },
    "tags": [],
    "actions": [],
    "attackNotes": [],
    "effectNotes": [],
    "changes": [],
    "contextNotes": [],
    "links": {
      "children": [],
      "charges": []
    },
    "tag": "classFeat_amazingInspiration",
    "useCustomTag": true,
    "armorProf": {
      "value": []
    },
    "weaponProf": {
      "value": []
    },
    "languages": {
      "value": []
    },
    "scriptCalls": [],
    "subType": "classFeat",
    "associations": {
      "classes": [["Investigator"]]
    },
    "abilityType": "ex"
  }
}
