{
  "_id": "gHAKpLeAIPnymJoq",
  "name": "Amorphous (UC) (4 pts)",
  "type": "feat",
  "img": "systems/pf1/icons/skills/blue_26.jpg",
  "sort": 0,
  "flags": {},
  "system": {
    "description": {
      "value": "<p><strong>Requirements: </strong>Aberrant or elemental subtype; summoner level 9th.</p>\n<p>The eidolon’s biology lacks discernible weak points. It is not subject to critical hits and sneak attacks.</p>"
    },
    "tags": [],
    "actions": [],
    "attackNotes": [],
    "effectNotes": [],
    "changes": [],
    "contextNotes": [],
    "links": {
      "children": [],
      "charges": []
    },
    "tag": "classFeat_amorphousUc4Pts",
    "useCustomTag": true,
    "armorProf": {
      "value": []
    },
    "weaponProf": {
      "value": []
    },
    "languages": {
      "value": []
    },
    "scriptCalls": [],
    "subType": "classFeat",
    "associations": {
      "classes": [["Eidolon (Unchained)"]]
    },
    "abilityType": "ex"
  }
}
