{
  "_id": "ia0D4h2Ywerw5Ohh",
  "name": "Ancestor Mystery",
  "type": "feat",
  "img": "systems/pf1/icons/spells/light-magenta-2.jpg",
  "sort": 0,
  "flags": {},
  "system": {
    "description": {
      "value": "<p><strong>Class Skills:</strong> An oracle with the ancestor mystery adds Linguistics, and all Knowledge skills to her list of class skills.<p><strong>Bonus Spells:</strong></p>\n<ul>\n<li>@Compendium[pf1.spells.jhyb2ana8jrk2lut]{Unseen Servant} (2nd), </li>\n<li>@Compendium[pf1.spells.avofn5q2v0f0qxjy]{Spiritual Weapon} (4th), </li>\n<li>@Compendium[pf1.spells.vqfrp8t0c1lw1jna]{Heroism} (6th), </li>\n<li>@Compendium[pf1.spells.0lrux8tmaml5fkw6]{Spiritual Ally} (8th), </li>\n<li>@Compendium[pf1.spells.3lfx1ccxo2hdqrf3]{Telekinesis} (10th), </li>\n<li>@Compendium[pf1.spells.z0duc2v2n3ioynta]{Heroism, Greater} (12th), </li>\n<li>@Compendium[pf1.spells.btccs4sjo2nog1a0]{Ethereal Jaunt} (14th), </li>\n<li>@Compendium[pf1.spells.aqeaxoaozlv9vg35]{Vision} (16th), </li>\n<li>@Compendium[pf1.spells.lnahlmp5mih2ongh]{Astral Projection} (18th).</li>\n</ul>"
    },
    "tags": [["Ancestor Mystery"]],
    "actions": [],
    "attackNotes": [],
    "effectNotes": [],
    "changes": [],
    "contextNotes": [],
    "links": {
      "children": [],
      "charges": []
    },
    "tag": "classFeat_ancestorMystery",
    "useCustomTag": true,
    "armorProf": {
      "value": []
    },
    "weaponProf": {
      "value": []
    },
    "languages": {
      "value": []
    },
    "scriptCalls": [],
    "subType": "classFeat",
    "associations": {
      "classes": [["Oracle"]]
    }
  }
}
