{
  "_id": "YBqCl7K7cnNyK6XE",
  "name": "Ancestor Totem",
  "type": "feat",
  "img": "systems/pf1/icons/feats/deafening-critical.jpg",
  "sort": 0,
  "flags": {},
  "system": {
    "description": {
      "value": "<p>The barbarian’s insight bonus to her chosen skill increases to +4. The barbarian can now select any skill to receive this bonus, even a Charisma-, Dexterity-, or Intelligence-based skill or a skill that requires patience or concentration; if she selects such a skill, she can use it even while raging.</p>\n<p>A barbarian must have the lesser ancestor totem rage power and be at least 6th level to select this rage power.</p>"
    },
    "tags": [],
    "actions": [],
    "attackNotes": [],
    "effectNotes": [],
    "changes": [],
    "contextNotes": [],
    "links": {
      "children": [],
      "charges": []
    },
    "tag": "classFeat_ancestorTotem",
    "useCustomTag": true,
    "armorProf": {
      "value": []
    },
    "weaponProf": {
      "value": []
    },
    "languages": {
      "value": []
    },
    "scriptCalls": [],
    "subType": "classFeat",
    "associations": {
      "classes": [["Barbarian"], ["Skald"]]
    },
    "abilityType": "su"
  }
}
