{
  "_id": "hWRLm7E1OyoC4qtR",
  "name": "Aquatic Bloodrager Bloodline",
  "type": "feat",
  "img": "systems/pf1/icons/skills/red_13.jpg",
  "sort": 0,
  "flags": {},
  "system": {
    "description": {
      "value": "<p><em>The anger in your blood rises from the ocean depths, seeded by descent from undersea empires, creeping ichthyic infiltrators into remote seaside villages, or something deeper still.</em><p><strong>Bonus Feats:</strong></p>\n<ul>\n<li>Aquadynamic Focus,</li>\n<li>@Compendium[pf1.feats.JreaiTHdyWFNj3Tb]{Dodge}</li>\n<li>@Compendium[pf1.feats.0bZf3SDkvVOe2ujH]{Lightning Reflexes}</li>\n<li>@Compendium[pf1.feats.R7L4SlGRlnThqFrP]{Mobility}</li>\n<li>@Compendium[pf1.feats.7zJTztNW7hdaqjKc]{Skill Focus} (Fly),</li>\n<li>Steam Spell</li>\n<li>@Compendium[pf1.feats.8snLqsJN4LLL00Nq]{Toughness}</li>\n</ul>\n<p><strong>Bonus Spells: </strong></p>\n<ul>\n<li>@Compendium[pf1.spells.ohy0ty2dawfaaqwd]{Hydraulic Push} (7th), </li>\n<li>@Compendium[pf1.spells.7fvsn0gbv6ynlp63]{Slipstream} (10th), </li>\n<li>@Compendium[pf1.spells.478jgozgfbt20u0q]{Hydraulic Torrent} (13th), </li>\n<li>@Compendium[pf1.spells.7yf67b7y4byj96w7]{Control Water} (16th)</li>\n</ul>"
    },
    "tags": [],
    "actions": [],
    "attackNotes": [],
    "effectNotes": [],
    "changes": [],
    "contextNotes": [],
    "links": {
      "children": [],
      "charges": []
    },
    "tag": "classFeat_aquaticBloodragerBloodline",
    "useCustomTag": true,
    "armorProf": {
      "value": []
    },
    "weaponProf": {
      "value": []
    },
    "languages": {
      "value": []
    },
    "scriptCalls": [],
    "subType": "classFeat",
    "associations": {
      "classes": [["Bloodrager"]]
    }
  }
}
