{
  "_id": "Ncm93P1zolcLoYZJ",
  "name": "Arcane Surge",
  "type": "feat",
  "img": "systems/pf1/icons/spells/runes-magenta-3.jpg",
  "sort": 0,
  "flags": {},
  "system": {
    "description": {
      "value": "<p>You can allow the archmage spirit to gain 1 point of inf luence over you in order to cast one of your medium spells known without expending a spell slot. When you do so, the caster level and DC of the spell increase by 1, and you can’t apply metamagic to the spell.</p>"
    },
    "tags": [],
    "actions": [],
    "attackNotes": [],
    "effectNotes": [],
    "changes": [],
    "contextNotes": [],
    "links": {
      "children": [],
      "charges": []
    },
    "tag": "classFeat_arcaneSurge",
    "useCustomTag": true,
    "armorProf": {
      "value": []
    },
    "weaponProf": {
      "value": []
    },
    "languages": {
      "value": []
    },
    "scriptCalls": [],
    "subType": "classFeat",
    "associations": {
      "classes": [["Medium"]]
    },
    "abilityType": "su"
  }
}
