{
  "_id": "YZWpaLuHXG33IHVC",
  "name": "Arcane Backfire",
  "type": "feat",
  "img": "systems/pf1/icons/items/weapons/kunai.png",
  "sort": 0,
  "flags": {},
  "system": {
    "description": {
      "value": "<p>When a ninja with this trick successfully attacks a creature that is holding a magic item that has a number of charges or uses per day, she can attempt a Use Magic Device check (DC = 20 + the item’s CL) to cause the item to lose either one daily use or a number of charges equal to the number of the ninja’s sneak attack dice.</p>"
    },
    "tags": [],
    "actions": [],
    "attackNotes": [],
    "effectNotes": [],
    "changes": [],
    "contextNotes": [],
    "links": {
      "children": [],
      "charges": []
    },
    "tag": "classFeat_arcaneBackfire",
    "useCustomTag": true,
    "armorProf": {
      "value": []
    },
    "weaponProf": {
      "value": []
    },
    "languages": {
      "value": []
    },
    "scriptCalls": [],
    "subType": "classFeat",
    "associations": {
      "classes": [["Ninja"]]
    },
    "abilityType": "su"
  }
}
