{
  "_id": "Hoas7NsV5Xmtsc9O",
  "name": "Armored Marauder",
  "type": "feat",
  "img": "systems/pf1/icons/items/weapons/rhoka.PNG",
  "sort": 0,
  "flags": {},
  "system": {
    "description": {
      "value": "<p>Some elite slayers exchange leather and chain for plate when stalking prey. A slayer with this talent gains proficiency with heavy armor.</p>\n<p>In addition, the armor check penalty of any heavy armor the slayer wears is reduced by 1 for every 6 class levels he has.</p>"
    },
    "tags": [],
    "actions": [],
    "attackNotes": [],
    "effectNotes": [],
    "changes": [],
    "contextNotes": [],
    "links": {
      "children": [],
      "charges": []
    },
    "tag": "classFeat_armoredMarauder",
    "useCustomTag": true,
    "armorProf": {
      "value": []
    },
    "weaponProf": {
      "value": []
    },
    "languages": {
      "value": []
    },
    "scriptCalls": [],
    "subType": "classFeat",
    "associations": {
      "classes": [["Slayer"]]
    },
    "abilityType": "ex"
  }
}
