{
  "_id": "VVmms0Hmol8UBKqW",
  "name": "Atheist Inspiration",
  "type": "feat",
  "img": "systems/pf1/icons/items/weapons/sword-cane.png",
  "sort": 0,
  "flags": {},
  "system": {
    "description": {
      "value": "<p>The investigator can use her inspiration on saving throws against divine spells without expending uses of inspiration. This talent counts as the Divine Defiance feat (Pathfinder Player Companion: Faiths &amp; Philosophies 7) for the purpose of meeting the prerequisites of other feats.</p>"
    },
    "tags": [],
    "actions": [],
    "attackNotes": [],
    "effectNotes": [],
    "changes": [],
    "contextNotes": [],
    "links": {
      "children": [],
      "charges": []
    },
    "tag": "classFeat_atheistInspiration",
    "useCustomTag": true,
    "armorProf": {
      "value": []
    },
    "weaponProf": {
      "value": []
    },
    "languages": {
      "value": []
    },
    "scriptCalls": [],
    "subType": "classFeat",
    "associations": {
      "classes": [["Investigator"]]
    },
    "abilityType": "ex"
  }
}
