{
  "_id": "cUv3fmnuhtQjgQM5",
  "name": "Aura of Faith",
  "type": "feat",
  "img": "systems/pf1/icons/feats/channel-smite.jpg",
  "sort": 0,
  "flags": {},
  "system": {
    "description": {
      "value": "<p>At 14th level, a paladin’s weapons are treated as good-aligned for the purposes of overcoming <em>Damage Reduction</em>. Any attack made against an enemy within 10 feet of her is treated as good-aligned for the purposes of overcoming <em>Damage Reduction</em>.</p>\n<p>This ability functions only while the paladin is conscious, not if she is <em>unconscious</em> or dead.</p>"
    },
    "tags": [],
    "actions": [],
    "attackNotes": [],
    "effectNotes": [],
    "changes": [],
    "contextNotes": [],
    "links": {
      "children": [],
      "charges": []
    },
    "tag": "classFeat_auraOfFaith",
    "useCustomTag": true,
    "armorProf": {
      "value": []
    },
    "weaponProf": {
      "value": []
    },
    "languages": {
      "value": []
    },
    "scriptCalls": [],
    "subType": "classFeat",
    "associations": {
      "classes": [["Paladin"]]
    },
    "abilityType": "su"
  }
}
