{
  "_id": "4r1t3LvBKkw2RCq6",
  "name": "Azata Subdomain",
  "type": "feat",
  "img": "systems/pf1/icons/spells/haste-royal-2.jpg",
  "sort": 0,
  "flags": {},
  "system": {
    "description": {
      "value": "<p>Replacement Domain Spells:</p>\n<ul>\n<li>1st—@Compendium[pf1.spells.pysrx5kxfjvsjjsi]{Expeditious Retreat}</li>\n<li>3rd—@Compendium[pf1.spells.7d6sv5ecvi7kho3m]{Fly}</li>\n<li>6th—@Compendium[pf1.spells.gfvnfa5k1tnpvg8v]{Planar Ally} (azata only)</li>\n</ul>"
    },
    "tags": [],
    "actions": [],
    "attackNotes": [],
    "effectNotes": [],
    "changes": [],
    "contextNotes": [],
    "links": {
      "children": [],
      "charges": []
    },
    "tag": "classFeat_azataSubdomain",
    "useCustomTag": true,
    "armorProf": {
      "value": []
    },
    "weaponProf": {
      "value": []
    },
    "languages": {
      "value": []
    },
    "scriptCalls": [],
    "subType": "classFeat",
    "associations": {
      "classes": [["Cleric"]]
    }
  }
}
