{
  "_id": "43BY1R9hJFOyST98",
  "name": "Blade Whirlwind Infusion",
  "type": "feat",
  "img": "systems/pf1/icons/spells/runes-magenta-1.jpg",
  "sort": 0,
  "flags": {},
  "system": {
    "description": {
      "value": "<p><strong>Element </strong>universal; <strong>Type </strong>form infusion; <strong>Level </strong>5; <strong>Burn </strong>3<br><strong>Prerequisite </strong>kinetic blade<br><strong>Associated Blasts </strong>any<br><strong>Saving Throw </strong>none</p>\n<p>You create a kinetic blade and swing it in an arc around you, making a single attack against all foes within reach as if with kinetic blade. If the result is a critical threat, roll to confirm the critical hit against only the first target you hit. The blade vanishes instantly after the whirlwind.</p>"
    },
    "tags": [],
    "actions": [],
    "attackNotes": [],
    "effectNotes": [],
    "changes": [],
    "contextNotes": [],
    "links": {
      "children": [],
      "charges": []
    },
    "tag": "classFeat_bladeWhirlwindInfusion",
    "useCustomTag": true,
    "armorProf": {
      "value": []
    },
    "weaponProf": {
      "value": []
    },
    "languages": {
      "value": []
    },
    "scriptCalls": [],
    "subType": "classFeat",
    "associations": {
      "classes": [["Kineticist"]]
    }
  }
}
