{
  "_id": "VjHjPja5QABBgRvR",
  "name": "Bonus Feat (MNK)",
  "type": "feat",
  "img": "systems/pf1/icons/skills/blue_10.jpg",
  "sort": 0,
  "flags": {},
  "system": {
    "description": {
      "value": "<p>At 1st level, 2nd level, and every 4 levels thereafter, a monk may select a bonus feat. These feats must be taken from the following list:</p>\n<p>@Compendium[pf1.feats.bZ1YdzkT8NtRIEJ4]{Catch Off-Guard}, @Compendium[pf1.feats.h9nHYLxXvIXBTmup]{Combat Reflexes}, @Compendium[pf1.feats.ACEQfonKVqh0fwkK]{Deflect Arrows}, @Compendium[pf1.feats.JreaiTHdyWFNj3Tb]{Dodge}, @Compendium[pf1.feats.ZmQkRk93nbHxsQSt]{Improved Grapple}, @Compendium[pf1.feats.2AfSIVge3bg8r6wr]{Scorpion Style}, and @Compendium[pf1.feats.gGfXQq0IZrxdcZDx]{Throw Anything}.</p>\n<p>At 6th level, the following feats are added to the list:</p>\n<p>@Compendium[pf1.feats.nhUawPP4jfED3CYV]{Gorgon's Fist}, @Compendium[pf1.feats.dn2KgHFQRbuoNRx0]{Improved Bull Rush}, @Compendium[pf1.feats.711B9WNFgpdDKKf2]{Improved Disarm}, @Compendium[pf1.feats.tocde3sKG1O3GKgd]{Improved Feint}, @Compendium[pf1.feats.gTrGPxzN054GfpkM]{Improved Trip}, and @Compendium[pf1.feats.R7L4SlGRlnThqFrP]{Mobility}.</p>\n<p>At 10th level, the following feats are added to the list:</p>\n<p>@Compendium[pf1.feats.TbOPtIL8Fv8obXtP]{Improved Critical}, @Compendium[pf1.feats.sOCyCmNxe2MBbEaI]{Medusa's Wrath}, @Compendium[pf1.feats.bHcqTC4Lf3aVl3VO]{Snatch Arrows}, and @Compendium[pf1.feats.ugQyUpqPBDsqLyra]{Spring Attack}.</p>\n<p>A monk need not have any of the prerequisites normally required for these feats to select them.</p>"
    },
    "tags": [],
    "actions": [],
    "attackNotes": [],
    "effectNotes": [],
    "changes": [
      {
        "_id": "fjkapxbj",
        "formula": "1 + floor((@classes.monk.level + 2) / 4)",
        "operator": "add",
        "subTarget": "bonusFeats",
        "modifier": "untyped",
        "priority": 0,
        "value": 0,
        "target": "misc"
      }
    ],
    "contextNotes": [],
    "links": {
      "children": [],
      "charges": []
    },
    "tag": "classFeat_bonusFeatMnk",
    "useCustomTag": true,
    "armorProf": {
      "value": []
    },
    "weaponProf": {
      "value": []
    },
    "languages": {
      "value": []
    },
    "scriptCalls": [],
    "subType": "classFeat",
    "associations": {
      "classes": [["Monk"]]
    }
  }
}
