{
  "_id": "RHPmPdsOoB0CwCrw",
  "name": "Broad Study",
  "type": "feat",
  "img": "systems/pf1/icons/spells/enchant-red-3.jpg",
  "sort": 0,
  "flags": {},
  "system": {
    "description": {
      "value": "<p>The magus selects another one of his spellcasting classes. The magus can use his spellstrike and spell combat abilities while casting or using spells from the spell list of that class. This does not allow him to cast arcane spells from that class's spell list without suffering the normal chances of arcane spell failure, unless the spell lacks somatic components.</p>\n<p>The magus must be at least 6th level and must possess levels in at least one other spellcasting class before selecting this arcana.</p>"
    },
    "tags": [],
    "actions": [],
    "attackNotes": [],
    "effectNotes": [],
    "changes": [],
    "contextNotes": [],
    "links": {
      "children": [],
      "charges": []
    },
    "tag": "classFeat_broadStudy",
    "useCustomTag": true,
    "armorProf": {
      "value": []
    },
    "weaponProf": {
      "value": []
    },
    "languages": {
      "value": []
    },
    "scriptCalls": [],
    "subType": "classFeat",
    "associations": {
      "classes": [["Magus"]]
    },
    "abilityType": "ex"
  }
}
