{
  "_id": "lm0tzqOxb5DC7Bb9",
  "name": "Caster's Bane",
  "type": "feat",
  "img": "systems/pf1/icons/skills/red_05.jpg",
  "sort": 0,
  "flags": {},
  "system": {
    "description": {
      "value": "<p>At 20th level, spellcasters with a caster level lower than your bloodrager level always provoke attacks of opportunity within your threatened area, even when casting defensively. You have this ability constantly, even while not bloodraging.</p>"
    },
    "tags": [],
    "actions": [],
    "attackNotes": [],
    "effectNotes": [],
    "changes": [],
    "contextNotes": [],
    "links": {
      "children": [],
      "charges": []
    },
    "tag": "classFeat_castersBane",
    "useCustomTag": true,
    "armorProf": {
      "value": []
    },
    "weaponProf": {
      "value": []
    },
    "languages": {
      "value": []
    },
    "scriptCalls": [],
    "subType": "classFeat",
    "associations": {
      "classes": [["Bloodrager"]]
    },
    "abilityType": "ex"
  }
}
