{
  "_id": "F4F8L9Ma8zgtBIio",
  "name": "Champion's Prowess",
  "type": "feat",
  "img": "systems/pf1/icons/skills/yellow_37.jpg",
  "sort": 0,
  "flags": {},
  "system": {
    "description": {
      "value": "<p>You gain proficiency in all martial weapons and in one exotic weapon of your choice, which you choose each time you channel a champion spirit.</p>"
    },
    "tags": [],
    "actions": [],
    "attackNotes": [],
    "effectNotes": [],
    "changes": [],
    "contextNotes": [],
    "links": {
      "children": [],
      "charges": []
    },
    "tag": "classFeat_championsProwess",
    "useCustomTag": true,
    "armorProf": {
      "value": []
    },
    "weaponProf": {
      "value": []
    },
    "languages": {
      "value": []
    },
    "scriptCalls": [],
    "subType": "classFeat",
    "associations": {
      "classes": [["Medium"]]
    },
    "abilityType": "su"
  }
}
