{
  "_id": "uh6QDCMKqvczFCxs",
  "name": "Claws (UC) (1 pt)",
  "type": "feat",
  "img": "systems/pf1/icons/skills/blue_26.jpg",
  "sort": 0,
  "flags": {},
  "system": {
    "description": {
      "value": "<p><strong>Requirements:</strong> Agathion, daemon, demon, devil, div, elemental, protean, or psychopomp subtype.</p>\n<p>The eidolon has a pair of vicious claws at the ends of its limbs, giving it two claw attacks. These attacks are primary attacks. The claws deal 1d4 points of damage (1d6 if Large, 1d8 if Huge). The eidolon must have the limbs evolution to take this evolution. This evolution can be selected more than once, up to the number of limbs evolutions the eidolon possesses.</p>\n<p>This evolution can be applied to any number of limbs (arms) evolutions, but no more than one limbs (legs) evolution.</p>"
    },
    "tags": [],
    "actions": [],
    "attackNotes": [],
    "effectNotes": [],
    "changes": [],
    "contextNotes": [],
    "links": {
      "children": [],
      "charges": []
    },
    "tag": "classFeat_clawsUc1Pt",
    "useCustomTag": true,
    "armorProf": {
      "value": []
    },
    "weaponProf": {
      "value": []
    },
    "languages": {
      "value": []
    },
    "scriptCalls": [],
    "subType": "classFeat",
    "associations": {
      "classes": [["Eidolon (Unchained)"]]
    },
    "abilityType": "ex"
  }
}
