{
  "_id": "rl7CfuBC0yFyIC7P",
  "name": "Concentrate Poison",
  "type": "feat",
  "img": "systems/pf1/icons/items/potions/unique-3.jpg",
  "sort": 0,
  "flags": {},
  "system": {
    "description": {
      "value": "<p>The alchemist can combine two doses of the same poison to increase their effects. This requires two doses of the poison and 1 minute of concentration. When completed, the alchemist has one dose of poison. The poison's frequency is extended by 50% and the save DC increases by +2. This poison must be used within 1 hour of its creation or it is ruined.</p>"
    },
    "tags": [],
    "actions": [],
    "attackNotes": [],
    "effectNotes": [],
    "changes": [],
    "contextNotes": [],
    "links": {
      "children": [],
      "charges": []
    },
    "tag": "classFeat_concentratePoison",
    "useCustomTag": true,
    "armorProf": {
      "value": []
    },
    "weaponProf": {
      "value": []
    },
    "languages": {
      "value": []
    },
    "scriptCalls": [],
    "subType": "classFeat",
    "associations": {
      "classes": [["Alchemist"]]
    }
  }
}
