{
  "_id": "FzgXemLXUVUPLrXb",
  "name": "Counterspell Primal Magic",
  "type": "feat",
  "img": "systems/pf1/icons/spells/runes-blue-3.jpg",
  "sort": 0,
  "flags": {},
  "system": {
    "description": {
      "value": "<p>The arcanist can attempt to counter a primal magic event as if counterspelling a magical effect. This requires a Spellcraft check with a DC of 10 + the CR of the primal magic event. If she succeeds, the event is dispelled per @Compendium[pf1.spells.gmgwyjfpeuuc4t4o]{Dispel Magic}.</p>\n<p>The arcanist must have the counterspell exploit to select this exploit.</p>"
    },
    "tags": [],
    "actions": [],
    "attackNotes": [],
    "effectNotes": [],
    "changes": [],
    "contextNotes": [],
    "links": {
      "children": [],
      "charges": []
    },
    "tag": "classFeat_counterspellPrimalMagic",
    "useCustomTag": true,
    "armorProf": {
      "value": []
    },
    "weaponProf": {
      "value": []
    },
    "languages": {
      "value": []
    },
    "scriptCalls": [],
    "subType": "classFeat",
    "associations": {
      "classes": [["Arcanist"]]
    },
    "abilityType": "su"
  }
}
