{
  "_id": "vwQSGXKlhDjSsEuP",
  "name": "Deadly Sneak (UC)",
  "type": "feat",
  "img": "systems/pf1/icons/items/weapons/razor-drow.PNG",
  "sort": 0,
  "flags": {},
  "system": {
    "description": {
      "value": "<p>When a rogue with this talent uses the powerful sneak talent, she rerolls all sneak attack dice that resulted in 1s or 2s. She can reroll multiple dice, but she can’t reroll any individual die more than once per attack.</p>\n<p>A rogue must have the powerful sneak talent before selecting this talent.</p>"
    },
    "tags": [],
    "actions": [],
    "attackNotes": [],
    "effectNotes": [],
    "changes": [],
    "contextNotes": [],
    "links": {
      "children": [],
      "charges": []
    },
    "tag": "classFeat_deadlySneakUc",
    "useCustomTag": true,
    "armorProf": {
      "value": []
    },
    "weaponProf": {
      "value": []
    },
    "languages": {
      "value": []
    },
    "scriptCalls": [],
    "subType": "classFeat",
    "associations": {
      "classes": [["Rogue (Unchained)"]]
    },
    "abilityType": "ex"
  }
}
