{
  "_id": "lCKtXGUg6HmmAj9v",
  "name": "Deathly Being",
  "type": "feat",
  "img": "systems/pf1/icons/skills/green_03.jpg",
  "sort": 0,
  "flags": {},
  "system": {
    "description": {
      "value": "<p>If the shaman is a living creature, she reacts to positive and negative energy as if she were undead—positive energy harms her, while negative energy heals her. If she’s an undead creature or a creature with the negative energy affinity ability, she gains a +1 bonus to her channel resistance.</p>\n<p>At 8th level, if she’s a living creature she gains a +4 bonus on saves against death effects and effects that drain energy, or if she’s an undead creature her bonus to channel resistance increases to +2.</p>\n<p>At 16th level, if the shaman a living creature, she takes no penalties from energy drain effects, though she can still be killed if she accrues more negative levels than she has Hit Dice. Furthermore, after 24 hours any negative levels the shaman has are removed without requiring her to succeed at an additional saving throw.</p>\n<p>If the shaman is an undead creature, her bonus to channel resistance increases to +4.</p>"
    },
    "tags": [],
    "actions": [],
    "attackNotes": [],
    "effectNotes": [],
    "changes": [],
    "contextNotes": [],
    "links": {
      "children": [],
      "charges": []
    },
    "tag": "classFeat_deathlyBeing",
    "useCustomTag": true,
    "armorProf": {
      "value": []
    },
    "weaponProf": {
      "value": []
    },
    "languages": {
      "value": []
    },
    "scriptCalls": [],
    "subType": "classFeat",
    "associations": {
      "classes": [["Shaman"]]
    },
    "abilityType": "su"
  }
}
