{
  "_id": "OXG4lt3sDQJLFAYd",
  "name": "Dehydrating Touch",
  "type": "feat",
  "img": "systems/pf1/icons/skills/ice_16.jpg",
  "sort": 0,
  "flags": {},
  "system": {
    "description": {
      "value": "<p>Starting at 1st level, you can make a melee <em>touch attack</em> as a <em>standard action</em> that inflicts 1d6 points of <em>nonlethal damage</em> + 1 for every two sorcerer levels you possess and <em>sickens</em> the target for 1 round. <em>Oozes</em>, <em>plants</em>, and creatures with the <em>aquatic</em> or <em>water</em> subtypes suffer lethal damage instead. You can use this ability a number of times per day equal to 3 + your <em>Charisma</em> modifier.</p>"
    },
    "tags": [],
    "actions": [
      {
        "_id": "j9qlzf6pzzhx6g6s",
        "name": "Use",
        "img": "systems/pf1/icons/skills/ice_16.jpg",
        "description": "",
        "tag": "",
        "activation": {
          "cost": 1,
          "type": "standard"
        },
        "unchainedAction": {
          "activation": {
            "cost": 2,
            "type": "action"
          }
        },
        "duration": {
          "value": null,
          "units": "inst"
        },
        "target": {
          "value": "creature touched"
        },
        "range": {
          "value": null,
          "units": "touch",
          "maxIncrements": 1,
          "minValue": null,
          "minUnits": ""
        },
        "uses": {
          "autoDeductChargesCost": "",
          "self": {
            "value": 0,
            "maxFormula": "",
            "per": null
          },
          "per": "day",
          "value": 0,
          "maxFormula": "3 + @abilities.cha.mod"
        },
        "measureTemplate": {
          "type": "",
          "size": "0",
          "overrideColor": false,
          "customColor": "",
          "overrideTexture": false,
          "customTexture": ""
        },
        "attackName": "",
        "actionType": "mwak",
        "attackBonus": "",
        "critConfirmBonus": "",
        "damage": {
          "parts": [
            [
              "1d6 + floor(@classes.sorcerer.level / 2)",
              {
                "values": ["untyped"],
                "custom": ""
              }
            ]
          ],
          "critParts": [],
          "nonCritParts": []
        },
        "attackParts": [],
        "formulaicAttacks": {
          "count": {
            "formula": ""
          },
          "bonus": {
            "formula": ""
          },
          "label": null
        },
        "formula": "",
        "ability": {
          "attack": "",
          "damage": "",
          "damageMult": 1,
          "critRange": 20,
          "critMult": 2
        },
        "save": {
          "dc": "0",
          "type": "",
          "description": ""
        },
        "effectNotes": [],
        "attackNotes": [],
        "soundEffect": "",
        "powerAttack": {
          "multiplier": "",
          "damageBonus": 2,
          "critMultiplier": 1
        },
        "naturalAttack": {
          "primaryAttack": true,
          "secondary": {
            "attackBonus": "-5",
            "damageMult": 0.5
          }
        },
        "nonlethal": false,
        "usesAmmo": false,
        "spellEffect": "",
        "spellArea": "",
        "conditionals": [],
        "enh": {
          "value": null
        }
      }
    ],
    "uses": {
      "per": "day",
      "maxFormula": "3 + @abilities.cha.mod"
    },
    "attackNotes": [],
    "effectNotes": [],
    "changes": [],
    "contextNotes": [],
    "links": {
      "children": [],
      "charges": []
    },
    "tag": "classFeat_dehydratingTouch",
    "useCustomTag": true,
    "armorProf": {
      "value": []
    },
    "weaponProf": {
      "value": []
    },
    "languages": {
      "value": []
    },
    "scriptCalls": [],
    "subType": "classFeat",
    "associations": {
      "classes": [["Sorcerer"]]
    },
    "abilityType": "sp"
  }
}
