{
  "_id": "aqePgMFl8K5RTdbz",
  "name": "Devotion Patron",
  "type": "feat",
  "img": "systems/pf1/icons/feats/improved-familiar.jpg",
  "sort": 0,
  "flags": {},
  "system": {
    "description": {
      "value": "<ul>\n<li>2nd — @Compendium[pf1.spells.21bxbzdaawjrnvyo]{Divine Favor}</li>\n<li>4th — @Compendium[pf1.spells.25ey7spdaj72yioz]{Martyr's Bargain}</li>\n<li>6th — @Compendium[pf1.spells.73han2zqxg59u18g]{Magic Vestment}</li>\n<li>8th — @Compendium[pf1.spells.zq7xi7l5vgpqu7rt]{Magic Weapon, Greater}</li>\n<li>10th — @Compendium[pf1.spells.gmugktarbieojt59]{Flame Strike}</li>\n<li>12th — @Compendium[pf1.spells.8xjcrqg79ugxu5qu]{Bull's Strength, Mass}</li>\n<li>14th — @Compendium[pf1.spells.rzjl9l12j9ab4z6g]{Bestow Grace of the Champion}</li>\n<li>16th — @Compendium[pf1.spells.n0vm6or4nwaylpfa]{Holy Aura}</li>\n<li>18th — @Compendium[pf1.spells.klcvk9ct1l7mhjwp]{Heal, Mass}</li>\n</ul>"
    },
    "tags": [],
    "actions": [],
    "attackNotes": [],
    "effectNotes": [],
    "changes": [],
    "contextNotes": [],
    "links": {
      "children": [],
      "charges": []
    },
    "tag": "classFeat_devotionPatron",
    "useCustomTag": true,
    "armorProf": {
      "value": []
    },
    "weaponProf": {
      "value": []
    },
    "languages": {
      "value": []
    },
    "scriptCalls": [],
    "subType": "classFeat",
    "associations": {
      "classes": [["Witch"]]
    }
  }
}
