{
  "_id": "wANAzWGYGTasHw57",
  "name": "Draconic Blood",
  "type": "feat",
  "img": "systems/pf1/icons/feats/deafening-critical.jpg",
  "sort": 0,
  "flags": {},
  "system": {
    "description": {
      "value": "<p>Choose an energy type from the following: acid, cold, fire, or electricity. While raging, the barbarian gains resistance 5 against the chosen energy type and a +1 natural armor bonus.</p>"
    },
    "tags": [],
    "actions": [],
    "attackNotes": [],
    "effectNotes": [],
    "changes": [],
    "contextNotes": [],
    "links": {
      "children": [],
      "charges": []
    },
    "tag": "classFeat_draconicBlood",
    "useCustomTag": true,
    "armorProf": {
      "value": []
    },
    "weaponProf": {
      "value": []
    },
    "languages": {
      "value": []
    },
    "scriptCalls": [],
    "subType": "classFeat",
    "associations": {
      "classes": [["Barbarian"], ["Skald"]]
    },
    "abilityType": "su"
  }
}
