{
  "_id": "dwoY5vaPtQychkk9",
  "name": "Enlightenment Discipline",
  "type": "feat",
  "img": "systems/pf1/icons/spells/slice-spirit-3.jpg",
  "sort": 0,
  "flags": {},
  "system": {
    "description": {
      "value": "<p>Your quest for enlightenment has opened your eyes to new concepts and heights of spiritual awareness. You seek learning that allows you to evolve in mind and spirit, improving your next incarnation.<p><strong>Phrenic Pool Ability:</strong> Wisdom<p><strong>Bonus Spells:</strong></p>\n<ul>\n<li>@Compendium[pf1.spells.f9adpo6szijchpva]{Acute Senses} (1st), </li>\n<li>@Compendium[pf1.spells.llxrra87kbofmyhl]{Identify} (4th), </li>\n<li>@Compendium[pf1.spells.6kmkxepwgsbta6ui]{Clairaudience/Clairvoyance} (6th), </li>\n<li>@Compendium[pf1.spells.5wmn4airvkprv3gp]{Thoughtsense} (8th), </li>\n<li>@Compendium[pf1.spells.qr6qcx8zqum6jhc4]{Atonement} (10th), </li>\n<li>@Compendium[pf1.spells.ln4jpuurxbrfxw5j]{Arcane Sight, Greater} (12th), </li>\n<li>@Compendium[pf1.spells.y4881ol4t79wj7sf]{Circle Of Clarity} (14th), </li>\n<li>@Compendium[pf1.spells.0kppkhsencd6tzvh]{Protection from Spells} (16th), </li>\n<li>@Compendium[pf1.spells.xuuzj9lr2xbwaim4]{Overwhelming Presence} (18th).</li>\n</ul>"
    },
    "tags": [],
    "actions": [],
    "attackNotes": [],
    "effectNotes": [],
    "changes": [],
    "contextNotes": [],
    "links": {
      "children": [],
      "charges": []
    },
    "tag": "classFeat_enlightenmentDiscipline",
    "useCustomTag": true,
    "armorProf": {
      "value": []
    },
    "weaponProf": {
      "value": []
    },
    "languages": {
      "value": []
    },
    "scriptCalls": [],
    "subType": "classFeat",
    "associations": {
      "classes": [["Psychic"]]
    }
  }
}
