{
  "_id": "x3Zr5krrqGGh0PdY",
  "name": "Erratic Charge",
  "type": "feat",
  "img": "systems/pf1/icons/feats/deafening-critical.jpg",
  "sort": 0,
  "flags": {},
  "system": {
    "description": {
      "value": "<p>As part of the full-round action to perform a charge attack against a creature at least 20 feet away, the barbarian can move 5 feet in any direction before making the charge. This movement is not a 5-foot step and provokes attacks of opportunity as normal, and using this option reduces the maximum distance of the charge by 10 feet.</p>"
    },
    "tags": [],
    "actions": [],
    "attackNotes": [],
    "effectNotes": [],
    "changes": [],
    "contextNotes": [],
    "links": {
      "children": [],
      "charges": []
    },
    "tag": "classFeat_erraticCharge",
    "useCustomTag": true,
    "armorProf": {
      "value": []
    },
    "weaponProf": {
      "value": []
    },
    "languages": {
      "value": []
    },
    "scriptCalls": [],
    "subType": "classFeat",
    "associations": {
      "classes": [["Barbarian"], ["Skald"]]
    },
    "abilityType": "ex"
  }
}
