{
  "_id": "fhte9PquTF3A9srJ",
  "name": "Extended Range Infusion",
  "type": "feat",
  "img": "systems/pf1/icons/spells/runes-blue-1.jpg",
  "sort": 0,
  "flags": {},
  "system": {
    "description": {
      "value": "<p><strong>Element </strong>universal; <strong>Type </strong>form infusion; <strong>Level </strong>1; <strong>Burn </strong>1<br><strong>Associated Blasts </strong>any<br><strong>Saving Throw </strong>none</p>\n<p>Your kinetic blast can strike any target within 120 feet.</p>"
    },
    "tags": [],
    "actions": [],
    "attackNotes": [],
    "effectNotes": [],
    "changes": [],
    "contextNotes": [],
    "links": {
      "children": [],
      "charges": []
    },
    "tag": "classFeat_extendedRangeInfusion",
    "useCustomTag": true,
    "armorProf": {
      "value": []
    },
    "weaponProf": {
      "value": []
    },
    "languages": {
      "value": []
    },
    "scriptCalls": [],
    "subType": "classFeat",
    "associations": {
      "classes": [["Kineticist"]]
    }
  }
}
