{
  "_id": "zU7CW0BGs5cksUCK",
  "name": "Extra Earthcraft",
  "type": "feat",
  "img": "systems/pf1/icons/items/weapons/dagger.PNG",
  "sort": 0,
  "flags": {},
  "system": {
    "description": {
      "value": "<p>The rogue gains 2 additional earthcraft points each day. The rogue must have the earthcraft ability to select this talent.</p>"
    },
    "tags": [],
    "actions": [],
    "attackNotes": [],
    "effectNotes": [],
    "changes": [],
    "contextNotes": [],
    "links": {
      "children": [],
      "charges": []
    },
    "tag": "classFeat_extraEarthcraft",
    "useCustomTag": true,
    "armorProf": {
      "value": []
    },
    "weaponProf": {
      "value": []
    },
    "languages": {
      "value": []
    },
    "scriptCalls": [],
    "subType": "classFeat",
    "associations": {
      "classes": [["Rogue"]]
    },
    "abilityType": "su"
  }
}
