{
  "_id": "SMjXDgCENZQCwJ98",
  "name": "Eyes of the Void",
  "type": "feat",
  "img": "systems/pf1/icons/spells/rip-sky-1.jpg",
  "sort": 0,
  "flags": {},
  "system": {
    "description": {
      "value": "<p><strong>Element </strong>void; <strong>Type </strong>utility (Su); <strong>Level </strong>2; <strong>Burn </strong>—</p>\n<p>You gain darkvision with a range of 60 feet (if you already have darkvision, your darkvision’s range increases by 30 feet).</p>"
    },
    "tags": [],
    "actions": [],
    "attackNotes": [],
    "effectNotes": [],
    "changes": [],
    "contextNotes": [],
    "links": {
      "children": [],
      "charges": []
    },
    "tag": "classFeat_eyesOfTheVoid",
    "useCustomTag": true,
    "armorProf": {
      "value": []
    },
    "weaponProf": {
      "value": []
    },
    "languages": {
      "value": []
    },
    "scriptCalls": [],
    "subType": "classFeat",
    "associations": {
      "classes": [["Kineticist"]]
    },
    "abilityType": "su"
  }
}
