{
  "_id": "VUVN93WJ0fl76Cem",
  "name": "Fantastic Stride",
  "type": "feat",
  "img": "systems/pf1/icons/feats/deceitful.jpg",
  "sort": 0,
  "flags": {},
  "system": {
    "description": {
      "value": "<p>The vigilante gains @Compendium[pf1.feats.ugQyUpqPBDsqLyra]{Spring Attack} as a bonus feat, ignoring its prerequisites. At 10th level and every 4 levels thereafter, the vigilante can designate one additional creature when he uses Spring Attack. The  vigilante’s movement this round does not provoke attacks of opportunity from any of these secondary creatures.</p>\n<p>A vigilante must be at least 6th level to select this talent.</p>"
    },
    "tags": [],
    "actions": [],
    "attackNotes": [],
    "effectNotes": [],
    "changes": [],
    "contextNotes": [],
    "links": {
      "children": [],
      "charges": []
    },
    "tag": "classFeat_fantasticStride",
    "useCustomTag": true,
    "armorProf": {
      "value": []
    },
    "weaponProf": {
      "value": []
    },
    "languages": {
      "value": []
    },
    "scriptCalls": [],
    "subType": "classFeat",
    "associations": {
      "classes": [["Vigilante"]]
    },
    "abilityType": "ex"
  }
}
