{
  "_id": "hLrCEEh06Nsfrhe9",
  "name": "Feather Subdomain",
  "type": "feat",
  "img": "systems/pf1/icons/feats/wind-stance.jpg",
  "sort": 0,
  "flags": {},
  "system": {
    "description": {
      "value": "<p><strong>Replacement Power:</strong> Add Fly to your list of class skills. In addition, whenever you cast a spell that grants you a fly speed, your maneuverability increases by one step (up to perfect).</p>\n<p><strong>Replacement Domain Spells:</strong></p>\n<ul>\n<li>2nd—@Compendium[pf1.spells.68m9du7zw2di7ew6]{Feather Fall}</li>\n<li>3rd—@Compendium[pf1.spells.7d6sv5ecvi7kho3m]{Fly}</li>\n<li>6th—@Compendium[pf1.spells.m6nj8x0gd1cugw6g]{Fly, Mass}</li>\n</ul>"
    },
    "tags": [],
    "actions": [],
    "attackNotes": [],
    "effectNotes": [],
    "changes": [],
    "contextNotes": [],
    "links": {
      "children": [],
      "charges": []
    },
    "tag": "classFeat_featherSubdomain",
    "useCustomTag": true,
    "armorProf": {
      "value": []
    },
    "weaponProf": {
      "value": []
    },
    "languages": {
      "value": []
    },
    "scriptCalls": [],
    "subType": "classFeat",
    "associations": {
      "classes": [["Cleric"]]
    }
  }
}
