{
  "_id": "9BDWdJXWFAMSLkgX",
  "name": "Ferocious Mount, Greater",
  "type": "feat",
  "img": "systems/pf1/icons/feats/deafening-critical.jpg",
  "sort": 0,
  "flags": {},
  "system": {
    "description": {
      "value": "<p>While raging and mounted, the barbarian’s mount gains the benefits of any rage powers that are constant in effect when the barbarian is raging. It does not gain the benefit of any rage powers that require actions to activate, even if they are free actions.</p>\n<p>A barbarian must have the ferocious mount rage power to select this rage power.</p>\n<p>A barbarian must be at least 8th level to select this rage power.</p>"
    },
    "tags": [],
    "actions": [],
    "attackNotes": [],
    "effectNotes": [],
    "changes": [],
    "contextNotes": [],
    "links": {
      "children": [],
      "charges": []
    },
    "tag": "classFeat_ferociousMountGreater",
    "useCustomTag": true,
    "armorProf": {
      "value": []
    },
    "weaponProf": {
      "value": []
    },
    "languages": {
      "value": []
    },
    "scriptCalls": [],
    "subType": "classFeat",
    "associations": {
      "classes": [["Barbarian"], ["Skald"]]
    },
    "abilityType": "ex"
  }
}
