{
  "_id": "QPraKiK8WmomsX4Z",
  "name": "Fey Magic",
  "type": "feat",
  "img": "systems/pf1/icons/feats/wind-stance.jpg",
  "sort": 0,
  "flags": {},
  "system": {
    "description": {
      "value": "<p>At 15th level, you may reroll any caster level check made to overcome spell resistance. You must decide to use this ability before the results are revealed by the GM. You must take the second result, even if it is worse. You can use this ability at will.</p>"
    },
    "tags": [],
    "actions": [],
    "attackNotes": [],
    "effectNotes": [],
    "changes": [],
    "contextNotes": [],
    "links": {
      "children": [],
      "charges": []
    },
    "tag": "classFeat_feyMagic",
    "useCustomTag": true,
    "armorProf": {
      "value": []
    },
    "weaponProf": {
      "value": []
    },
    "languages": {
      "value": []
    },
    "scriptCalls": [],
    "subType": "classFeat",
    "associations": {
      "classes": [["Sorcerer"]]
    },
    "abilityType": "su"
  }
}
