{
  "_id": "VZ2jTGlF8JwmvJfz",
  "name": "Fey Bloodline",
  "type": "feat",
  "img": "systems/pf1/icons/races/creature-types/fey.png",
  "sort": 0,
  "flags": {},
  "system": {
    "description": {
      "value": "<p><em>The capricious nature of the fey runs in your family due to some intermingling of fey blood or magic. You are more emotional than most, prone to bouts of joy and rage.</em></p>\n<p><strong>Class Skill:</strong> <em>Knowledge</em> (nature).</p>\n<p><strong>Bonus Spells:</strong></p>\n<ul>\n<li>@Compendium[pf1.spells.2nn2tshkn4p7k25l]{Entangle} (3rd),</li>\n<li>@Compendium[pf1.spells.5nr9o7o0it6ewf17]{Hideous Laughter} (5th),</li>\n<li>@Compendium[pf1.spells.qgmlu83z2l84kjde]{Deep Slumber} (7th),</li>\n<li>@Compendium[pf1.spells.vdh0yuzpjwhky6kr]{Poison} (9th),</li>\n<li>@Compendium[pf1.spells.6x6epf4g5wgzl1gh]{Tree Stride} (11th),</li>\n<li>@Compendium[pf1.spells.446vcsetq4ny904e]{Mislead} (13th),</li>\n<li>@Compendium[pf1.spells.nq4txj4d0dtzscu2]{Phase Door} (15th),</li>\n<li>@Compendium[pf1.spells.oq3mqv5vovjkoa2p]{Irresistible Dance} (17th),</li>\n<li>@Compendium[pf1.spells.n3lp01euzcdmtbw5]{Shapechange} (19th).</li>\n</ul>\n<p><strong>Bonus Feats:</strong></p>\n<ul>\n<li>@Compendium[pf1.feats.JreaiTHdyWFNj3Tb]{Dodge},</li>\n<li>@Compendium[pf1.feats.Uuiu3p982omhMEPj]{Improved Initiative},</li>\n<li>@Compendium[pf1.feats.0bZf3SDkvVOe2ujH]{Lightning Reflexes},</li>\n<li>@Compendium[pf1.feats.R7L4SlGRlnThqFrP]{Mobility},</li>\n<li>@Compendium[pf1.feats.8rsFtye3PwM6CKli]{Point-Blank Shot},</li>\n<li>@Compendium[pf1.feats.53urYIbYYpQuoSLd]{Precise Shot},</li>\n<li>@Compendium[pf1.feats.wFoLrh5FeeqBXsQ8]{Quicken Spell},</li>\n<li>@Compendium[pf1.feats.7zJTztNW7hdaqjKc]{Skill Focus} (<em>Knowledge</em> [nature]).</li>\n</ul>\n<p><strong>Bloodline Arcana:</strong> Whenever you cast a spell of the <em>compulsion</em> subschool, increase the spell’s DC by +2.</p>"
    },
    "tags": [],
    "actions": [],
    "attackNotes": [],
    "effectNotes": [],
    "changes": [],
    "contextNotes": [],
    "links": {
      "children": [],
      "charges": []
    },
    "tag": "classFeat_feyBloodline",
    "useCustomTag": true,
    "armorProf": {
      "value": []
    },
    "weaponProf": {
      "value": []
    },
    "languages": {
      "value": []
    },
    "scriptCalls": [],
    "subType": "classFeat",
    "associations": {
      "classes": [["Sorcerer"]]
    }
  }
}
