{
  "_id": "6jBC9DpHp5sPGyCM",
  "name": "Fire Totem",
  "type": "feat",
  "img": "systems/pf1/icons/feats/deafening-critical.jpg",
  "sort": 0,
  "flags": {},
  "system": {
    "description": {
      "value": "<p>While the barbarian is raging, any opponent that confirms a critical hit against her with a piercing or slashing melee weapon is sprayed with liquid fire. (Creatures with reach weapons are immune.) The attacker takes 1d6 points of fire damage per barbarian level (Reflex halves; DC 10 + 1/2 the barbarian’s level + the barbarian’s Con modifier).</p>"
    },
    "tags": [],
    "actions": [],
    "attackNotes": [],
    "effectNotes": [],
    "changes": [],
    "contextNotes": [],
    "links": {
      "children": [],
      "charges": []
    },
    "tag": "classFeat_fireTotem",
    "useCustomTag": true,
    "armorProf": {
      "value": []
    },
    "weaponProf": {
      "value": []
    },
    "languages": {
      "value": []
    },
    "scriptCalls": [],
    "subType": "classFeat",
    "associations": {
      "classes": [["Barbarian"], ["Skald"]]
    },
    "abilityType": "su"
  }
}
