{
  "_id": "eSBAqJV9AZLiWdux",
  "name": "Force Barrier",
  "type": "feat",
  "img": "systems/pf1/icons/spells/link-blue-2.jpg",
  "sort": 0,
  "flags": {},
  "system": {
    "description": {
      "value": "<p><strong>Element </strong>aether; <strong>Type </strong>utility (Sp); <strong>Level </strong>5; <strong>Burn </strong>0<br><strong>Prerequisite </strong>force ward</p>\n<p>You create an immobile sphere or hemisphere of force around your square or squares. The force barrier functions as a wall of force in all other ways. Activating this ability is a standard action, and the barrier lasts until the beginning of your next turn.</p>\n<p>Each round, just before the barrier would disappear, you can extend its duration by accepting 1 point of burn. If an attack manages to destroy the force barrier, you immediately take 1 point of burn.</p>"
    },
    "tags": [],
    "actions": [],
    "attackNotes": [],
    "effectNotes": [],
    "changes": [],
    "contextNotes": [],
    "links": {
      "children": [],
      "charges": []
    },
    "tag": "classFeat_forceBarrier",
    "useCustomTag": true,
    "armorProf": {
      "value": []
    },
    "weaponProf": {
      "value": []
    },
    "languages": {
      "value": []
    },
    "scriptCalls": [],
    "subType": "classFeat",
    "associations": {
      "classes": [["Kineticist"]]
    },
    "abilityType": "sp"
  }
}
