{
  "_id": "IdmbX3dusso7BYbO",
  "name": "Fortification Subdomain",
  "type": "feat",
  "img": "systems/pf1/icons/skills/arrow_17.jpg",
  "sort": 0,
  "flags": {},
  "system": {
    "description": {
      "value": "<p><strong>Replacement Domain Spells:</strong></p>\n<ul>\n<li>1st—@Compendium[pf1.spells.78kwl5t99j9e8tzh]{Hold Person}</li>\n<li>5th—@Compendium[pf1.spells.l83djt5019ujasjh]{Wall Of Stone}</li>\n<li>9th—@Compendium[pf1.spells.ijwcwnt3oatnfghq]{Prismatic Wall}</li>\n</ul>"
    },
    "tags": [],
    "actions": [],
    "attackNotes": [],
    "effectNotes": [],
    "changes": [],
    "contextNotes": [],
    "links": {
      "children": [],
      "charges": []
    },
    "tag": "classFeat_fortificationSubdomain",
    "useCustomTag": true,
    "armorProf": {
      "value": []
    },
    "weaponProf": {
      "value": []
    },
    "languages": {
      "value": []
    },
    "scriptCalls": [],
    "subType": "classFeat",
    "associations": {
      "classes": [["Cleric"]]
    }
  }
}
