{
  "_id": "mXUeqlfwOjesUK0a",
  "name": "Fury of the Fey",
  "type": "feat",
  "img": "systems/pf1/icons/skills/red_05.jpg",
  "sort": 0,
  "flags": {},
  "system": {
    "description": {
      "value": "<p>At 20th level, when entering a bloodrage you can choose one type of creature (and subtype for humanoids or outsiders) that can be affected by the <a href=\"https://www.aonprd.com/MagicWeaponsDisplay.aspx?ItemName=Bane\">bane</a> weapon special ability. All of your melee attacks are considered to have <a href=\"https://www.aonprd.com/MagicWeaponsDisplay.aspx?ItemName=Bane\">bane</a> against that type. This ability doesn’t stack with other forms of <a href=\"https://www.aonprd.com/MagicWeaponsDisplay.aspx?ItemName=Bane\">bane</a>.</p>"
    },
    "tags": [],
    "actions": [],
    "attackNotes": [],
    "effectNotes": [],
    "changes": [],
    "contextNotes": [],
    "links": {
      "children": [],
      "charges": []
    },
    "tag": "classFeat_furyOfTheFey",
    "useCustomTag": true,
    "armorProf": {
      "value": []
    },
    "weaponProf": {
      "value": []
    },
    "languages": {
      "value": []
    },
    "scriptCalls": [],
    "subType": "classFeat",
    "associations": {
      "classes": [["Bloodrager"]]
    },
    "abilityType": "su"
  }
}
