{
  "_id": "0ZhgjIOVQDiP7dIi",
  "name": "Gravity Master",
  "type": "feat",
  "img": "systems/pf1/icons/spells/rip-sky-1.jpg",
  "sort": 0,
  "flags": {},
  "system": {
    "description": {
      "value": "<p><strong>Element </strong>void; <strong>Type </strong>utility (Sp); <strong>Level </strong>9; <strong>Burn </strong>0<br><strong>Prerequisite </strong>gravity control, greater gravity control</p>\n<p>You can create areas of altered gravity. This functions as @Compendium[pf1.spells.3bdfw5f15hwcxlth]{Reverse Gravity}, but you can choose for the gravity in the area to pull toward any direction (not just up).</p>\n<p>If you use this wild talent, any previous use of this wild talent expires immediately.</p>"
    },
    "tags": [],
    "actions": [],
    "attackNotes": [],
    "effectNotes": [],
    "changes": [],
    "contextNotes": [],
    "links": {
      "children": [],
      "charges": []
    },
    "tag": "classFeat_gravityMaster",
    "useCustomTag": true,
    "armorProf": {
      "value": []
    },
    "weaponProf": {
      "value": []
    },
    "languages": {
      "value": []
    },
    "scriptCalls": [],
    "subType": "classFeat",
    "associations": {
      "classes": [["Kineticist"]]
    },
    "abilityType": "sp"
  }
}
