{
  "_id": "5fTHyPmis1IyBmNF",
  "name": "Greater Aspect (UC)",
  "type": "feat",
  "img": "systems/pf1/icons/skills/blue_34.jpg",
  "system": {
    "description": {
      "value": "<p>At 18th level, a summoner can divert more of his eidolon's evolutions to himself. This ability functions as the @Compendium[pf1.class-abilities.Zy94TROPC7Es6yA7]{aspect} ability, but the maximum number of evolution points the summoner can divert increases to 6. In addition, the eidolon loses 1 point from its evolution pool for every 2 points (or fraction thereof) diverted to the summoner instead of losing 1 point from the evolution pool for each point diverted.</p>"
    },
    "actions": [
      {
        "_id": "kn491z2n59tpa0h2",
        "name": "Use",
        "img": "systems/pf1/icons/skills/blue_34.jpg",
        "description": "",
        "activation": {
          "cost": 1,
          "type": "passive"
        },
        "unchainedAction": {
          "activation": {
            "cost": 1,
            "type": "passive"
          }
        }
      }
    ],
    "tag": "classFeat_greaterAspectUc",
    "useCustomTag": true,
    "featType": "classFeat",
    "associations": {
      "classes": [["Summoner (Unchained)"]]
    },
    "abilityType": "su"
  }
}
