{
  "_id": "Q6nL5pL41d7LzJWr",
  "name": "Hidden Master",
  "type": "feat",
  "img": "systems/pf1/icons/feats/stealthy.jpg",
  "sort": 0,
  "flags": {},
  "system": {
    "description": {
      "value": "<p>At 20th level, a ninja becomes a true master of her art. She can, as a standard action, cast greater invisibility on herself. While invisible in this way, she cannot be detected by any means, and not even invisibility purge, see invisibility, and true seeing can reveal her. She uses her ninja level as her caster level for this ability. Using this ability consumes 3 ki points from her ki pool. In addition, whenever the ninja deals sneak attack damage, she can sacrifice additional damage dice to apply a penalty to one ability score of the target equal to the number of dice sacrificed for 1 minute. This penalty does not stack with itself and cannot reduce an ability score below 1.</p>"
    },
    "tags": [],
    "actions": [],
    "attackNotes": [],
    "effectNotes": [],
    "changes": [],
    "contextNotes": [],
    "links": {
      "children": [],
      "charges": []
    },
    "tag": "classFeat_hiddenMaster",
    "useCustomTag": true,
    "armorProf": {
      "value": []
    },
    "weaponProf": {
      "value": []
    },
    "languages": {
      "value": []
    },
    "scriptCalls": [],
    "subType": "classFeat",
    "associations": {
      "classes": [["Ninja"]]
    },
    "abilityType": "su"
  }
}
