{
  "_id": "o2FEeU5XJlukKeTh",
  "name": "Hurricane Queen",
  "type": "feat",
  "img": "systems/pf1/icons/spells/wind-sky-3.jpg",
  "sort": 0,
  "flags": {},
  "system": {
    "description": {
      "value": "<p><strong>Element </strong>air; <strong>Type </strong>utility (Su); <strong>Level </strong>9; <strong>Burn </strong>—</p>\n<p>You are one with the hurricane. Your enveloping winds defense wild talent has an additional 25% chance of deflecting nonmagical ranged attacks, and your total deflection chance can exceed the usual cap of 75%.</p>\n<p>All wind and weather (including creatures using the whirlwind monster ability) affect you and your attacks only if you wish them to do so; for example, you could shoot arrows directly through a tornado without penalty.</p>"
    },
    "tags": [],
    "actions": [],
    "attackNotes": [],
    "effectNotes": [],
    "changes": [],
    "contextNotes": [],
    "links": {
      "children": [],
      "charges": []
    },
    "tag": "classFeat_hurricaneQueen",
    "useCustomTag": true,
    "armorProf": {
      "value": []
    },
    "weaponProf": {
      "value": []
    },
    "languages": {
      "value": []
    },
    "scriptCalls": [],
    "subType": "classFeat",
    "associations": {
      "classes": [["Kineticist"]]
    },
    "abilityType": "su"
  }
}
