{
  "_id": "4bOrPB5xUT5p1zxR",
  "name": "Improved Invocation",
  "type": "feat",
  "img": "systems/pf1/icons/skills/affliction_24.jpg",
  "sort": 0,
  "flags": {},
  "system": {
    "description": {
      "value": "<p>At 11th level, when using her invocation class ability, the omdura chooses two invocations to grant her allies. In addition, the omdura also benefits from any one invocation she calls, but she receives only half the invocation’s granted bonus.</p>"
    },
    "tags": [],
    "actions": [],
    "attackNotes": [],
    "effectNotes": [],
    "changes": [],
    "contextNotes": [],
    "links": {
      "children": [],
      "charges": []
    },
    "tag": "classFeat_improvedInvocation",
    "useCustomTag": true,
    "armorProf": {
      "value": []
    },
    "weaponProf": {
      "value": []
    },
    "languages": {
      "value": []
    },
    "scriptCalls": [],
    "subType": "classFeat",
    "associations": {
      "classes": [["Omdura"]]
    },
    "abilityType": "ex"
  }
}
