{
  "_id": "pd68JTFcmme43HBe",
  "name": "In Vogue",
  "type": "feat",
  "img": "systems/pf1/icons/skills/light_07.jpg",
  "sort": 0,
  "flags": {},
  "system": {
    "description": {
      "value": "<p>The vigilante’s crafting or professional business is always at the height of the local trends, allowing the vigilante to gain more profits than usual. Goods he crafts with a Craft skill he chose with social grace are worth 1/3 more gp than normal due to his celebrity, without increasing the cost to create. Whenever he uses a Profession skill he chose with social grace to make money, he makes twice as much money.</p>\n<p>A vigilante must be at least 5th level and have both the double time and social grace social talents to take this talent.</p>"
    },
    "tags": [],
    "actions": [],
    "attackNotes": [],
    "effectNotes": [],
    "changes": [],
    "contextNotes": [],
    "links": {
      "children": [],
      "charges": []
    },
    "tag": "classFeat_inVogue",
    "useCustomTag": true,
    "armorProf": {
      "value": []
    },
    "weaponProf": {
      "value": []
    },
    "languages": {
      "value": []
    },
    "scriptCalls": [],
    "subType": "classFeat",
    "associations": {
      "classes": [["Vigilante"]]
    },
    "abilityType": "ex"
  }
}
