{
  "_id": "qNBuQx7zNisMw85q",
  "name": "Infernal Bloodrager Bloodline",
  "type": "feat",
  "img": "systems/pf1/icons/skills/red_13.jpg",
  "sort": 0,
  "flags": {},
  "system": {
    "description": {
      "value": "<p><em>The Pit lives in your blood. Maybe one of your ancestors was seduced by the powers of Hell or made a deal with a devil. Either way, its corruption seethes within your lineage.</em><p>Bonus Feats:</p>\n<ul>\n<li>@Compendium[pf1.feats.pmAO1Sni8xx71pLF]{Blind-Fight}</li>\n<li>@Compendium[pf1.feats.h9nHYLxXvIXBTmup]{Combat Reflexes}</li>\n<li>@Compendium[pf1.feats.SUACufUXl12sUvnQ]{Deceitful}</li>\n<li>@Compendium[pf1.feats.711B9WNFgpdDKKf2]{Improved Disarm}</li>\n<li>@Compendium[pf1.feats.lpXdFoT6OqS5vi2X]{Improved Sunder}</li>\n<li>@Compendium[pf1.feats.O0jbkTJcIji9BNiF]{Intimidating Prowess}</li>\n<li>@Compendium[pf1.feats.iAbIGhm7T2OK9Brt]{Iron Will}</li>\n</ul>\n<p>Bonus Spells:</p>\n<ul>\n<li>@Compendium[pf1.spells.71g6nmvy8qnodwyz]{Protection From Good} (7th), </li>\n<li>@Compendium[pf1.spells.q4ixxjb4v281g2xv]{Scorching Ray} (10th),</li>\n<li>@Compendium[pf1.spells.zqj5qzyl46af27v0]{Suggestion} (13th), </li>\n<li>@Compendium[pf1.spells.nfm6i9z9r3n2fku7]{Fire Shield} (16th)</li>\n</ul>"
    },
    "tags": [],
    "actions": [],
    "attackNotes": [],
    "effectNotes": [],
    "changes": [],
    "contextNotes": [],
    "links": {
      "children": [],
      "charges": []
    },
    "tag": "classFeat_infernalBloodragerBloodline",
    "useCustomTag": true,
    "armorProf": {
      "value": []
    },
    "weaponProf": {
      "value": []
    },
    "languages": {
      "value": []
    },
    "scriptCalls": [],
    "subType": "classFeat",
    "associations": {
      "classes": [["Bloodrager"]]
    }
  }
}
