{
  "_id": "j2yoICVKvqTehQ66",
  "name": "Inspire Devotion",
  "type": "feat",
  "img": "systems/pf1/icons/items/inventory/badge-cross.jpg",
  "sort": 0,
  "flags": {},
  "system": {
    "description": {
      "value": "<p>By spending at least 1 hour engaged in acts of physical pleasure with a willing partner, you can attempt a Diplomacy check to improve that partner’s attitude or increase your influence with that partner (or reduce a rival’s influence with that partner) with no maximum on the number of steps by which you can change that partner’s attitude or disposition.</p>"
    },
    "tags": [],
    "actions": [],
    "attackNotes": [],
    "effectNotes": [],
    "changes": [],
    "contextNotes": [],
    "links": {
      "children": [],
      "charges": []
    },
    "tag": "classFeat_inspireDevotion",
    "useCustomTag": true,
    "armorProf": {
      "value": []
    },
    "weaponProf": {
      "value": []
    },
    "languages": {
      "value": []
    },
    "scriptCalls": [],
    "subType": "classFeat",
    "associations": {
      "classes": [["Inquisitor"]]
    },
    "abilityType": "ex"
  }
}
