{
  "_id": "Lb3YISPq7wexIalZ",
  "name": "Language Subdomain",
  "type": "feat",
  "img": "systems/pf1/icons/items/inventory/letters-sealed.jpg",
  "sort": 0,
  "flags": {},
  "system": {
    "description": {
      "value": "<p><strong>Replacement Domain Spells:</strong></p>\n<ul>\n<li>1st—@Compendium[pf1.spells.jcs7ba5depdyitey]{Comprehend Languages}</li>\n<li>2nd—@Compendium[pf1.spells.etskn140auk6cjj2]{Share Language}</li>\n<li>3rd—@Compendium[pf1.spells.m1rmcpcaixcpz9ib]{Tongues}</li>\n<li>5th—@Compendium[pf1.spells.zuqlok69lapqc6lg]{Telepathic Bond}</li>\n</ul>"
    },
    "tags": [],
    "actions": [],
    "attackNotes": [],
    "effectNotes": [],
    "changes": [],
    "contextNotes": [],
    "links": {
      "children": [],
      "charges": []
    },
    "tag": "classFeat_languageSubdomain",
    "useCustomTag": true,
    "armorProf": {
      "value": []
    },
    "weaponProf": {
      "value": []
    },
    "languages": {
      "value": []
    },
    "scriptCalls": [],
    "subType": "classFeat",
    "associations": {
      "classes": [["Cleric"]]
    }
  }
}
