{
  "_id": "dP0REh2mF6Hw4WW7",
  "name": "Ledge Walker",
  "type": "feat",
  "img": "systems/pf1/icons/items/weapons/dagger.PNG",
  "sort": 0,
  "flags": {},
  "system": {
    "description": {
      "value": "<p>This ability allows a rogue to move along narrow surfaces at full speed using the Acrobatics skill without penalty. In addition, a rogue with this talent is not flat-footed when using Acrobatics to move along narrow surfaces.</p>"
    },
    "tags": [],
    "actions": [],
    "attackNotes": [],
    "effectNotes": [],
    "changes": [],
    "contextNotes": [],
    "links": {
      "children": [],
      "charges": []
    },
    "tag": "classFeat_ledgeWalker",
    "useCustomTag": true,
    "armorProf": {
      "value": []
    },
    "weaponProf": {
      "value": []
    },
    "languages": {
      "value": []
    },
    "scriptCalls": [],
    "subType": "classFeat",
    "associations": {
      "classes": [["Rogue"]]
    },
    "abilityType": "ex"
  }
}
