{
  "_id": "A35UaFJLexqzgXKR",
  "name": "Legendary Archmage",
  "type": "feat",
  "img": "systems/pf1/icons/spells/runes-magenta-3.jpg",
  "sort": 0,
  "flags": {},
  "system": {
    "description": {
      "value": "<p>Once per day, you can cast any spell on the sorcerer/wizard spell list as if using the wild arcana ability, except the archmage doesn’t gain 1 point of influence over you, the spell doesn’t require a spell slot, and you can select a spell of any level.</p>"
    },
    "tags": [],
    "actions": [],
    "attackNotes": [],
    "effectNotes": [],
    "changes": [],
    "contextNotes": [],
    "links": {
      "children": [],
      "charges": []
    },
    "tag": "classFeat_legendaryArchmage",
    "useCustomTag": true,
    "armorProf": {
      "value": []
    },
    "weaponProf": {
      "value": []
    },
    "languages": {
      "value": []
    },
    "scriptCalls": [],
    "subType": "classFeat",
    "associations": {
      "classes": [["Medium"]]
    },
    "abilityType": "su"
  }
}
