{
  "_id": "hN7nfIgDvGMd2MZf",
  "name": "Life Subschool",
  "type": "feat",
  "img": "systems/pf1/icons/skills/emerald_05.jpg",
  "sort": 0,
  "flags": {},
  "system": {
    "description": {
      "value": "<p><strong>Associated School:</strong> <em>Necromancy</em>.</p>\n<p><strong>Replacement Powers:</strong> This subschool replaces the power over <em>undead</em> and grave touch powers of the <em>necromancy</em> school.</p>"
    },
    "tags": [],
    "actions": [],
    "attackNotes": [],
    "effectNotes": [],
    "changes": [],
    "contextNotes": [],
    "links": {
      "children": [],
      "charges": []
    },
    "tag": "classFeat_lifeSubschool",
    "useCustomTag": true,
    "armorProf": {
      "value": []
    },
    "weaponProf": {
      "value": []
    },
    "languages": {
      "value": []
    },
    "scriptCalls": [],
    "subType": "classFeat",
    "associations": {
      "classes": [["Wizard"]]
    }
  }
}
