{
  "_id": "M18QnM8Xd0mUvSuR",
  "name": "Lust Subdomain",
  "type": "feat",
  "img": "systems/pf1/icons/skills/shadow_20.jpg",
  "sort": 0,
  "flags": {},
  "system": {
    "description": {
      "value": "<p><strong>Replacement Domain Spells:</strong></p>\n<ul>\n<li>2nd—@Compendium[pf1.spells.648x72rflah0ggyz]{Touch of Idiocy}</li>\n<li>4th—@Compendium[pf1.spells.n0bsyxchnigkkuqo]{Confusion}</li>\n</ul>"
    },
    "tags": [],
    "actions": [],
    "attackNotes": [],
    "effectNotes": [],
    "changes": [],
    "contextNotes": [],
    "links": {
      "children": [],
      "charges": []
    },
    "tag": "classFeat_lustSubdomain",
    "useCustomTag": true,
    "armorProf": {
      "value": []
    },
    "weaponProf": {
      "value": []
    },
    "languages": {
      "value": []
    },
    "scriptCalls": [],
    "subType": "classFeat",
    "associations": {
      "classes": [["Cleric"]]
    }
  }
}
