{
  "_id": "LS4i0151JSVw6zzE",
  "name": "Magnetism, Greater",
  "type": "feat",
  "img": "systems/pf1/icons/spells/wind-sky-3.jpg",
  "sort": 0,
  "flags": {},
  "system": {
    "description": {
      "value": "<p><strong>Element </strong>air, earth; <strong>Type </strong>utility (Sp); <strong>Level </strong>9; <strong>Burn </strong>0<br><strong>Prerequisite </strong>magnetic infusion, magnetism<br><strong>Saving Throw </strong>none; <strong>SR </strong>no</p>\n<p>You can repel or attract metal objects in a vast line with a magnetism so strong that there is no hope of escaping. This functions as @Compendium[pf1.spells.oeemcnfjod9zd7my]{Repel Metal or Stone}, except only for metal objects, and you can also pull the objects toward you instead of pushing them away. The effect lasts for 1 round, and the pulling version of the effect can’t pull objects into the air unless they are already airborne.</p>\n<p>You can accept 1 point of burn to increase the duration to 1 round per kineticist level you have.</p>"
    },
    "tags": [],
    "actions": [],
    "attackNotes": [],
    "effectNotes": [],
    "changes": [],
    "contextNotes": [],
    "links": {
      "children": [],
      "charges": []
    },
    "tag": "classFeat_magnetismGreater",
    "useCustomTag": true,
    "armorProf": {
      "value": []
    },
    "weaponProf": {
      "value": []
    },
    "languages": {
      "value": []
    },
    "scriptCalls": [],
    "subType": "classFeat",
    "associations": {
      "classes": [["Kineticist"]]
    },
    "abilityType": "sp"
  }
}
