{
  "_id": "GAHaeOGTBeR6LJ3K",
  "name": "Master Hunter",
  "type": "feat",
  "img": "systems/pf1/icons/skills/arrow_06.jpg",
  "sort": 0,
  "flags": {},
  "system": {
    "description": {
      "value": "<p>A ranger of 20th level becomes a master hunter. He can always move at full speed while using <em>Survival</em> to follow tracks without penalty. He can, as a <em>standard action</em>, make a single attack against a <em>favored enemy</em> at his full <em>attack bonus</em>. If the attack hits, the target takes damage normally and must make a <em>Fortitude</em> save or die. The DC of this save is equal to 10 + 1/2 the ranger’s level + the ranger’s <em>Wisdom</em> modifier. A ranger can choose instead to deal an amount of <em>nonlethal damage</em> equal to the creature’s current <em>hit points</em>. A successful save negates this damage. A ranger can use this ability once per day against each <em>favored enemy</em> type he possesses, but not against the same creature more than once in a 24-hour period.</p>"
    },
    "tags": [],
    "actions": [
      {
        "_id": "pdg9vyrhnc9hyh6e",
        "name": "Use",
        "img": "systems/pf1/icons/skills/arrow_06.jpg",
        "description": "",
        "tag": "",
        "activation": {
          "cost": 1,
          "type": "passive"
        },
        "unchainedAction": {
          "activation": {
            "cost": 1,
            "type": "passive"
          }
        },
        "duration": {
          "value": null,
          "units": ""
        },
        "target": {
          "value": ""
        },
        "range": {
          "value": null,
          "units": "",
          "maxIncrements": 1,
          "minValue": null,
          "minUnits": ""
        },
        "uses": {
          "autoDeductChargesCost": "",
          "self": {
            "value": 0,
            "maxFormula": "",
            "per": null
          },
          "per": "",
          "value": 0,
          "maxFormula": ""
        },
        "measureTemplate": {
          "type": "",
          "size": "0",
          "overrideColor": false,
          "customColor": "",
          "overrideTexture": false,
          "customTexture": ""
        },
        "attackName": "",
        "actionType": "",
        "attackBonus": "",
        "critConfirmBonus": "",
        "damage": {
          "parts": [],
          "critParts": [],
          "nonCritParts": []
        },
        "attackParts": [],
        "formulaicAttacks": {
          "count": {
            "formula": ""
          },
          "bonus": {
            "formula": ""
          },
          "label": null
        },
        "formula": "",
        "ability": {
          "attack": null,
          "damage": null,
          "damageMult": 1,
          "critRange": 20,
          "critMult": 2
        },
        "save": {
          "dc": 0,
          "type": "",
          "description": ""
        },
        "effectNotes": [],
        "attackNotes": [],
        "soundEffect": "",
        "powerAttack": {
          "multiplier": "",
          "damageBonus": 2,
          "critMultiplier": 1
        },
        "naturalAttack": {
          "primaryAttack": true,
          "secondary": {
            "attackBonus": "-5",
            "damageMult": 0.5
          }
        },
        "nonlethal": false,
        "usesAmmo": false,
        "spellEffect": "",
        "spellArea": "",
        "conditionals": [],
        "enh": {
          "value": null
        }
      }
    ],
    "uses": {
      "per": ""
    },
    "attackNotes": [],
    "effectNotes": [],
    "changes": [],
    "contextNotes": [],
    "links": {
      "children": [],
      "charges": []
    },
    "tag": "classFeat_masterHunter",
    "useCustomTag": true,
    "armorProf": {
      "value": []
    },
    "weaponProf": {
      "value": []
    },
    "languages": {
      "value": []
    },
    "scriptCalls": [],
    "subType": "classFeat",
    "associations": {
      "classes": [["Ranger"]]
    },
    "abilityType": "ex"
  }
}
