{
  "_id": "mZ4ZtYBkLpRWrQYY",
  "name": "Master Tricks (NIN)",
  "type": "feat",
  "img": "systems/pf1/icons/items/weapons/shuriken.png",
  "sort": 0,
  "flags": {},
  "system": {
    "description": {
      "value": "<p>At 10th level, and every two levels thereafter, a ninja can select one of the following master tricks in place of a ninja trick.</p>"
    },
    "tags": [],
    "actions": [],
    "attackNotes": [],
    "effectNotes": [],
    "changes": [],
    "contextNotes": [],
    "links": {
      "children": [],
      "charges": []
    },
    "tag": "classFeat_masterTricksNin",
    "useCustomTag": true,
    "armorProf": {
      "value": []
    },
    "weaponProf": {
      "value": []
    },
    "languages": {
      "value": []
    },
    "scriptCalls": [],
    "subType": "classFeat",
    "associations": {
      "classes": [["Ninja"]]
    },
    "abilityType": "none"
  }
}
