{
  "_id": "NoJMNxuXDTHzPMcm",
  "name": "Mighty Bloodrage",
  "type": "feat",
  "img": "systems/pf1/icons/skills/red_17.jpg",
  "sort": 0,
  "flags": {},
  "system": {
    "description": {
      "value": "<p>At 20th level, when a bloodrager enters a bloodrage, the morale bonus to his Strength and Constitution increases to +8, and the morale bonus on his Will saves increases to +4. Furthermore, the spell he can apply to himself at the beginning of a bloodrage due to the greater bloodrage class feature is not limited to only spells of 2nd level or lower.</p>"
    },
    "tags": [],
    "actions": [],
    "attackNotes": [],
    "effectNotes": [],
    "changes": [],
    "contextNotes": [],
    "links": {
      "children": [],
      "charges": []
    },
    "tag": "classFeat_mightyBloodrage",
    "useCustomTag": true,
    "armorProf": {
      "value": []
    },
    "weaponProf": {
      "value": []
    },
    "languages": {
      "value": []
    },
    "scriptCalls": [],
    "subType": "classFeat",
    "associations": {
      "classes": [["Bloodrager"]]
    },
    "abilityType": "su"
  }
}
