{
  "_id": "jNPECEcPwhId8jCB",
  "name": "Naga Bloodrager Bloodline",
  "type": "feat",
  "img": "systems/pf1/icons/skills/red_13.jpg",
  "sort": 0,
  "flags": {},
  "system": {
    "description": {
      "value": "<p><em>The blood of the powerful, serpentine aberrations known as nagas runs through your veins, fueling your bloodrage.</em><p><strong>Bonus Feats:</strong></p>\n<ul>\n<li>@Compendium[pf1.feats.Q1cY8r0Pvb66pMG0]{Alertness}</li>\n<li>@Compendium[pf1.feats.u7rGDZUL296QIuA0]{Combat Casting}</li>\n<li>@Compendium[pf1.feats.h9nHYLxXvIXBTmup]{Combat Reflexes}</li>\n<li>@Compendium[pf1.feats.JreaiTHdyWFNj3Tb]{Dodge}</li>\n<li>@Compendium[pf1.feats.0bZf3SDkvVOe2ujH]{Lightning Reflexes}</li>\n<li>@Compendium[pf1.feats.FUW5mIXHNBBIQ1Sq]{Power Attack}</li>\n<li>@Compendium[pf1.feats.f5FPqAYWlKj3zCIY]{Stealthy}</li>\n</ul>\n<p><strong>Bonus Spells: </strong></p>\n<ul>\n<li>@Compendium[pf1.spells.mczdgwo3xl8c6e26]{Ray Of Enfeeblement} (7th),</li>\n<li>@Compendium[pf1.spells.oylikodnyku2zewu]{Invisibility} (10th),</li>\n<li>@Compendium[pf1.spells.m84969gni5iu4bdt]{Lightning Bolt} (13th), </li>\n<li>@Compendium[pf1.spells.vdh0yuzpjwhky6kr]{Poison} (16th)</li>\n</ul>"
    },
    "tags": [],
    "actions": [],
    "attackNotes": [],
    "effectNotes": [],
    "changes": [],
    "contextNotes": [],
    "links": {
      "children": [],
      "charges": []
    },
    "tag": "classFeat_nagaBloodragerBloodline",
    "useCustomTag": true,
    "armorProf": {
      "value": []
    },
    "weaponProf": {
      "value": []
    },
    "languages": {
      "value": []
    },
    "scriptCalls": [],
    "subType": "classFeat",
    "associations": {
      "classes": [["Bloodrager"]]
    }
  }
}
