{
  "_id": "mkvDids7p7c5v4xk",
  "name": "Necromantic Servant",
  "type": "feat",
  "img": "systems/pf1/icons/skills/affliction_08.jpg",
  "sort": 0,
  "flags": {},
  "system": {
    "description": {
      "value": "<p>As a standard action, you can expend 1 point of mental focus to raise a single human skeleton (Pathfinder RPG Bestiary 250) or human zombie (Bestiary 288) from the ground to serve you for 10 minutes per occultist level you possess or until it is destroyed, whichever comes first. This servant has a number of hit points equal to 1/2 your maximum hit point total (not adjusted for temporary hit points or other temporary increases). It also uses your base attack bonus and gains a bonus on damage rolls equal to 1/2 your occultist level.</p>\n<p>At 5th level, whenever the necromantic servant would be destroyed, if you are within medium range (100 feet + 10 feet per level) of the servant, you can expend 1 point of mental focus as an immediate action to cause the servant to return to full hit points.</p>\n<p>At 9th level, you can choose to give the servant the bloody or burning simple template (if it’s a skeleton) or the fast simple template (if it’s a zombie).</p>\n<p>At 13th level, when you take an immediate action to restore your servant, it splits into two servants. You can have a maximum number of servants in existence equal to 1/2 your occultist level.</p>\n<p>At 17th level, the servant gains a teamwork feat of your choice.</p>"
    },
    "tags": [],
    "actions": [
      {
        "_id": "nahbcwe2ddlds3i9",
        "name": "Use",
        "img": "systems/pf1/icons/skills/affliction_08.jpg",
        "description": "",
        "tag": "",
        "activation": {
          "cost": 1,
          "type": "standard"
        },
        "unchainedAction": {
          "activation": {
            "cost": 2,
            "type": "action"
          }
        },
        "duration": {
          "value": "10 * @classes.occultist.level",
          "units": "minute"
        },
        "target": {
          "value": ""
        },
        "range": {
          "value": null,
          "units": "",
          "maxIncrements": 1,
          "minValue": null,
          "minUnits": ""
        },
        "uses": {
          "autoDeductChargesCost": "",
          "self": {
            "value": 0,
            "maxFormula": "",
            "per": null
          },
          "per": "",
          "value": 0,
          "maxFormula": ""
        },
        "measureTemplate": {
          "type": "",
          "size": "",
          "overrideColor": false,
          "customColor": "",
          "overrideTexture": false,
          "customTexture": ""
        },
        "attackName": "",
        "actionType": "",
        "attackBonus": "",
        "critConfirmBonus": "",
        "damage": {
          "parts": [],
          "critParts": [],
          "nonCritParts": []
        },
        "attackParts": [],
        "formulaicAttacks": {
          "count": {
            "formula": ""
          },
          "bonus": {
            "formula": ""
          },
          "label": null
        },
        "formula": "",
        "ability": {
          "attack": null,
          "damage": null,
          "damageMult": 1,
          "critRange": 20,
          "critMult": 2
        },
        "save": {
          "dc": 0,
          "type": "",
          "description": ""
        },
        "effectNotes": [],
        "attackNotes": [],
        "soundEffect": "",
        "powerAttack": {
          "multiplier": "",
          "damageBonus": 2,
          "critMultiplier": 1
        },
        "naturalAttack": {
          "primaryAttack": true,
          "secondary": {
            "attackBonus": "-5",
            "damageMult": 0.5
          }
        },
        "nonlethal": false,
        "usesAmmo": false,
        "spellEffect": "",
        "spellArea": "",
        "conditionals": [],
        "enh": {
          "value": null
        }
      }
    ],
    "uses": {
      "per": ""
    },
    "attackNotes": [],
    "effectNotes": [],
    "changes": [],
    "contextNotes": [],
    "links": {
      "children": [],
      "charges": []
    },
    "tag": "classFeat_necromanticServant",
    "useCustomTag": true,
    "armorProf": {
      "value": []
    },
    "weaponProf": {
      "value": []
    },
    "languages": {
      "value": []
    },
    "scriptCalls": [],
    "subType": "classFeat",
    "associations": {
      "classes": [["Occultist"]]
    },
    "abilityType": "sp"
  }
}
