{
  "_id": "MNpMzduTwovuKPQo",
  "name": "Necromancy Resonant School",
  "type": "feat",
  "img": "systems/pf1/icons/skills/affliction_08.jpg",
  "sort": 0,
  "flags": {},
  "system": {
    "description": {
      "value": "<p><em>Implements that draw power from necromancy can control undead and harm the living.</em><p><strong>Implements: </strong>Bone, coin, doll, drum, robe, skull.</p>"
    },
    "tags": [],
    "actions": [],
    "attackNotes": [],
    "effectNotes": [],
    "changes": [],
    "contextNotes": [],
    "links": {
      "children": [],
      "charges": []
    },
    "tag": "classFeat_necromancyResonantSchool",
    "useCustomTag": true,
    "armorProf": {
      "value": []
    },
    "weaponProf": {
      "value": []
    },
    "languages": {
      "value": []
    },
    "scriptCalls": [],
    "subType": "classFeat",
    "associations": {
      "classes": [["Occultist"]]
    }
  }
}
