{
  "_id": "Xv9qX5fEj8yIjsBY",
  "name": "No Breath",
  "type": "feat",
  "img": "systems/pf1/icons/spells/runes-blue-1.jpg",
  "sort": 0,
  "flags": {},
  "system": {
    "description": {
      "value": "<p><strong>Element </strong>void; <strong>Type </strong>utility (Su); <strong>Level </strong>2; <strong>Burn </strong>—<br><strong>Prerequisite </strong>emptiness</p>\n<p>You gain no breath, as per the universal monster ability, and you can survive in the vacuum of space.</p>"
    },
    "tags": [],
    "actions": [],
    "attackNotes": [],
    "effectNotes": [],
    "changes": [],
    "contextNotes": [],
    "links": {
      "children": [],
      "charges": []
    },
    "tag": "classFeat_noBreath",
    "useCustomTag": true,
    "armorProf": {
      "value": []
    },
    "weaponProf": {
      "value": []
    },
    "languages": {
      "value": []
    },
    "scriptCalls": [],
    "subType": "classFeat",
    "associations": {
      "classes": [["Kineticist"]]
    },
    "abilityType": "su"
  }
}
