{
  "_id": "YTtE4znGtflUxUEj",
  "name": "Occult Mystery",
  "type": "feat",
  "img": "systems/pf1/icons/spells/light-magenta-2.jpg",
  "sort": 0,
  "flags": {},
  "system": {
    "description": {
      "value": "<p><strong>Class Skills:</strong> An oracle with the occult mystery adds Bluff, Disguise, Knowledge (arcana), and Use Magic Device to her list of class skills.<p><strong>Bonus Spells:</strong></p>\n<ul>\n<li>@Compendium[pf1.spells.jhyb2ana8jrk2lut]{Unseen Servant} (2nd), </li>\n<li>@Compendium[pf1.spells.oplskt3tgws8ujv8]{Spectral Hand}(4th), </li>\n<li>@Compendium[pf1.spells.6kmkxepwgsbta6ui]{Clairaudience/Clairvoyance} (6th), </li>\n<li>@Compendium[pf1.spells.g66w32kdup1f43bp]{Scrying} (8th), </li>\n<li>@Compendium[pf1.spells.68ngvzmzvadhf6vs]{Contact Other Plane} (10th), </li>\n<li>@Compendium[pf1.spells.0w3hvcp3gb2bhtv5]{Project Image} (12th), </li>\n<li>@Compendium[pf1.spells.aqeaxoaozlv9vg35]{Vision} (14th), </li>\n<li>@Compendium[pf1.spells.2vb5orfcy57lrfmc]{Moment of Prescience} (16th), </li>\n<li>@Compendium[pf1.spells.lnahlmp5mih2ongh]{Astral Projection} (18th).</li>\n</ul>"
    },
    "tags": [],
    "actions": [],
    "attackNotes": [],
    "effectNotes": [],
    "changes": [],
    "contextNotes": [],
    "links": {
      "children": [],
      "charges": []
    },
    "tag": "classFeat_occultMystery",
    "useCustomTag": true,
    "armorProf": {
      "value": []
    },
    "weaponProf": {
      "value": []
    },
    "languages": {
      "value": []
    },
    "scriptCalls": [],
    "subType": "classFeat",
    "associations": {
      "classes": [["Oracle"]]
    }
  }
}
