{
  "_id": "6OZN2TVs4TqfyqYr",
  "name": "Plague Vector",
  "type": "feat",
  "img": "systems/pf1/icons/items/potions/unique-3.jpg",
  "sort": 0,
  "flags": {},
  "system": {
    "description": {
      "value": "<p>The effects of the alchemist’s plague bomb operate as normal except for the following changes. The chosen disease’s save DC is equal to 10 + 1/2 the alchemist’s level + his Intelligence modifier. Any creatures affected by the chosen disease become vectors for it, spreading the disease to any creatures they come in physical contact with for a number of days equal to the alchemist’s Intelligence modifier (minimum 1). The save DC to avoid contracting the disease from the vector is the same as the DC used for this discovery.</p>\n<p>An alchemist must be at least 14th level and must have the plague bomb discovery to select this discovery.</p>"
    },
    "tags": [],
    "actions": [],
    "attackNotes": [],
    "effectNotes": [],
    "changes": [],
    "contextNotes": [],
    "links": {
      "children": [],
      "charges": []
    },
    "tag": "classFeat_plagueVector",
    "useCustomTag": true,
    "armorProf": {
      "value": []
    },
    "weaponProf": {
      "value": []
    },
    "languages": {
      "value": []
    },
    "scriptCalls": [],
    "subType": "classFeat",
    "associations": {
      "classes": [["Alchemist"]]
    }
  }
}
