{
  "_id": "NIjwlreusAAqbLdk",
  "name": "Plant Disguise",
  "type": "feat",
  "img": "systems/pf1/icons/spells/vines-jade-3.jpg",
  "sort": 0,
  "flags": {},
  "system": {
    "description": {
      "value": "<p><strong>Element </strong>wood; <strong>Type </strong>utility (Sp); <strong>Level </strong>4; <strong>Burn </strong>0</p>\n<p>You can assume the shape of an immobile plant, as per @Compendium[pf1.spells.6ho3wsspkqkhypt0]{Tree Shape} but transforming into any ordinary Small or Medium plant.</p>"
    },
    "tags": [],
    "actions": [],
    "attackNotes": [],
    "effectNotes": [],
    "changes": [],
    "contextNotes": [],
    "links": {
      "children": [],
      "charges": []
    },
    "tag": "classFeat_plantDisguise",
    "useCustomTag": true,
    "armorProf": {
      "value": []
    },
    "weaponProf": {
      "value": []
    },
    "languages": {
      "value": []
    },
    "scriptCalls": [],
    "subType": "classFeat",
    "associations": {
      "classes": [["Kineticist"]]
    },
    "abilityType": "sp"
  }
}
