{
  "_id": "oJ10BJJcClN5CjPU",
  "name": "Progenitor's Sting",
  "type": "feat",
  "img": "systems/pf1/icons/skills/green_05.jpg",
  "sort": 0,
  "flags": {},
  "system": {
    "description": {
      "value": "<p>You can magically apply your toxic essence onto your weapon or onto the weapon of a willing ally within 30 feet as a <em>standard action</em>. (Poison—injury; save <em>Fort</em> DC 10 + half your <em>sorcerer</em> level + your <em>Charisma</em> modifier; frequency 1/round for 6 rounds; effect 1 <em>Str</em>, <em>Dex</em>, or <em>Con</em> damage [chosen when this ability is used]; cure 1 save).</p>\n<p>You can use this ability a number of times per day equal to 3 + your <em>Charisma</em> modifier.</p>\n<p>At 5th level, the <em>ability damage</em> of your <em>poison</em> increases to 1d3.</p>\n<p>At 7th level, each time you apply your progenitor’s sting, you can choose two ability scores for your <em>bloodline</em> <em>poison</em> to affect.</p>\n<p>At 11th level, whenever you apply your progenitor’s sting to a weapon, you can magically apply it onto all willing allies’ weapons within 20 feet as well. This counts as one use of your <em>bloodline</em> ability.</p>"
    },
    "tags": [],
    "actions": [
      {
        "_id": "fwfnhfjmq8efehyq",
        "name": "Use",
        "img": "systems/pf1/icons/skills/green_05.jpg",
        "description": "",
        "tag": "",
        "activation": {
          "cost": 1,
          "type": "standard"
        },
        "unchainedAction": {
          "activation": {
            "cost": 2,
            "type": "action"
          }
        },
        "duration": {
          "value": null,
          "units": ""
        },
        "target": {
          "value": "One weapon"
        },
        "range": {
          "value": "30",
          "units": "spec",
          "maxIncrements": 1,
          "minValue": null,
          "minUnits": ""
        },
        "uses": {
          "autoDeductChargesCost": "",
          "self": {
            "value": 0,
            "maxFormula": "",
            "per": null
          },
          "per": "day",
          "value": 0,
          "maxFormula": "3 + @abilities.cha.mod"
        },
        "measureTemplate": {
          "type": "",
          "size": "0",
          "overrideColor": false,
          "customColor": "",
          "overrideTexture": false,
          "customTexture": ""
        },
        "attackName": "",
        "actionType": "",
        "attackBonus": "",
        "critConfirmBonus": "",
        "damage": {
          "parts": [],
          "critParts": [],
          "nonCritParts": []
        },
        "attackParts": [],
        "formulaicAttacks": {
          "count": {
            "formula": ""
          },
          "bonus": {
            "formula": ""
          },
          "label": null
        },
        "formula": "",
        "ability": {
          "attack": null,
          "damage": null,
          "damageMult": 1,
          "critRange": 20,
          "critMult": 2
        },
        "save": {
          "dc": 0,
          "type": "",
          "description": ""
        },
        "effectNotes": [],
        "attackNotes": [],
        "soundEffect": "",
        "powerAttack": {
          "multiplier": "",
          "damageBonus": 2,
          "critMultiplier": 1
        },
        "naturalAttack": {
          "primaryAttack": true,
          "secondary": {
            "attackBonus": "-5",
            "damageMult": 0.5
          }
        },
        "nonlethal": false,
        "usesAmmo": false,
        "spellEffect": "",
        "spellArea": "",
        "conditionals": [],
        "enh": {
          "value": null
        }
      }
    ],
    "uses": {
      "per": "day",
      "maxFormula": "3 + @abilities.cha.mod"
    },
    "attackNotes": [],
    "effectNotes": [],
    "changes": [],
    "contextNotes": [],
    "links": {
      "children": [],
      "charges": []
    },
    "tag": "classFeat_progenitorsSting",
    "useCustomTag": true,
    "armorProf": {
      "value": []
    },
    "weaponProf": {
      "value": []
    },
    "languages": {
      "value": []
    },
    "scriptCalls": [],
    "subType": "classFeat",
    "associations": {
      "classes": [["Sorcerer"]]
    },
    "abilityType": "sp"
  }
}
