{
  "_id": "YJ0NcsmHi9AIkwlX",
  "name": "Propitiation",
  "type": "feat",
  "img": "systems/pf1/icons/skills/shadow_12.jpg",
  "sort": 0,
  "flags": {},
  "system": {
    "description": {
      "value": "<p>At 9th level, a medium has learned hidden techniques and rites that allow him to mollify his channeled spirit once per day, reducing its influence over him by 1 point (to a minimum of 1 point of influence).</p>\n<p>The details of the propitiation ritual vary based on the individual spirit, but the process always takes around 10 minutes to perform and it never requires any additional cost (such as an offering of wealth or a live sacrifice).</p>"
    },
    "tags": [],
    "actions": [],
    "attackNotes": [],
    "effectNotes": [],
    "changes": [],
    "contextNotes": [],
    "links": {
      "children": [],
      "charges": []
    },
    "tag": "classFeat_propitiation",
    "useCustomTag": true,
    "armorProf": {
      "value": []
    },
    "weaponProf": {
      "value": []
    },
    "languages": {
      "value": []
    },
    "scriptCalls": [],
    "subType": "classFeat",
    "associations": {
      "classes": [["Medium"]]
    },
    "abilityType": "su"
  }
}
