{
  "_id": "WSqWT9ZIshtC5vlV",
  "name": "Rage",
  "type": "feat",
  "img": "systems/pf1/icons/feats/extra-rage.jpg",
  "sort": 0,
  "flags": {},
  "system": {
    "description": {
      "value": "<p>A barbarian can call upon inner reserves of strength and ferocity, granting her additional combat prowess. Starting at 1st level, a barbarian can rage for a number of rounds per day equal to 4 + her <em>Constitution</em> modifier. At each level after 1st, she can rage for 2 additional rounds. Temporary increases to <em>Constitution</em>, such as those gained from rage and spells like <em>bear’s endurance</em>, do not increase the total number of rounds that a barbarian can rage per day. A barbarian can enter rage as a free action. The total number of rounds of rage per day is renewed after resting for 8 hours, although these hours do not need to be consecutive.</p>\n<p>While in rage, a barbarian gains a +4 morale bonus to her <em>Strength</em> and <em>Constitution</em>, as well as a +2 morale bonus on <em>Will</em> saves. In addition, she takes a –2 penalty to <em>Armor Class</em>. The increase to <em>Constitution</em> grants the barbarian 2 hit points per Hit Dice, but these disappear when the rage ends and are not lost first like <em>temporary hit points</em>. While in rage, a barbarian cannot use any <em>Charisma</em>-, <em>Dexterity</em>-, or <em>Intelligence</em>-based skills (except <em>Acrobatics</em>, <em>Fly</em>, <em>Intimidate</em>, and <em>Ride</em>) or any ability that requires patience or concentration.</p>\n<p>A barbarian can end her rage as a free action and is <em>fatigued</em> after rage for a number of rounds equal to 2 times the number of rounds spent in the rage. A barbarian cannot enter a new rage while <em>fatigued</em> or <em>exhausted</em> but can otherwise enter rage multiple times during a single encounter or combat. If a barbarian falls <em>unconscious</em>, her rage immediately ends, placing her in peril of death.</p>"
    },
    "tags": [],
    "actions": [
      {
        "_id": "5bvc8dz7vtyunhph",
        "name": "Use",
        "img": "systems/pf1/icons/feats/extra-rage.jpg",
        "description": "",
        "tag": "",
        "activation": {
          "cost": 1,
          "type": "free"
        },
        "unchainedAction": {
          "activation": {
            "cost": 1,
            "type": "free"
          }
        },
        "duration": {
          "value": "",
          "units": "round"
        },
        "target": {
          "value": "Self"
        },
        "range": {
          "value": null,
          "units": "personal",
          "maxIncrements": 1,
          "minValue": null,
          "minUnits": ""
        },
        "uses": {
          "autoDeductChargesCost": "",
          "self": {
            "value": 0,
            "maxFormula": "",
            "per": null
          },
          "per": "day",
          "value": 0,
          "maxFormula": "4 + @abilities.con.mod + (2 * (@classes.barbarian.level - 1))"
        },
        "measureTemplate": {
          "type": "",
          "size": "0",
          "overrideColor": false,
          "customColor": "",
          "overrideTexture": false,
          "customTexture": ""
        },
        "attackName": "",
        "actionType": "",
        "attackBonus": "",
        "critConfirmBonus": "",
        "damage": {
          "parts": [],
          "critParts": [],
          "nonCritParts": []
        },
        "attackParts": [],
        "formulaicAttacks": {
          "count": {
            "formula": ""
          },
          "bonus": {
            "formula": ""
          },
          "label": null
        },
        "formula": "",
        "ability": {
          "attack": null,
          "damage": null,
          "damageMult": 1,
          "critRange": 20,
          "critMult": 2
        },
        "save": {
          "dc": 0,
          "type": "",
          "description": ""
        },
        "effectNotes": [],
        "attackNotes": [],
        "soundEffect": "",
        "powerAttack": {
          "multiplier": "",
          "damageBonus": 2,
          "critMultiplier": 1
        },
        "naturalAttack": {
          "primaryAttack": true,
          "secondary": {
            "attackBonus": "-5",
            "damageMult": 0.5
          }
        },
        "nonlethal": false,
        "usesAmmo": false,
        "spellEffect": "",
        "spellArea": "",
        "conditionals": [],
        "enh": {
          "value": null
        }
      }
    ],
    "uses": {
      "per": "day",
      "maxFormula": "4 + @abilities.con.mod + (2 * (@classes.barbarian.level - 1))"
    },
    "attackNotes": [],
    "effectNotes": [],
    "changes": [],
    "contextNotes": [],
    "links": {
      "children": [],
      "charges": []
    },
    "tag": "classFeat_rage",
    "useCustomTag": true,
    "armorProf": {
      "value": []
    },
    "weaponProf": {
      "value": []
    },
    "languages": {
      "value": []
    },
    "scriptCalls": [],
    "subType": "classFeat",
    "associations": {
      "classes": [["Barbarian"]]
    },
    "abilityType": "ex"
  }
}
