{
  "_id": "IMY1ZyGGGjLo1sJL",
  "name": "Rend (UC) (2 pts)",
  "type": "feat",
  "img": "systems/pf1/icons/skills/blue_26.jpg",
  "sort": 0,
  "flags": {},
  "system": {
    "description": {
      "value": "<p><strong>Requirements: </strong>Summoner level 6th, claws evolution.</p>\n<p>The eidolon learns to rip and tear the flesh of those it attacks with its claws, gaining the rend ability. Whenever the eidolon makes two successful claw attacks against the same target in 1 round, its claws latch on to the flesh and deal extra damage. This damage is equal to the damage dealt by one claw attack plus 1-1/2 times the eidolon’s Strength modifier.</p>"
    },
    "tags": [],
    "actions": [],
    "attackNotes": [],
    "effectNotes": [],
    "changes": [],
    "contextNotes": [],
    "links": {
      "children": [],
      "charges": []
    },
    "tag": "classFeat_rendUc2Pts",
    "useCustomTag": true,
    "armorProf": {
      "value": []
    },
    "weaponProf": {
      "value": []
    },
    "languages": {
      "value": []
    },
    "scriptCalls": [],
    "subType": "classFeat",
    "associations": {
      "classes": [["Eidolon (Unchained)"]]
    },
    "abilityType": "ex"
  }
}
