{
  "_id": "N4FVmlVMHFihF2pF",
  "name": "Sapping Offensive",
  "type": "feat",
  "img": "systems/pf1/icons/items/weapons/sword-cane.png",
  "sort": 0,
  "flags": {},
  "system": {
    "description": {
      "value": "<p>When the investigator damages a studied target, that creature cannot make attacks of opportunity for 1 round.</p>\n<p>An investigator must be at least 5th level to select this talent.</p>"
    },
    "tags": [],
    "actions": [],
    "attackNotes": [],
    "effectNotes": [],
    "changes": [],
    "contextNotes": [],
    "links": {
      "children": [],
      "charges": []
    },
    "tag": "classFeat_sappingOffensive",
    "useCustomTag": true,
    "armorProf": {
      "value": []
    },
    "weaponProf": {
      "value": []
    },
    "languages": {
      "value": []
    },
    "scriptCalls": [],
    "subType": "classFeat",
    "associations": {
      "classes": [["Investigator"]]
    },
    "abilityType": "ex"
  }
}
