{
  "_id": "huIqZbUATwLMywBt",
  "name": "Scrap Bomb",
  "type": "feat",
  "img": "systems/pf1/icons/items/potions/unique-3.jpg",
  "sort": 0,
  "flags": {},
  "system": {
    "description": {
      "value": "<p>When the alchemist creates a bomb, he can choose to have it explode into shards of shrapnel that deal piercing damage. A creature that takes a direct hit from a scrap bomb takes 1 point of bleed damage per die of bomb damage unless it succeeds at a Reflex save.</p>"
    },
    "tags": [],
    "actions": [],
    "attackNotes": [],
    "effectNotes": [],
    "changes": [],
    "contextNotes": [],
    "links": {
      "children": [],
      "charges": []
    },
    "tag": "classFeat_scrapBomb",
    "useCustomTag": true,
    "armorProf": {
      "value": []
    },
    "weaponProf": {
      "value": []
    },
    "languages": {
      "value": []
    },
    "scriptCalls": [],
    "subType": "classFeat",
    "associations": {
      "classes": [["Alchemist"]]
    },
    "abilityType": "su"
  }
}
