{
  "_id": "iU8Po57HZQxDl7zH",
  "name": "Seduction",
  "type": "feat",
  "img": "systems/pf1/icons/skills/violet_02.jpg",
  "sort": 0,
  "flags": {},
  "system": {
    "description": {
      "value": "<p>The witch uses enthralling movements to fascinate a single creature within 60 feet that can see the witch. A Will save negates this effect. If the target is (or could be) sexually attracted to the witch, the save DC is increased by 2. The effect lasts for 1 round, but the witch can extend this effect for 1 additional round (up to a total number of rounds equal to her class level) by taking a standard action to continue her enthralling movements. Whether or not the target succeeds at its save, it cannot be the target of this ability again for 1 day.</p>\n<p>At 8th level, the fascination effect lasts for 2 additional rounds after the witch ceases taking a standard action to maintain it. This is a mind-affecting charm effect.</p>"
    },
    "tags": [["Hex"]],
    "actions": [
      {
        "_id": "i1ex3175awk6i94f",
        "name": "Use",
        "img": "systems/pf1/icons/skills/violet_02.jpg",
        "description": "",
        "tag": "",
        "activation": {
          "cost": 1,
          "type": "standard"
        },
        "unchainedAction": {
          "activation": {
            "cost": 2,
            "type": "action"
          }
        },
        "duration": {
          "value": "concentration + 1",
          "units": "round"
        },
        "target": {
          "value": "one creature"
        },
        "range": {
          "value": "60",
          "units": "ft",
          "maxIncrements": 1,
          "minValue": null,
          "minUnits": ""
        },
        "uses": {
          "autoDeductChargesCost": "",
          "self": {
            "value": 0,
            "maxFormula": "",
            "per": ""
          },
          "per": "",
          "value": 0,
          "maxFormula": ""
        },
        "measureTemplate": {
          "type": "",
          "size": "",
          "overrideColor": false,
          "customColor": "",
          "overrideTexture": false,
          "customTexture": ""
        },
        "attackName": "",
        "actionType": "save",
        "attackBonus": "",
        "critConfirmBonus": "",
        "damage": {
          "parts": [],
          "critParts": [],
          "nonCritParts": []
        },
        "attackParts": [],
        "formulaicAttacks": {
          "count": {
            "formula": ""
          },
          "bonus": {
            "formula": ""
          },
          "label": null
        },
        "formula": "",
        "ability": {
          "attack": null,
          "damage": "",
          "damageMult": 1,
          "critRange": 20,
          "critMult": 2
        },
        "save": {
          "dc": "10 + floor(@classes.witch.level / 2) + @abilities.int.mod",
          "type": "will",
          "description": "Will negates"
        },
        "effectNotes": [],
        "attackNotes": [],
        "soundEffect": "",
        "powerAttack": {
          "multiplier": "",
          "damageBonus": 2,
          "critMultiplier": 1
        },
        "naturalAttack": {
          "primaryAttack": true,
          "secondary": {
            "attackBonus": "-5",
            "damageMult": 0.5
          }
        },
        "nonlethal": false,
        "usesAmmo": false,
        "spellEffect": "",
        "spellArea": "",
        "conditionals": [],
        "enh": {
          "value": null
        },
        "touch": false
      }
    ],
    "uses": {
      "per": ""
    },
    "attackNotes": [],
    "effectNotes": [],
    "changes": [],
    "contextNotes": [],
    "links": {
      "children": [],
      "charges": []
    },
    "tag": "classFeat_seduction",
    "useCustomTag": true,
    "armorProf": {
      "value": []
    },
    "weaponProf": {
      "value": []
    },
    "languages": {
      "value": []
    },
    "scriptCalls": [],
    "subType": "classFeat",
    "associations": {
      "classes": [["Witch"]]
    },
    "abilityType": "su"
  }
}
