{
  "_id": "p9NfZDfgIe8APGCf",
  "name": "Shadow Subschool",
  "type": "feat",
  "img": "systems/pf1/icons/spells/rip-sky-1.jpg",
  "sort": 0,
  "flags": {},
  "system": {
    "description": {
      "value": "<p><strong>Associated School:</strong> <em>Illusion</em>.</p>\n<p><strong>Replacement Powers:</strong> This subschool replaces the blinding ray and invisibility field powers of the <em>illusion</em> school.</p>"
    },
    "tags": [],
    "actions": [],
    "attackNotes": [],
    "effectNotes": [],
    "changes": [],
    "contextNotes": [],
    "links": {
      "children": [],
      "charges": []
    },
    "tag": "classFeat_shadowSubschool",
    "useCustomTag": true,
    "armorProf": {
      "value": []
    },
    "weaponProf": {
      "value": []
    },
    "languages": {
      "value": []
    },
    "scriptCalls": [],
    "subType": "classFeat",
    "associations": {
      "classes": [["Wizard"]]
    }
  }
}
