{
  "_id": "5IJD71tDjQRPVCLv",
  "name": "Shared Evolution (UC) (1 pt)",
  "type": "feat",
  "img": "systems/pf1/icons/skills/blue_26.jpg",
  "sort": 0,
  "flags": {},
  "system": {
    "description": {
      "value": "<p><strong>Requirements: </strong>Twinned eidolon.</p>\n<p>Select a 1-point or 2-point evolution the eidolon has. As a standard action, the eidolon can touch the summoner and transfer the selected evolution to him. This functions as the summoner’s aspect ability, and the same limitations apply. The summoner can touch the eidolon as a standard action to return the evolution. The evolution returns to the eidolon automatically if the eidolon is dismissed by the summoner or sent back to its home plane.</p>"
    },
    "tags": [],
    "actions": [],
    "attackNotes": [],
    "effectNotes": [],
    "changes": [],
    "contextNotes": [],
    "links": {
      "children": [],
      "charges": []
    },
    "tag": "classFeat_sharedEvolutionUc1Pt",
    "useCustomTag": true,
    "armorProf": {
      "value": []
    },
    "weaponProf": {
      "value": []
    },
    "languages": {
      "value": []
    },
    "scriptCalls": [],
    "subType": "classFeat",
    "associations": {
      "classes": [["Eidolon (Unchained)"]]
    },
    "abilityType": "su"
  }
}
