{
  "_id": "fByatsQGf4x1E8Yk",
  "name": "Shroud of Water",
  "type": "feat",
  "img": "systems/pf1/icons/spells/ice-blue-2.jpg",
  "sort": 0,
  "flags": {},
  "system": {
    "description": {
      "value": "<p><strong>Element </strong>water; <strong>Type</strong> defense (Su); <strong>Level</strong> —; <strong>Burn</strong> 0</p>\n<p>You surround yourself with a shroud of water, ice, or both that protects you from harm. The shroud can either cover your body, functioning as armor, or float around you and block attacks, functioning as a shield. It grants either a +4 armor bonus to AC or a +2 shield bonus to AC, and you can change the type of bonus as a standard action. This bonus increases by 1 for every 4 kineticist levels you possess beyond 2nd.</p>\n<p>By accepting 1 point of burn, you can increase the bonus by 1 until the next time your burn is removed. You can increase the bonus multiple times in this way, but it can’t be increased by more than 50% of its starting value. When you change the shroud to grant a shield bonus, any bonus in excess of this limit doesn’t apply, but it remains if you change the shroud’s bonus type again.</p>\n<p>Whenever you accept burn while using a water wild talent, the water coalescing around you allows your shroud to grant both the armor bonus and the shield bonus for 1 round. You can dismiss or restore this effect as an immediate action.</p>"
    },
    "tags": [],
    "actions": [
      {
        "_id": "0busrhixp22necl2",
        "name": "Use",
        "img": "systems/pf1/icons/spells/ice-blue-2.jpg",
        "description": "",
        "tag": "",
        "activation": {
          "cost": 1,
          "type": "passive"
        },
        "unchainedAction": {
          "activation": {
            "cost": 1,
            "type": "passive"
          }
        },
        "duration": {
          "value": null,
          "units": ""
        },
        "target": {
          "value": ""
        },
        "range": {
          "value": null,
          "units": "",
          "maxIncrements": 1,
          "minValue": null,
          "minUnits": ""
        },
        "uses": {
          "autoDeductChargesCost": "",
          "self": {
            "value": 0,
            "maxFormula": "",
            "per": null
          },
          "per": "",
          "value": 0,
          "maxFormula": ""
        },
        "measureTemplate": {
          "type": "",
          "size": "",
          "overrideColor": false,
          "customColor": "",
          "overrideTexture": false,
          "customTexture": ""
        },
        "attackName": "",
        "actionType": "",
        "attackBonus": "",
        "critConfirmBonus": "",
        "damage": {
          "parts": [],
          "critParts": [],
          "nonCritParts": []
        },
        "attackParts": [],
        "formulaicAttacks": {
          "count": {
            "formula": ""
          },
          "bonus": {
            "formula": ""
          },
          "label": null
        },
        "formula": "",
        "ability": {
          "attack": null,
          "damage": null,
          "damageMult": 1,
          "critRange": 20,
          "critMult": 2
        },
        "save": {
          "dc": 0,
          "type": "",
          "description": ""
        },
        "effectNotes": [],
        "attackNotes": [],
        "soundEffect": "",
        "powerAttack": {
          "multiplier": "",
          "damageBonus": 2,
          "critMultiplier": 1
        },
        "naturalAttack": {
          "primaryAttack": true,
          "secondary": {
            "attackBonus": "-5",
            "damageMult": 0.5
          }
        },
        "nonlethal": false,
        "usesAmmo": false,
        "spellEffect": "",
        "spellArea": "",
        "conditionals": [],
        "enh": {
          "value": null
        }
      }
    ],
    "uses": {
      "per": ""
    },
    "attackNotes": [],
    "effectNotes": [],
    "changes": [],
    "contextNotes": [],
    "links": {
      "children": [],
      "charges": []
    },
    "tag": "classFeat_shroudOfWater",
    "useCustomTag": true,
    "armorProf": {
      "value": []
    },
    "weaponProf": {
      "value": []
    },
    "languages": {
      "value": []
    },
    "scriptCalls": [],
    "subType": "classFeat",
    "associations": {
      "classes": [["Kineticist"]]
    },
    "abilityType": "su"
  }
}
