{
  "_id": "UuALULc4QtYDIZOX",
  "name": "Snatch Arrows",
  "type": "feat",
  "img": "systems/pf1/icons/items/weapons/kunai.png",
  "sort": 0,
  "flags": {},
  "system": {
    "description": {
      "value": "<p>A ninja who selects this ninja trick gains the @Compendium[pf1.feats.bHcqTC4Lf3aVl3VO]{Snatch Arrows} feat as a bonus feat. The ninja must have the @Compendium[pf1.feats.2aTFNMs3pW6nUBlr]{Improved Unarmed Strike} feat and the @Compendium[pf1.feats.ACEQfonKVqh0fwkK]{Deflect Arrows} feat before taking this trick.</p>"
    },
    "tags": [["Ninja Trick"]],
    "actions": [],
    "attackNotes": [],
    "effectNotes": [],
    "changes": [],
    "contextNotes": [],
    "links": {
      "children": [],
      "charges": []
    },
    "tag": "classFeat_snatchArrows",
    "useCustomTag": true,
    "armorProf": {
      "value": []
    },
    "weaponProf": {
      "value": []
    },
    "languages": {
      "value": []
    },
    "scriptCalls": [],
    "subType": "classFeat",
    "associations": {
      "classes": [["Ninja"]]
    }
  }
}
