{
  "_id": "ic7S8cCYMu0cMmf7",
  "name": "Solar Bloodline",
  "type": "feat",
  "img": "systems/pf1/icons/spells/light-royal-3.jpg",
  "sort": 0,
  "flags": {},
  "system": {
    "description": {
      "value": "<p><em>Sorcerers who serve in the sun goddess’s court display powers infused with the glory of the sun itself.</em></p>\n<p><strong>Class Skill:</strong> <em>Perception</em>.</p>\n<p><strong>Bonus Spells:</strong></p>\n<ul>\n<li>@Compendium[pf1.spells.dnet1tyxbsnwailm]{Searing Light} (3rd),</li>\n<li>@Compendium[pf1.spells.myeqz367l1vb5fje]{Fury Of The Sun} (5th),</li>\n<li>@Compendium[pf1.spells.7x2z0i8rcx7s81fk]{Daylight} (7th),</li>\n<li>@Compendium[pf1.spells.oz41554bzacn8szb]{Shield Of The Dawnflower} (9th),</li>\n<li>@Compendium[pf1.spells.gmugktarbieojt59]{Flame Strike} (11th),</li>\n<li>@Compendium[pf1.spells.jbqo4o2b2tmdz7wv]{True Seeing} (13th),</li>\n<li>@Compendium[pf1.spells.vax8ojz8g3oovwzu]{Sunbeam} (15th),</li>\n<li>@Compendium[pf1.spells.j2mwv9wfxhqch10g]{Sunburst} (17th),</li>\n<li>@Compendium[pf1.spells.xuuzj9lr2xbwaim4]{Overwhelming Presence} (19th).</li>\n</ul>\n<p><strong>Bonus Feats:</strong></p>\n<ul>\n<li>@Compendium[pf1.feats.Q1cY8r0Pvb66pMG0]{Alertness},</li>\n<li>@Compendium[pf1.feats.u7rGDZUL296QIuA0]{Combat Casting},</li>\n<li>@Compendium[pf1.feats.77gXSucrxfrE9yWk]{Empower Spell},</li>\n<li>@Compendium[pf1.feats.Uuiu3p982omhMEPj]{Improved Initiative},</li>\n<li>@Compendium[pf1.feats.0bZf3SDkvVOe2ujH]{Lightning Reflexes},</li>\n<li>@Compendium[pf1.feats.wFoLrh5FeeqBXsQ8]{Quicken Spell},</li>\n<li>@Compendium[pf1.feats.V2zY7BltkpSXwejy]{Spell Focus},</li>\n<li>@Compendium[pf1.feats.nWFr8SNcjcMqsXSH]{Spell Penetration}.</li>\n</ul>\n<p><strong>Bloodline Arcana:</strong> Whenever you cast a spell with the fire descriptor, if it deals damage, it deals +1 point of damage per die rolled.</p>"
    },
    "tags": [],
    "actions": [],
    "attackNotes": [],
    "effectNotes": [],
    "changes": [],
    "contextNotes": [],
    "links": {
      "children": [],
      "charges": []
    },
    "tag": "classFeat_solarBloodline",
    "useCustomTag": true,
    "armorProf": {
      "value": []
    },
    "weaponProf": {
      "value": []
    },
    "languages": {
      "value": []
    },
    "scriptCalls": [],
    "subType": "classFeat",
    "associations": {
      "classes": [["Sorcerer"]]
    }
  }
}
