{
  "_id": "oBMxDV5gftDudsCK",
  "name": "Stars Patron",
  "type": "feat",
  "img": "systems/pf1/icons/feats/improved-familiar.jpg",
  "sort": 0,
  "flags": {},
  "system": {
    "description": {
      "value": "<ul>\n<li>2nd — @Compendium[pf1.spells.bl71og1gklwncmt7]{Faerie Fire}</li>\n<li>4th — @Compendium[pf1.spells.ech2cibcsmsms9s7]{Dust Of Twilight}</li>\n<li>6th — @Compendium[pf1.spells.a6a6s9jysswthu3r]{Guiding Star}</li>\n<li>8th — @Compendium[pf1.spells.ni93l43asrq29ytd]{Wandering Star Motes}</li>\n<li>10th — @Compendium[pf1.spells.ifcnx1yyw6e7ousm]{Dream}</li>\n<li>12th — @Compendium[pf1.spells.pzwe3gxjz8gthyaj]{Cloak of Dreams}</li>\n<li>14th — @Compendium[pf1.spells.y4881ol4t79wj7sf]{Circle Of Clarity}</li>\n<li>16th — @Compendium[pf1.spells.xlzqpkl8fpm3sn4u]{Euphoric Tranquility}</li>\n<li>18th — @Compendium[pf1.spells.lnahlmp5mih2ongh]{Astral Projection}</li>\n</ul>"
    },
    "tags": [],
    "actions": [],
    "attackNotes": [],
    "effectNotes": [],
    "changes": [],
    "contextNotes": [],
    "links": {
      "children": [],
      "charges": []
    },
    "tag": "classFeat_starsPatron",
    "useCustomTag": true,
    "armorProf": {
      "value": []
    },
    "weaponProf": {
      "value": []
    },
    "languages": {
      "value": []
    },
    "scriptCalls": [],
    "subType": "classFeat",
    "associations": {
      "classes": [["Witch"]]
    }
  }
}
