{
  "_id": "8c70clF6ZT8ATEQY",
  "name": "Stealthy Sniper",
  "type": "feat",
  "img": "systems/pf1/icons/items/weapons/butterfly-knife.PNG",
  "sort": 0,
  "flags": {},
  "system": {
    "description": {
      "value": "<p>When a rogue with this talent uses the Stealth skill to snipe, she only suffers a –10 penalty on the Stealth check, instead of –20.</p>"
    },
    "tags": [],
    "actions": [],
    "attackNotes": [],
    "effectNotes": [],
    "changes": [],
    "contextNotes": [],
    "links": {
      "children": [],
      "charges": []
    },
    "tag": "classFeat_stealthySniper",
    "useCustomTag": true,
    "armorProf": {
      "value": []
    },
    "weaponProf": {
      "value": []
    },
    "languages": {
      "value": []
    },
    "scriptCalls": [],
    "subType": "classFeat",
    "associations": {
      "classes": [["Rogue"]]
    },
    "abilityType": "ex"
  }
}
