{
  "_id": "joWH7Q3PmXUm7N12",
  "name": "Sucker Punch",
  "type": "feat",
  "img": "systems/pf1/icons/feats/deceitful.jpg",
  "sort": 0,
  "flags": {},
  "system": {
    "description": {
      "value": "<p>Whenever the vigilante attacks a foe that is unaware of his presence (or who views him as an ally), and the attack deals nonlethal damage, the attack deals an additional 1d6 points of nonlethal damage. This additional damage increases by 1d6 at each of 6th, 12th, and 18th levels.</p>\n<p>Only an avenger vigilante can select this talent.</p>"
    },
    "tags": [],
    "actions": [],
    "attackNotes": [],
    "effectNotes": [],
    "changes": [],
    "contextNotes": [],
    "links": {
      "children": [],
      "charges": []
    },
    "tag": "classFeat_suckerPunch",
    "useCustomTag": true,
    "armorProf": {
      "value": []
    },
    "weaponProf": {
      "value": []
    },
    "languages": {
      "value": []
    },
    "scriptCalls": [],
    "subType": "classFeat",
    "associations": {
      "classes": [["Vigilante"]]
    },
    "abilityType": "ex"
  }
}
