{
  "_id": "BrPcSs4XNULA5rmA",
  "name": "Sudden Block",
  "type": "feat",
  "img": "systems/pf1/icons/skills/blue_18.jpg",
  "sort": 0,
  "flags": {},
  "system": {
    "description": {
      "value": "<p>After an enemy’s attack would hit you or an adjacent creature, you can use spirit surge to increase the victim’s AC, possibly causing the attack to fail, by rolling your spirit surge die and adding it to the chosen character’s AC. You must not be flat-footed, and you must be aware of the attack. If use of this ability causes the enemy’s attack to miss, you can make an attack at your highest base attack bonus against that enemy as an immediate action.</p>"
    },
    "tags": [],
    "actions": [],
    "attackNotes": [],
    "effectNotes": [],
    "changes": [],
    "contextNotes": [],
    "links": {
      "children": [],
      "charges": []
    },
    "tag": "classFeat_suddenBlock",
    "useCustomTag": true,
    "armorProf": {
      "value": []
    },
    "weaponProf": {
      "value": []
    },
    "languages": {
      "value": []
    },
    "scriptCalls": [],
    "subType": "classFeat",
    "associations": {
      "classes": [["Medium"]]
    },
    "abilityType": "su"
  }
}
