{
  "_id": "sM09WEP5NM50wOG4",
  "name": "Sunlight Bomb",
  "type": "feat",
  "img": "systems/pf1/icons/items/potions/unique-3.jpg",
  "sort": 0,
  "flags": {},
  "system": {
    "description": {
      "value": "<p>The alchemist can throw bombs that explode with a searing radiance equivalent to that of sunlight and that act as blinding bombs. Undead, fungi, molds, oozes, slimes, and creatures to which sunlight is harmful or unnatural take +2 damage per die from the bomb. Undead that are harmed by sunlight and that fail their saves against the bomb are staggered for 1 round.</p>\n<p>An alchemist must be at least 10th level and must have the blinding bomb discovery before he can select this discovery.</p>"
    },
    "tags": [],
    "actions": [],
    "attackNotes": [],
    "effectNotes": [],
    "changes": [],
    "contextNotes": [],
    "links": {
      "children": [],
      "charges": []
    },
    "tag": "classFeat_sunlightBomb",
    "useCustomTag": true,
    "armorProf": {
      "value": []
    },
    "weaponProf": {
      "value": []
    },
    "languages": {
      "value": []
    },
    "scriptCalls": [],
    "subType": "classFeat",
    "associations": {
      "classes": [["Alchemist"]]
    },
    "abilityType": "su"
  }
}
