{
  "_id": "BJbgAVT6pZhML9im",
  "name": "Terrain Training",
  "type": "feat",
  "img": "systems/pf1/icons/items/inventory/banner-red.jpg",
  "sort": 0,
  "flags": {},
  "system": {
    "description": {
      "value": "<p>At 8th level, the cavalier may select a terrain type from the <a href=\"https://aonprd.com/ClassDisplay.aspx?ItemName=Ranger\">ranger Favored Terrains table</a>. As a standard action, he can shout orders that grant all allies within 60 feet a competence bonus equal to his Charisma modifier on initiative checks and Knowledge (geography), Perception, and Survival checks while they are in this terrain for a number of rounds equal to 1/2 his cavalier level. At 12th level and every four levels thereafter, the cavalier may select a new terrain type that this ability can affect.</p>"
    },
    "tags": [],
    "actions": [],
    "attackNotes": [],
    "effectNotes": [],
    "changes": [],
    "contextNotes": [],
    "links": {
      "children": [],
      "charges": []
    },
    "tag": "classFeat_terrainTraining",
    "useCustomTag": true,
    "armorProf": {
      "value": []
    },
    "weaponProf": {
      "value": []
    },
    "languages": {
      "value": []
    },
    "scriptCalls": [],
    "subType": "classFeat",
    "associations": {
      "classes": [["Cavalier"]]
    },
    "abilityType": "ex"
  }
}
