{
  "_id": "HgSNQ9IdEnIf2Jdc",
  "name": "Threefold Casting",
  "type": "feat",
  "img": "systems/pf1/icons/spells/slice-spirit-3.jpg",
  "sort": 0,
  "flags": {},
  "system": {
    "description": {
      "value": "<p>While you cannot join a true witch’s coven, you are nonetheless skilled at casting magic in conjunction with others. You gain a +2 insight bonus on skill checks for ritual magic in which you have at least two secondary casters.</p>\n<p>In addition, whenever you are within 30 feet of another hag, psychic, or witch, you can use the aid another action to grant a +1 bonus to the other spellcaster’s caster level for 1 round.</p>"
    },
    "tags": [],
    "actions": [],
    "attackNotes": [],
    "effectNotes": [],
    "changes": [],
    "contextNotes": [],
    "links": {
      "children": [],
      "charges": []
    },
    "tag": "classFeat_threefoldCasting",
    "useCustomTag": true,
    "armorProf": {
      "value": []
    },
    "weaponProf": {
      "value": []
    },
    "languages": {
      "value": []
    },
    "scriptCalls": [],
    "subType": "classFeat",
    "associations": {
      "classes": [["Psychic"]]
    },
    "abilityType": "ex"
  }
}
