{
  "_id": "pa7vW08b6fvtOpVL",
  "name": "Touchsight",
  "type": "feat",
  "img": "systems/pf1/icons/spells/link-blue-2.jpg",
  "sort": 0,
  "flags": {},
  "system": {
    "description": {
      "value": "<p><strong>Element </strong>aether; <strong>Type </strong>utility (Su); <strong>Level </strong>3; <strong>Burn </strong>0</p>\n<p>You attach strands of aether to everything your telekinesis touches. Any time you damage a creature using your telekinetic blast, as long as that creature doesn’t use a teleportation effect, you can see that creature at any distance as if using blindsight until the end of your next turn.</p>\n<p>Immediately after damaging a creature, you can accept 1 point of burn to strengthen the strands of aether attached to that creature, increasing the duration of the touchsight on that creature to 1 round per kineticist level.</p>"
    },
    "tags": [],
    "actions": [],
    "attackNotes": [],
    "effectNotes": [],
    "changes": [],
    "contextNotes": [],
    "links": {
      "children": [],
      "charges": []
    },
    "tag": "classFeat_touchsight",
    "useCustomTag": true,
    "armorProf": {
      "value": []
    },
    "weaponProf": {
      "value": []
    },
    "languages": {
      "value": []
    },
    "scriptCalls": [],
    "subType": "classFeat",
    "associations": {
      "classes": [["Kineticist"]]
    },
    "abilityType": "su"
  }
}
