{
  "_id": "2ksNS49h2oZPwOPO",
  "name": "Trickster's Edge",
  "type": "feat",
  "img": "systems/pf1/icons/skills/violet_18.jpg",
  "sort": 0,
  "flags": {},
  "system": {
    "description": {
      "value": "<p>Choose any two skills. These skills count as class skills for you, and you are treated as if you had an additional number of ranks in those skills equal to your medium level (to a maximum of your character level).</p>"
    },
    "tags": [],
    "actions": [],
    "attackNotes": [],
    "effectNotes": [],
    "changes": [],
    "contextNotes": [],
    "links": {
      "children": [],
      "charges": []
    },
    "tag": "classFeat_trickstersEdge",
    "useCustomTag": true,
    "armorProf": {
      "value": []
    },
    "weaponProf": {
      "value": []
    },
    "languages": {
      "value": []
    },
    "scriptCalls": [],
    "subType": "classFeat",
    "associations": {
      "classes": [["Medium"]]
    },
    "abilityType": "su"
  }
}
