{
  "_id": "N1TVJ8y9XF9PzEht",
  "name": "Truth Subdomain",
  "type": "feat",
  "img": "systems/pf1/icons/skills/green_27.jpg",
  "sort": 0,
  "flags": {},
  "system": {
    "description": {
      "value": "<p><strong>Replacement Domain Spells:</strong></p>\n<ul>\n<li>3rd—@Compendium[pf1.spells.56atnwmo4s61hi45]{Wall Of Nausea}</li>\n<li>5th—@Compendium[pf1.spells.68ngvzmzvadhf6vs]{Contact Other Plane}</li>\n<li>6th—@Compendium[pf1.spells.cxp0vodhvuwnfmye]{Litany Of Madness}</li>\n</ul>"
    },
    "tags": [],
    "actions": [],
    "attackNotes": [],
    "effectNotes": [],
    "changes": [],
    "contextNotes": [],
    "links": {
      "children": [],
      "charges": []
    },
    "tag": "classFeat_truthSubdomain",
    "useCustomTag": true,
    "armorProf": {
      "value": []
    },
    "weaponProf": {
      "value": []
    },
    "languages": {
      "value": []
    },
    "scriptCalls": [],
    "subType": "classFeat",
    "associations": {
      "classes": [["Cleric"]]
    }
  }
}
