{
  "_id": "syhm1936q93BxRRd",
  "name": "Winter Final Revelation",
  "type": "feat",
  "img": "systems/pf1/icons/spells/light-royal-1.jpg",
  "sort": 0,
  "flags": {},
  "system": {
    "description": {
      "value": "<p>Upon reaching 20th level, you become an avatar of winter and the North. Your body permanently transforms into living ice, as the @Compendium[pf1.spells.qubzqiz5mqs8tbqr]{Ice Body} spell. In addition, your mastery of winter magic is such that any of your attacks that deal cold damage bypass cold immunity or cold resistance.</p>"
    },
    "tags": [],
    "actions": [],
    "attackNotes": [],
    "effectNotes": [],
    "changes": [],
    "contextNotes": [],
    "links": {
      "children": [],
      "charges": []
    },
    "tag": "classFeat_winterFinalRevelation",
    "useCustomTag": true,
    "armorProf": {
      "value": []
    },
    "weaponProf": {
      "value": []
    },
    "languages": {
      "value": []
    },
    "scriptCalls": [],
    "subType": "classFeat",
    "associations": {
      "classes": [["Oracle"]]
    }
  }
}
