{
  "name": "Ward",
  "type": "buff",
  "img": "systems/pf1/icons/skills/violet_02.jpg",
  "system": {
    "description": {
      "value": "<p>Gain +2 deflection bonus to AC and +2 resistance bonus to saving throws.</p><p>This lasts until you are hit or you fail a saving throw.</p>"
    },
    "tags": [],
    "changes": [
      {
        "_id": "yXliK2TX",
        "formula": "2 + clamped(floor(@item.level / 8), 0, 2)",
        "operator": "add",
        "subTarget": "ac",
        "modifier": "deflection",
        "priority": 0,
        "value": 0
      },
      {
        "_id": "ztHP3if0",
        "formula": "2 + clamped(floor(@item.level / 8), 0, 2)",
        "operator": "add",
        "subTarget": "allSavingThrows",
        "modifier": "resist",
        "priority": 0,
        "value": 0
      }
    ],
    "contextNotes": [],
    "links": {
      "children": []
    },
    "scriptCalls": [],
    "level": 1,
    "duration": {
      "value": ""
    }
  },
  "flags": {},
  "sort": 0,
  "_id": "e6LhyzMnHZc5Vlni"
}
