{
  "_id": "iwkrfp38hdgovoj7",
  "name": "Abeyance",
  "type": "spell",
  "img": "systems/pf1/icons/misc/magic-swirl.png",
  "sort": 0,
  "flags": {},
  "system": {
    "tags": [],
    "actions": [
      {
        "_id": "apgqoizn1k5z4o2j",
        "name": "Use",
        "img": "systems/pf1/icons/misc/magic-swirl.png",
        "description": "",
        "tag": "",
        "activation": {
          "cost": 1,
          "type": "minute"
        },
        "unchainedAction": {
          "activation": {
            "cost": 1,
            "type": "minute"
          }
        },
        "duration": {
          "value": "24 hours",
          "units": ""
        },
        "target": {
          "value": "creature touched"
        },
        "range": {
          "value": null,
          "units": "touch",
          "maxIncrements": 1,
          "minValue": null,
          "minUnits": ""
        },
        "uses": {
          "autoDeductChargesCost": "",
          "self": {
            "value": 0,
            "maxFormula": "",
            "per": null
          },
          "per": "",
          "value": 0,
          "maxFormula": ""
        },
        "measureTemplate": {
          "type": "",
          "size": "0",
          "overrideColor": false,
          "customColor": "",
          "overrideTexture": false,
          "customTexture": ""
        },
        "attackName": "",
        "actionType": "spellsave",
        "attackBonus": "",
        "critConfirmBonus": "",
        "damage": {
          "parts": [],
          "critParts": [],
          "nonCritParts": []
        },
        "attackParts": [],
        "formulaicAttacks": {
          "count": {
            "formula": ""
          },
          "bonus": {
            "formula": ""
          },
          "label": null
        },
        "formula": "",
        "ability": {
          "attack": "",
          "damage": "",
          "damageMult": 1,
          "critRange": 20,
          "critMult": 2
        },
        "save": {
          "dc": "0",
          "type": "will",
          "description": "Will negates (harmless)"
        },
        "effectNotes": [],
        "attackNotes": [],
        "soundEffect": "",
        "powerAttack": {
          "multiplier": "",
          "damageBonus": 2,
          "critMultiplier": 1
        },
        "naturalAttack": {
          "primaryAttack": true,
          "secondary": {
            "attackBonus": "-5",
            "damageMult": 0.5
          }
        },
        "nonlethal": false,
        "usesAmmo": false,
        "spellEffect": "",
        "spellArea": "",
        "conditionals": [],
        "enh": {
          "value": null
        }
      }
    ],
    "uses": {
      "per": ""
    },
    "attackNotes": [],
    "effectNotes": [],
    "links": {
      "children": []
    },
    "scriptCalls": [],
    "learnedAt": {
      "class": [
        ["cleric/oracle", 2],
        ["paladin", 2],
        ["inquisitor", 2]
      ],
      "domain": [],
      "subDomain": [],
      "elementalSchool": [],
      "bloodline": []
    },
    "level": 2,
    "school": "abj",
    "components": {
      "verbal": true,
      "somatic": true,
      "material": true,
      "divineFocus": 1
    },
    "materials": {
      "value": "a flask of holy water worth 25 gp",
      "gpValue": 25
    },
    "spellbook": "",
    "preparation": {
      "spontaneousPrepared": false
    },
    "shortDescription": "<p><i>Abeyance</i> suppresses the effects of a single  curse on a creature. It does not restore any damage or drain that might have been caused by the curse. <i>Abeyance</i> cannot suppress curses that cannot be removed by <i>remove curse</i>, but it can suppress curses such as lycanthropy that require <i>remove curse</i> along with additional measures. An individual curse can be suppressed only once by <i>abeyance</i>, even if cast by a different caster. <i>Abeyance</i> does not allow a creature to divest itself of cursed objects, though it can suppress a curse contracted from an object.</p>"
  }
}
