{
  "_id": "0s8w9wfs3ygc21wh",
  "name": "Absorbing Inhalation",
  "type": "spell",
  "img": "systems/pf1/icons/misc/magic-swirl.png",
  "sort": 0,
  "flags": {},
  "system": {
    "tags": [],
    "actions": [
      {
        "_id": "4i2909hpsr2wp07m",
        "name": "Use",
        "img": "systems/pf1/icons/misc/magic-swirl.png",
        "description": "",
        "tag": "",
        "activation": {
          "cost": 1,
          "type": "standard"
        },
        "unchainedAction": {
          "activation": {
            "cost": 2,
            "type": "action"
          }
        },
        "duration": {
          "value": "1 round/level; see text",
          "units": ""
        },
        "target": {
          "value": "one cloud-like effect, up to one 10-ft. cube/level"
        },
        "range": {
          "value": null,
          "units": "close",
          "maxIncrements": 1,
          "minValue": null,
          "minUnits": ""
        },
        "uses": {
          "autoDeductChargesCost": "",
          "self": {
            "value": 0,
            "maxFormula": "",
            "per": null
          },
          "per": "",
          "value": 0,
          "maxFormula": ""
        },
        "measureTemplate": {
          "type": "",
          "size": "0",
          "overrideColor": false,
          "customColor": "",
          "overrideTexture": false,
          "customTexture": ""
        },
        "attackName": "",
        "actionType": "spellsave",
        "attackBonus": "",
        "critConfirmBonus": "",
        "damage": {
          "parts": [],
          "critParts": [],
          "nonCritParts": []
        },
        "attackParts": [],
        "formulaicAttacks": {
          "count": {
            "formula": ""
          },
          "bonus": {
            "formula": ""
          },
          "label": null
        },
        "formula": "",
        "ability": {
          "attack": "",
          "damage": "",
          "damageMult": 1,
          "critRange": 20,
          "critMult": 2
        },
        "save": {
          "dc": "0",
          "type": "",
          "description": "see text"
        },
        "effectNotes": [],
        "attackNotes": [],
        "soundEffect": "",
        "powerAttack": {
          "multiplier": "",
          "damageBonus": 2,
          "critMultiplier": 1
        },
        "naturalAttack": {
          "primaryAttack": true,
          "secondary": {
            "attackBonus": "-5",
            "damageMult": 0.5
          }
        },
        "nonlethal": false,
        "usesAmmo": false,
        "spellEffect": "",
        "spellArea": "",
        "conditionals": [],
        "enh": {
          "value": null
        }
      }
    ],
    "uses": {
      "per": ""
    },
    "attackNotes": [],
    "effectNotes": [],
    "links": {
      "children": []
    },
    "scriptCalls": [],
    "learnedAt": {
      "class": [
        ["sorcerer/wizard", 4],
        ["druid", 4],
        ["alchemist", 4],
        ["bloodrager", 4],
        ["hunter", 4]
      ],
      "domain": [],
      "subDomain": [],
      "elementalSchool": [],
      "bloodline": []
    },
    "level": 4,
    "school": "trs",
    "types": "air",
    "components": {
      "verbal": true,
      "somatic": true
    },
    "sr": false,
    "shortDescription": "<p>You grant your lungs inhuman strength and capacity, allowing you to harmlessly and completely inhale one gas, fog, smoke, mist, or similar cloud-like effect. If the targeted cloud is a magical effect, you must succeed at a caster level check (DC 11 + the effect's caster level) to inhale it. Inhaling the cloud removes it from the area, leaving normal air in its place. If the cloud is too large for you to affect with a single casting of this spell, you may instead inhale a portion of the cloud, but you must inhale the portion of the cloud closest to you. This spell has no effect on gaseous creatures. It can only affect an instantaneous-duration cloud (such as a breath weapon) if you ready an action to cast the spell in response.  While inhaled, the cloud does not harm you. You may keep the cloud harmlessly contained within you for up to 1 round per level, but you must hold your breath to do so (even if you do not normally have to breathe). If the cloud has a duration, the time the cloud is contained within you counts toward that duration. As a standard action, you may release the stored cloud as a breath weapon, filling a 60-foot cone (or the cloud's original area, if smaller than a 60-foot cone). Any creature in the breath's area is subject to its normal effects, making saving throws and spell resistance checks as appropriate against the cloud's original DC. The exhaled cloud resumes its duration, if any. Exhaling the stored cloud ends this spell. If you do not exhale the cloud before this spell's duration expires, you suffer the cloud's effects and automatically fail any saving throw to resist it.</p>"
  }
}
