{
  "_id": "q35l6m4pggb4y98v",
  "name": "Elemental Aura",
  "type": "spell",
  "img": "systems/pf1/icons/misc/magic-swirl.png",
  "sort": 0,
  "flags": {},
  "system": {
    "tags": [],
    "actions": [
      {
        "_id": "czbva0yu5r4vlwmp",
        "name": "Use",
        "img": "systems/pf1/icons/misc/magic-swirl.png",
        "description": "",
        "tag": "",
        "activation": {
          "cost": 1,
          "type": "standard"
        },
        "unchainedAction": {
          "activation": {
            "cost": 2,
            "type": "action"
          }
        },
        "duration": {
          "value": "1 round/level (D)",
          "units": ""
        },
        "target": {
          "value": "you"
        },
        "range": {
          "value": null,
          "units": "personal",
          "maxIncrements": 1,
          "minValue": null,
          "minUnits": ""
        },
        "uses": {
          "autoDeductChargesCost": "",
          "self": {
            "value": 0,
            "maxFormula": "",
            "per": null
          },
          "per": "",
          "value": 0,
          "maxFormula": ""
        },
        "measureTemplate": {
          "type": "",
          "size": "0",
          "overrideColor": false,
          "customColor": "",
          "overrideTexture": false,
          "customTexture": ""
        },
        "attackName": "",
        "actionType": "spellsave",
        "attackBonus": "",
        "critConfirmBonus": "",
        "damage": {
          "parts": [],
          "critParts": [],
          "nonCritParts": []
        },
        "attackParts": [],
        "formulaicAttacks": {
          "count": {
            "formula": ""
          },
          "bonus": {
            "formula": ""
          },
          "label": null
        },
        "formula": "",
        "ability": {
          "attack": "",
          "damage": "",
          "damageMult": 1,
          "critRange": 20,
          "critMult": 2
        },
        "save": {
          "dc": "0",
          "type": "ref",
          "description": "Reflex half; see text"
        },
        "effectNotes": [],
        "attackNotes": [],
        "soundEffect": "",
        "powerAttack": {
          "multiplier": "",
          "damageBonus": 2,
          "critMultiplier": 1
        },
        "naturalAttack": {
          "primaryAttack": true,
          "secondary": {
            "attackBonus": "-5",
            "damageMult": 0.5
          }
        },
        "nonlethal": false,
        "usesAmmo": false,
        "spellEffect": "",
        "spellArea": "",
        "conditionals": [],
        "enh": {
          "value": null
        }
      }
    ],
    "uses": {
      "per": ""
    },
    "attackNotes": [],
    "effectNotes": [],
    "links": {
      "children": []
    },
    "scriptCalls": [],
    "learnedAt": {
      "class": [
        ["sorcerer/wizard", 3],
        ["alchemist", 3],
        ["magus", 3],
        ["bloodrager", 3]
      ],
      "domain": [],
      "subDomain": [],
      "elementalSchool": [],
      "bloodline": [["Boreal", 3]]
    },
    "level": 3,
    "school": "evo",
    "types": "acid, cold, electricity, or fire",
    "components": {
      "verbal": true,
      "somatic": true
    },
    "shortDescription": "<p>This spell forms an aura of energy around you, damaging all those that come near you. Choose an energy type: acid, cold, electricity, or fire. Creatures adjacent to you when this spell is cast and at the start of your turn take 2d6 points of energy damage of the selected type. This aura has an additional effect, depending upon the type of energy chosen.</p><p><b>Acid:</b> Creatures affected by your aura take 1 point of ongoing acid damage per round for 1 round per three caster levels, and are sickened for the duration of the ongoing acid damage.</p><p><b>Cold:</b> Creatures affected by your aura are fatigued. A creature that is already fatigued suffers no additional effect.</p><p><b>Electricity:</b> Creatures affected by your aura are staggered for 1 round.</p><p><b>Fire:</b> Creatures affected by your aura catch on fire (<i>Core Rulebook</i> 444).</p><p>Creatures adjacent to you are allowed a Reflex save to halve the damage and negate the additional effect. The aura's additional effects do not stack if a creature takes damage from your aura multiple times. You may only have one <i>elemental aura</i> in effect at one time. When you cast this spell to deal acid, cold, electricity, or fire damage, it is a spell of that type.</p>"
  }
}
