{
  "_id": "pfy97qyneoa391ek",
  "name": "Elemental Swarm",
  "type": "spell",
  "img": "systems/pf1/icons/misc/magic-swirl.png",
  "sort": 0,
  "flags": {},
  "system": {
    "tags": [],
    "actions": [
      {
        "_id": "o9rxbkrm6m3yof41",
        "name": "Use",
        "img": "systems/pf1/icons/misc/magic-swirl.png",
        "description": "",
        "tag": "",
        "activation": {
          "cost": 10,
          "type": "minute"
        },
        "unchainedAction": {
          "activation": {
            "cost": 10,
            "type": "minute"
          }
        },
        "duration": {
          "value": "10 min./level",
          "units": ""
        },
        "target": {
          "value": ""
        },
        "range": {
          "value": null,
          "units": "medium",
          "maxIncrements": 1,
          "minValue": null,
          "minUnits": ""
        },
        "uses": {
          "autoDeductChargesCost": "",
          "self": {
            "value": 0,
            "maxFormula": "",
            "per": null
          },
          "per": "",
          "value": 0,
          "maxFormula": ""
        },
        "measureTemplate": {
          "type": "",
          "size": "0",
          "overrideColor": false,
          "customColor": "",
          "overrideTexture": false,
          "customTexture": ""
        },
        "attackName": "",
        "actionType": "other",
        "attackBonus": "",
        "critConfirmBonus": "",
        "damage": {
          "parts": [],
          "critParts": [],
          "nonCritParts": []
        },
        "attackParts": [],
        "formulaicAttacks": {
          "count": {
            "formula": ""
          },
          "bonus": {
            "formula": ""
          },
          "label": null
        },
        "formula": "",
        "ability": {
          "attack": "",
          "damage": "",
          "damageMult": 1,
          "critRange": 20,
          "critMult": 2
        },
        "save": {
          "dc": "0",
          "type": "",
          "description": ""
        },
        "effectNotes": [],
        "attackNotes": [],
        "soundEffect": "",
        "powerAttack": {
          "multiplier": "",
          "damageBonus": 2,
          "critMultiplier": 1
        },
        "naturalAttack": {
          "primaryAttack": true,
          "secondary": {
            "attackBonus": "-5",
            "damageMult": 0.5
          }
        },
        "nonlethal": false,
        "usesAmmo": false,
        "spellEffect": "two or more summoned creatures, no two of which can be more than 30 ft. apart",
        "spellArea": "",
        "conditionals": [],
        "enh": {
          "value": null
        }
      }
    ],
    "uses": {
      "per": ""
    },
    "attackNotes": [],
    "effectNotes": [],
    "links": {
      "children": []
    },
    "scriptCalls": [],
    "learnedAt": {
      "class": [
        ["druid", 9],
        ["witch", 9],
        ["shaman", 9]
      ],
      "domain": [
        ["Air", 9],
        ["Earth", 9],
        ["Fire", 9],
        ["Water", 9]
      ],
      "subDomain": [],
      "elementalSchool": [],
      "bloodline": [["Elemental", 9]]
    },
    "level": 9,
    "school": "con",
    "subschool": "summoning",
    "types": "see text",
    "components": {
      "verbal": true,
      "somatic": true
    },
    "sr": false,
    "shortDescription": "<p>This spell opens a portal to an Elemental Plane and summons elementals from it. A druid can choose any plane (Air, Earth, Fire, or Water); a cleric opens a portal to the plane matching his domain.</p><p>When the spell is complete, 2d4 Large elementals appear. Ten minutes later, 1d4 Huge elementals appear. Ten minutes after that, one greater elemental appears. Each elemental has maximum hit points per HD. Once these creatures appear, they serve you for the duration of the spell.</p><p>The elementals obey you explicitly and never attack you, even if someone else manages to gain control over them. You do not need to concentrate to maintain control over the elementals. You can dismiss them singly or in groups at any time.</p><p>When you use a summoning spell to summon an air, earth, fire, or water creature, it is a spell of that type.</p>"
  }
}
