{
  "_id": "bc3nc0ri47egssht",
  "name": "Enervation",
  "type": "spell",
  "img": "systems/pf1/icons/misc/magic-swirl.png",
  "sort": 0,
  "flags": {},
  "system": {
    "tags": [],
    "actions": [
      {
        "_id": "9hn29dukbzskkowz",
        "name": "Use",
        "img": "systems/pf1/icons/misc/magic-swirl.png",
        "description": "",
        "tag": "",
        "activation": {
          "cost": 1,
          "type": "standard"
        },
        "unchainedAction": {
          "activation": {
            "cost": 2,
            "type": "action"
          }
        },
        "duration": {
          "value": "instantaneous",
          "units": ""
        },
        "target": {
          "value": ""
        },
        "range": {
          "value": null,
          "units": "close",
          "maxIncrements": 1,
          "minValue": null,
          "minUnits": ""
        },
        "uses": {
          "autoDeductChargesCost": "",
          "self": {
            "value": 0,
            "maxFormula": "",
            "per": null
          },
          "per": "",
          "value": 0,
          "maxFormula": ""
        },
        "measureTemplate": {
          "type": "",
          "size": "0",
          "overrideColor": false,
          "customColor": "",
          "overrideTexture": false,
          "customTexture": ""
        },
        "attackName": "",
        "actionType": "other",
        "attackBonus": "",
        "critConfirmBonus": "",
        "damage": {
          "parts": [],
          "critParts": [],
          "nonCritParts": []
        },
        "attackParts": [],
        "formulaicAttacks": {
          "count": {
            "formula": ""
          },
          "bonus": {
            "formula": ""
          },
          "label": null
        },
        "formula": "",
        "ability": {
          "attack": "",
          "damage": "",
          "damageMult": 1,
          "critRange": 20,
          "critMult": 2
        },
        "save": {
          "dc": "0",
          "type": "",
          "description": ""
        },
        "effectNotes": [],
        "attackNotes": [],
        "soundEffect": "",
        "powerAttack": {
          "multiplier": "",
          "damageBonus": 2,
          "critMultiplier": 1
        },
        "naturalAttack": {
          "primaryAttack": true,
          "secondary": {
            "attackBonus": "-5",
            "damageMult": 0.5
          }
        },
        "nonlethal": false,
        "usesAmmo": false,
        "spellEffect": "ray of negative energy",
        "spellArea": "",
        "conditionals": [],
        "enh": {
          "value": null
        }
      }
    ],
    "uses": {
      "per": ""
    },
    "attackNotes": [],
    "effectNotes": [],
    "links": {
      "children": []
    },
    "scriptCalls": [],
    "learnedAt": {
      "class": [
        ["sorcerer/wizard", 4],
        ["witch", 4],
        ["bloodrager", 4],
        ["mesmerist", 4],
        ["spiritualist", 4]
      ],
      "domain": [],
      "subDomain": [
        ["Loss", 5],
        ["Undead", 4]
      ],
      "elementalSchool": [],
      "bloodline": []
    },
    "level": 4,
    "school": "nec",
    "components": {
      "verbal": true,
      "somatic": true
    },
    "shortDescription": "<p>You point your finger and fire a black ray of negative energy that suppresses the life force of any living creature it strikes. You must make a ranged touch attack to hit. If you hit, the subject gains 1d4 temporary negative levels (see Appendix 1). Negative levels stack.</p><p>Assuming the subject survives, it regains lost levels after a number of hours equal to your caster level (maximum 15 hours).</p><p>Usually, negative levels have a chance of becoming permanent, but the negative levels from <i>enervation</i> don't last long enough to do so.</p><p>An undead creature struck by the ray gains 1d4 x 5 temporary hit points for 1 hour.</p>"
  }
}
