{
  "_id": "ol05jfb606v0lzj9",
  "name": "Freezing Sphere",
  "type": "spell",
  "img": "systems/pf1/icons/misc/magic-swirl.png",
  "sort": 0,
  "flags": {},
  "system": {
    "tags": [],
    "actions": [
      {
        "_id": "oh6m01aa9yid3o37",
        "name": "Use",
        "img": "systems/pf1/icons/misc/magic-swirl.png",
        "description": "",
        "tag": "",
        "activation": {
          "cost": 1,
          "type": "standard"
        },
        "unchainedAction": {
          "activation": {
            "cost": 2,
            "type": "action"
          }
        },
        "duration": {
          "value": "instantaneous or 1 round/level; see text",
          "units": ""
        },
        "target": {
          "value": "see Text"
        },
        "range": {
          "value": null,
          "units": "long",
          "maxIncrements": 1,
          "minValue": null,
          "minUnits": ""
        },
        "uses": {
          "autoDeductChargesCost": "",
          "self": {
            "value": 0,
            "maxFormula": "",
            "per": null
          },
          "per": "",
          "value": 0,
          "maxFormula": ""
        },
        "measureTemplate": {
          "type": "",
          "size": "0",
          "overrideColor": false,
          "customColor": "",
          "overrideTexture": false,
          "customTexture": ""
        },
        "attackName": "",
        "actionType": "spellsave",
        "attackBonus": "",
        "critConfirmBonus": "",
        "damage": {
          "parts": [],
          "critParts": [],
          "nonCritParts": []
        },
        "attackParts": [],
        "formulaicAttacks": {
          "count": {
            "formula": ""
          },
          "bonus": {
            "formula": ""
          },
          "label": null
        },
        "formula": "",
        "ability": {
          "attack": "",
          "damage": "",
          "damageMult": 1,
          "critRange": 20,
          "critMult": 2
        },
        "save": {
          "dc": "0",
          "type": "ref",
          "description": "Reflex half; see text"
        },
        "effectNotes": [],
        "attackNotes": [],
        "soundEffect": "",
        "powerAttack": {
          "multiplier": "",
          "damageBonus": 2,
          "critMultiplier": 1
        },
        "naturalAttack": {
          "primaryAttack": true,
          "secondary": {
            "attackBonus": "-5",
            "damageMult": 0.5
          }
        },
        "nonlethal": false,
        "usesAmmo": false,
        "spellEffect": "",
        "spellArea": "",
        "conditionals": [],
        "enh": {
          "value": null
        }
      }
    ],
    "uses": {
      "per": ""
    },
    "attackNotes": [],
    "effectNotes": [],
    "links": {
      "children": []
    },
    "scriptCalls": [],
    "learnedAt": {
      "class": [
        ["sorcerer/wizard", 6],
        ["magus", 6],
        ["occultist", 6]
      ],
      "domain": [],
      "subDomain": [["Ice", 7]],
      "elementalSchool": [],
      "bloodline": []
    },
    "level": 6,
    "school": "evo",
    "types": "cold",
    "components": {
      "verbal": true,
      "somatic": true,
      "focus": true
    },
    "materials": {
      "focus": "a small crystal sphere"
    },
    "shortDescription": "<p><i>Freezing sphere</i> creates a frigid globe of cold energy that streaks from your fingertips to the location you select, where it explodes in a 40-foot-radius burst, dealing 1d6 points of cold damage per caster level (maximum 15d6) to each creature in the area. A creature of the water subtype instead takes 1d8 points of cold damage per caster level (maximum 15d8) and is staggered for 1d4 rounds.</p><p>If the <i>freezing sphere</i> strikes a body of water or a liquid that is principally water (not including water-based creatures), it freezes the liquid to a depth of 6 inches in a 40-foot radius. This ice lasts for 1 round per caster level. Creatures that were swimming on the surface of a targeted body of water become trapped in the ice. Attempting to break free is a full-round action. A trapped creature must make a DC 25 Strength check or a DC 25 Escape Artist check to do so.</p><p>You can refrain from firing the globe after completing the spell, if you wish. Treat this as a touch spell for which you are holding the charge. You can hold the charge for as long as 1 round per level, at the end of which time the <i>freezing sphere</i> bursts centered on you (and you receive no saving throw to resist its effect). Firing the globe in a later round is a standard action.</p>"
  }
}
