{
  "_id": "8vu9wseuc1em7afq",
  "name": "Grasping Tentacles",
  "type": "spell",
  "img": "systems/pf1/icons/misc/magic-swirl.png",
  "sort": 0,
  "flags": {},
  "system": {
    "tags": [],
    "actions": [
      {
        "_id": "ctvvoyyd6mrgfdjm",
        "name": "Use",
        "img": "systems/pf1/icons/misc/magic-swirl.png",
        "description": "",
        "tag": "",
        "activation": {
          "cost": 1,
          "type": "standard"
        },
        "unchainedAction": {
          "activation": {
            "cost": 2,
            "type": "action"
          }
        },
        "duration": {
          "value": "1 round/level (D)",
          "units": ""
        },
        "target": {
          "value": ""
        },
        "range": {
          "value": null,
          "units": "medium",
          "maxIncrements": 1,
          "minValue": null,
          "minUnits": ""
        },
        "uses": {
          "autoDeductChargesCost": "",
          "self": {
            "value": 0,
            "maxFormula": "",
            "per": null
          },
          "per": "",
          "value": 0,
          "maxFormula": ""
        },
        "measureTemplate": {
          "type": "",
          "size": "0",
          "overrideColor": false,
          "customColor": "",
          "overrideTexture": false,
          "customTexture": ""
        },
        "attackName": "",
        "actionType": "",
        "attackBonus": "",
        "critConfirmBonus": "",
        "damage": {
          "parts": [],
          "critParts": [],
          "nonCritParts": []
        },
        "attackParts": [],
        "formulaicAttacks": {
          "count": {
            "formula": ""
          },
          "bonus": {
            "formula": ""
          },
          "label": null
        },
        "formula": "",
        "ability": {
          "attack": "",
          "damage": "",
          "damageMult": 1,
          "critRange": 20,
          "critMult": 2
        },
        "save": {
          "dc": "0",
          "type": "",
          "description": ""
        },
        "effectNotes": [],
        "attackNotes": [],
        "soundEffect": "",
        "powerAttack": {
          "multiplier": "",
          "damageBonus": 2,
          "critMultiplier": 1
        },
        "naturalAttack": {
          "primaryAttack": true,
          "secondary": {
            "attackBonus": "-5",
            "damageMult": 0.5
          }
        },
        "nonlethal": false,
        "usesAmmo": false,
        "spellEffect": "",
        "spellArea": "20-ft.-radius spread",
        "conditionals": [],
        "enh": {
          "value": null
        }
      }
    ],
    "uses": {
      "per": ""
    },
    "attackNotes": [],
    "effectNotes": [],
    "links": {
      "children": []
    },
    "scriptCalls": [],
    "learnedAt": {
      "class": [
        ["sorcerer/wizard", 3],
        ["summoner", 3],
        ["witch", 3],
        ["magus", 3],
        ["bloodrager", 3],
        ["unchained Summoner", 3]
      ],
      "domain": [],
      "subDomain": [],
      "elementalSchool": [],
      "bloodline": []
    },
    "level": 3,
    "school": "con",
    "subschool": "creation",
    "components": {
      "verbal": true,
      "somatic": true,
      "material": true
    },
    "materials": {
      "value": "octopus or squid tentacle"
    },
    "sr": false,
    "shortDescription": "<p>This spell functions as <i>black tentacles</i>, except the tentacles blindly grasp at the targets' eyes and ears, and tug at their hair, clothes, and equipment. Instead of grapple attempts, the tentacles attempt dirty trick combat maneuver checks (CMB = your caster level + 4 [the tentacles' Strength bonus] + 1 [the tentacles' size bonus]). Roll on the following table to determine the effect of a successful dirty trick combat maneuver check. <table border ='1'><tr><th>d%</th><th>Effect</th></tr><tr><td>1-20</td><td>Blinded. The tentacles suction over the victim's eyes.</td></tr><tr><td>21-40</td><td>Deafened. The tentacles clap themselves around the victim's ears.</td></tr><tr><td>41-60</td><td>Entangled. The tentacles weave around the victim's limbs.</td></tr><tr><td>61-80</td><td>Shaken. The tentacles menace the victim from all sides. This is a fear effect.</td></tr><tr><td>81-100</td><td>Sickened. The tentacles give off sickening vapors. This is a poisonUM effect.</td></tr></table></p>"
  }
}
