{
  "_id": "478jgozgfbt20u0q",
  "name": "Hydraulic Torrent",
  "type": "spell",
  "img": "systems/pf1/icons/misc/magic-swirl.png",
  "sort": 0,
  "flags": {},
  "system": {
    "tags": [],
    "actions": [
      {
        "_id": "l5i29r8vqlox07e0",
        "name": "Use",
        "img": "systems/pf1/icons/misc/magic-swirl.png",
        "description": "",
        "tag": "",
        "activation": {
          "cost": 1,
          "type": "standard"
        },
        "unchainedAction": {
          "activation": {
            "cost": 2,
            "type": "action"
          }
        },
        "duration": {
          "value": "instantaneous",
          "units": ""
        },
        "target": {
          "value": ""
        },
        "range": {
          "value": "60",
          "units": "ft",
          "maxIncrements": 1,
          "minValue": null,
          "minUnits": ""
        },
        "uses": {
          "autoDeductChargesCost": "",
          "self": {
            "value": 0,
            "maxFormula": "",
            "per": null
          },
          "per": "",
          "value": 0,
          "maxFormula": ""
        },
        "measureTemplate": {
          "type": "",
          "size": "0",
          "overrideColor": false,
          "customColor": "",
          "overrideTexture": false,
          "customTexture": ""
        },
        "attackName": "",
        "actionType": "",
        "attackBonus": "",
        "critConfirmBonus": "",
        "damage": {
          "parts": [],
          "critParts": [],
          "nonCritParts": []
        },
        "attackParts": [],
        "formulaicAttacks": {
          "count": {
            "formula": ""
          },
          "bonus": {
            "formula": ""
          },
          "label": null
        },
        "formula": "",
        "ability": {
          "attack": "",
          "damage": "",
          "damageMult": 1,
          "critRange": 20,
          "critMult": 2
        },
        "save": {
          "dc": "0",
          "type": "",
          "description": ""
        },
        "effectNotes": [],
        "attackNotes": [],
        "soundEffect": "",
        "powerAttack": {
          "multiplier": "",
          "damageBonus": 2,
          "critMultiplier": 1
        },
        "naturalAttack": {
          "primaryAttack": true,
          "secondary": {
            "attackBonus": "-5",
            "damageMult": 0.5
          }
        },
        "nonlethal": false,
        "usesAmmo": false,
        "spellEffect": "",
        "spellArea": "60-ft. line",
        "conditionals": [],
        "enh": {
          "value": null
        }
      }
    ],
    "uses": {
      "per": ""
    },
    "attackNotes": [],
    "effectNotes": [],
    "links": {
      "children": []
    },
    "scriptCalls": [],
    "learnedAt": {
      "class": [
        ["sorcerer/wizard", 3],
        ["druid", 3],
        ["magus", 3],
        ["bloodrager", 3],
        ["hunter", 3]
      ],
      "domain": [],
      "subDomain": [],
      "elementalSchool": [],
      "bloodline": []
    },
    "level": 3,
    "school": "evo",
    "types": "water",
    "components": {
      "verbal": true,
      "somatic": true
    },
    "shortDescription": "<p>You call forth a powerful stream of water that batters all creatures and obstacles in its path until it strikes something it cannot push past. Against creatures and moveable objects this stream acts as a bull rush. You can bull rush creatures of any size, not just those one size larger than your own. Make a combat maneuver check and apply its results to each creature within the area. Your CMB for this bull rush is equal to your caster level plus your Intelligence, Wisdom, or Charisma modifier, whichever is highest. This bull rush does not provoke an attack of opportunity.</p><p>Against immovable objects this stream instead allows you to make a Strength check to destroy the target. When attempting to break an object, the stream has an effective Strength equal to your caster level plus the ability score modifier as above. The Break DC depends on the object you're trying to break-page 175 of the <i>Pathfinder RPG <i>Core Rulebook</i></i> lists several sample Break DCs for various objects.</p><p><i>Hydraulic torrent</i> extinguishes any normal fires it encounters along its path. Magical fires are unaffected.</p>"
  }
}
