{
  "name": "Mark of Buoyancy",
  "type": "spell",
  "img": "icons/magic/control/debuff-energy-hold-blue-yellow.webp",
  "system": {
    "tags": [],
    "actions": [
      {
        "_id": "1465BN7lg8q9IF59",
        "name": "Use",
        "img": "icons/magic/control/debuff-energy-hold-blue-yellow.webp",
        "description": "",
        "tag": "",
        "activation": {
          "cost": 1,
          "type": "standard"
        },
        "unchainedAction": {
          "activation": {
            "cost": 2,
            "type": "action"
          }
        },
        "duration": {
          "value": "1 hour/level (D)",
          "units": ""
        },
        "target": {
          "value": "touched object weighing up to 10 lbs./level"
        },
        "range": {
          "value": null,
          "units": "touch",
          "maxIncrements": 1,
          "minValue": null,
          "minUnits": ""
        },
        "uses": {
          "autoDeductChargesCost": "",
          "self": {
            "value": 0,
            "maxFormula": "",
            "per": ""
          }
        },
        "measureTemplate": {
          "type": "",
          "size": "",
          "overrideColor": false,
          "customColor": "",
          "overrideTexture": false,
          "customTexture": ""
        },
        "attackName": "",
        "actionType": "spellsave",
        "attackBonus": "",
        "critConfirmBonus": "",
        "damage": {
          "parts": [],
          "critParts": [],
          "nonCritParts": []
        },
        "attackParts": [],
        "formulaicAttacks": {
          "count": {
            "formula": ""
          },
          "bonus": {
            "formula": ""
          },
          "label": null
        },
        "formula": "",
        "ability": {
          "attack": null,
          "damage": "",
          "damageMult": 1,
          "critRange": 20,
          "critMult": 2
        },
        "save": {
          "dc": "",
          "type": "will",
          "description": "Will negates (object)"
        },
        "effectNotes": [],
        "attackNotes": [],
        "soundEffect": "",
        "powerAttack": {
          "multiplier": null,
          "damageBonus": 2,
          "critMultiplier": 1
        },
        "naturalAttack": {
          "primaryAttack": true,
          "secondary": {
            "attackBonus": "-5",
            "damageMult": 0.5
          }
        },
        "nonlethal": false,
        "touch": true,
        "usesAmmo": false,
        "spellEffect": "",
        "spellArea": "",
        "conditionals": [],
        "enh": {
          "value": null
        }
      }
    ],
    "uses": {
      "autoDeductChargesCost": ""
    },
    "attackNotes": [],
    "effectNotes": [],
    "links": {
      "children": []
    },
    "scriptCalls": [],
    "learnedAt": {
      "class": [
        ["arcanist", 3],
        ["bard", 3],
        ["cleric", 3],
        ["magus", 3],
        ["occultist", 3],
        ["oracle", 3],
        ["psychic", 3],
        ["skald", 3],
        ["sorcerer", 3],
        ["summoner", 3],
        ["summoner (unchained)", 3],
        ["warpriest", 3],
        ["wizard", 3]
      ],
      "domain": [],
      "subDomain": [],
      "elementalSchool": [],
      "bloodline": []
    },
    "level": 3,
    "school": "trs",
    "components": {
      "verbal": true,
      "somatic": true
    },
    "spellbook": "",
    "shortDescription": "<p>You cause the touched object to become lighter than air, such that it floats if not weighted down. The object is effectively weightless and, if left unattended, will rise to a number of feet off the ground equal to twice your caster level, and then remain floating at that height. The object can be pushed, dragged, carried, or otherwise moved normally, and it can be carried by the wind if not held or secured. The object is buoyant enough that it can carry an additional weight of up to 10 pounds per caster level with it, potentially allowing it to be used to carry small objects or creatures.</p><p><em>Mark of buoyancy</em> can be made permanent with a @Compendium[pf1.spells.nsxngq65mbrzgwnm]{permanency} spell cast by a caster of 11th level or higher at the cost of 7,500 gp.</p>"
  },
  "flags": {},
  "sort": 0,
  "_id": "iQTXwvJKnRqgCkah"
}
