{
  "_id": "y3hqzfv3busmvhlc",
  "name": "Nine Lives",
  "type": "spell",
  "img": "systems/pf1/icons/misc/magic-swirl.png",
  "sort": 0,
  "flags": {},
  "system": {
    "tags": [],
    "actions": [
      {
        "_id": "qslijrea1lah0eus",
        "name": "Use",
        "img": "systems/pf1/icons/misc/magic-swirl.png",
        "description": "",
        "tag": "",
        "activation": {
          "cost": 1,
          "type": "standard"
        },
        "unchainedAction": {
          "activation": {
            "cost": 2,
            "type": "action"
          }
        },
        "duration": {
          "value": "1 hour/level",
          "units": ""
        },
        "target": {
          "value": "one creature touched"
        },
        "range": {
          "value": null,
          "units": "touch",
          "maxIncrements": 1,
          "minValue": null,
          "minUnits": ""
        },
        "uses": {
          "autoDeductChargesCost": "",
          "self": {
            "value": 0,
            "maxFormula": "",
            "per": null
          },
          "per": "",
          "value": 0,
          "maxFormula": ""
        },
        "measureTemplate": {
          "type": "",
          "size": "0",
          "overrideColor": false,
          "customColor": "",
          "overrideTexture": false,
          "customTexture": ""
        },
        "attackName": "",
        "actionType": "spellsave",
        "attackBonus": "",
        "critConfirmBonus": "",
        "damage": {
          "parts": [],
          "critParts": [],
          "nonCritParts": []
        },
        "attackParts": [],
        "formulaicAttacks": {
          "count": {
            "formula": ""
          },
          "bonus": {
            "formula": ""
          },
          "label": null
        },
        "formula": "",
        "ability": {
          "attack": "",
          "damage": "",
          "damageMult": 1,
          "critRange": 20,
          "critMult": 2
        },
        "save": {
          "dc": "0",
          "type": "will",
          "description": "Will negates (harmless)"
        },
        "effectNotes": [],
        "attackNotes": [],
        "soundEffect": "",
        "powerAttack": {
          "multiplier": "",
          "damageBonus": 2,
          "critMultiplier": 1
        },
        "naturalAttack": {
          "primaryAttack": true,
          "secondary": {
            "attackBonus": "-5",
            "damageMult": 0.5
          }
        },
        "nonlethal": false,
        "usesAmmo": false,
        "spellEffect": "",
        "spellArea": "",
        "conditionals": [],
        "enh": {
          "value": null
        }
      }
    ],
    "uses": {
      "per": ""
    },
    "attackNotes": [],
    "effectNotes": [],
    "links": {
      "children": []
    },
    "scriptCalls": [],
    "learnedAt": {
      "class": [
        ["cleric/oracle", 8],
        ["witch", 8]
      ],
      "domain": [],
      "subDomain": [],
      "elementalSchool": [],
      "bloodline": []
    },
    "level": 8,
    "school": "abj",
    "components": {
      "verbal": true,
      "somatic": true,
      "material": true,
      "divineFocus": 2
    },
    "materials": {
      "value": "a cat's whisker"
    },
    "shortDescription": "<p>Despite its name, this powerful ward does not grant the target multiple lives, but rather gives the target the ability to get out of trouble and relieves harmful effects and conditions. For the spell's duration, the target can use any of the following abilities as an immediate action, but only up to a total of nine times, at which point the spell ends.  Cat's Luck: The target can use this ability when it fails a saving throw. The target can reroll the failed saving throw, but must take the new result even if it is worse. <i>Fortitude</i>: The target uses this ability when a critical hit or sneak attack is scored against it. The critical hit or sneak attack is negated and the damage is instead rolled normally. <i>Rejuvenate</i>: The target uses this ability when it is reduced to 0 or fewer hit points. The target is instantly healed 3d6 points of damage. If enough hit points are regained to bring the target to positive hit points, it does not fall unconscious. If it is not enough to leave the target with positive hit points, the target automatically stabilizes. Both of these effects work even if the damage was originally enough to kill the target. <i>Shake Off</i>: The target uses this ability when it is under the effects of any of the following conditions: blinded, confused, cowering, dazed, dazzled, entangled, exhausted, fatigued, frightened, nauseated, panicked, shaken, sickened, or staggered. Using this ability ends one of those conditions. <i>Shimmy Out</i>: The target uses this ability when it is grappled or pinned. The target automatically escapes the grapple as if it had succeeded at an Escape Artist check to escape the grapple. <i>Stay Up</i>: The target uses this ability when it is tripped or otherwise knocked prone. The target steadies itself and stays upright.</p>"
  }
}
