{
  "_id": "6yu1ubq7tvb5xpbi",
  "name": "Pox of Rumors",
  "type": "spell",
  "img": "systems/pf1/icons/misc/magic-swirl.png",
  "sort": 0,
  "flags": {},
  "system": {
    "tags": [],
    "actions": [
      {
        "_id": "k1mlma7800p5opj3",
        "name": "Use",
        "img": "systems/pf1/icons/misc/magic-swirl.png",
        "description": "",
        "tag": "",
        "activation": {
          "cost": 8,
          "type": "hour"
        },
        "unchainedAction": {
          "activation": {
            "cost": 8,
            "type": "hour"
          }
        },
        "duration": {
          "value": "1 day/level",
          "units": ""
        },
        "target": {
          "value": "one creature"
        },
        "range": {
          "value": null,
          "units": "",
          "maxIncrements": 1,
          "minValue": null,
          "minUnits": ""
        },
        "uses": {
          "autoDeductChargesCost": "",
          "self": {
            "value": 0,
            "maxFormula": "",
            "per": null
          },
          "per": "",
          "value": 0,
          "maxFormula": ""
        },
        "measureTemplate": {
          "type": "",
          "size": "0",
          "overrideColor": false,
          "customColor": "",
          "overrideTexture": false,
          "customTexture": ""
        },
        "attackName": "",
        "actionType": "spellsave",
        "attackBonus": "",
        "critConfirmBonus": "",
        "damage": {
          "parts": [],
          "critParts": [],
          "nonCritParts": []
        },
        "attackParts": [],
        "formulaicAttacks": {
          "count": {
            "formula": ""
          },
          "bonus": {
            "formula": ""
          },
          "label": null
        },
        "formula": "",
        "ability": {
          "attack": "",
          "damage": "",
          "damageMult": 1,
          "critRange": 20,
          "critMult": 2
        },
        "save": {
          "dc": "0",
          "type": "will",
          "description": "Will negates, then Will partial (see text)"
        },
        "effectNotes": [],
        "attackNotes": [],
        "soundEffect": "",
        "powerAttack": {
          "multiplier": "",
          "damageBonus": 2,
          "critMultiplier": 1
        },
        "naturalAttack": {
          "primaryAttack": true,
          "secondary": {
            "attackBonus": "-5",
            "damageMult": 0.5
          }
        },
        "nonlethal": false,
        "usesAmmo": false,
        "spellEffect": "",
        "spellArea": "",
        "conditionals": [],
        "enh": {
          "value": null
        }
      }
    ],
    "uses": {
      "per": ""
    },
    "attackNotes": [],
    "effectNotes": [],
    "links": {
      "children": []
    },
    "scriptCalls": [],
    "learnedAt": {
      "class": [
        ["sorcerer/wizard", 7],
        ["cleric/oracle", 7],
        ["bard", 5],
        ["witch", 7],
        ["psychic", 7],
        ["mesmerist", 5],
        ["spiritualist", 5]
      ],
      "domain": [],
      "subDomain": [],
      "elementalSchool": [],
      "bloodline": []
    },
    "level": 7,
    "school": "enc",
    "subschool": "compulsion",
    "types": "curse, mind-affecting",
    "components": {
      "verbal": true,
      "somatic": true,
      "material": true
    },
    "materials": {
      "value": "a physical connection to the target; see text"
    },
    "shortDescription": "<p>You curse the target to attract negative assumptions and rumors of a sort you specify when you cast the spell. If the target fails the initial save to negate the curse, every day that it spends in a settlement, it must attempt a Will save. If it fails, it accidentally says or does something that makes others assume the rumor you specified is true in some way that is unflattering or incriminating. If the creature is not aware of the nature of the rumors, it takes a -4 penalty on these secondary saves. After the first failed save, the attitude each resident in the settlement has regarding the target is worsened by one step. For each additional failure, the target becomes the victim of focused harassment. A group of residents taunts or attacks the creature, potentially sending the authorities to investigate if the rumor indicates criminal guilt.  The spell can be cast at any distance. The difficulty of the save depends on your knowledge of the subject and what sort of physical connection you have to that creature. The target gains the same bonuses and penalties on its Will save to resist this spell as the bonuses and penalties that apply to the <i>scrying</i> spell (including a +5 bonus if the target is on another plane), except that you can't cast <i>Pox of Rumors</i> without at least a possession or garment to use as the material component, and the target takes no penalty when you use a possession or garment and only a -5 penalty when you use a piece of the target's body. <i>Pox of Rumors</i> is a curse, and until its duration expires, it can be removed only by <i>remove curse</i> or similar magic.</p>"
  }
}
