{
  "name": "Realm Retribution",
  "type": "spell",
  "img": "icons/magic/control/silhouette-hold-beam-blue.webp",
  "system": {
    "tags": [],
    "actions": [
      {
        "_id": "ENM56QJ4NKPUVyDi",
        "name": "Use",
        "img": "icons/magic/control/silhouette-hold-beam-blue.webp",
        "description": "",
        "tag": "",
        "activation": {
          "cost": 1,
          "type": "standard"
        },
        "unchainedAction": {
          "activation": {
            "cost": 2,
            "type": "action"
          }
        },
        "duration": {
          "value": "1 round/level",
          "units": ""
        },
        "target": {
          "value": "creature touched"
        },
        "range": {
          "value": null,
          "units": "touch",
          "maxIncrements": 1,
          "minValue": null,
          "minUnits": ""
        },
        "uses": {
          "autoDeductChargesCost": "",
          "self": {
            "value": 0,
            "maxFormula": "",
            "per": ""
          }
        },
        "measureTemplate": {
          "type": "",
          "size": "",
          "overrideColor": false,
          "customColor": "",
          "overrideTexture": false,
          "customTexture": ""
        },
        "attackName": "",
        "actionType": "msak",
        "attackBonus": "",
        "critConfirmBonus": "",
        "damage": {
          "parts": [],
          "critParts": [],
          "nonCritParts": []
        },
        "attackParts": [],
        "formulaicAttacks": {
          "count": {
            "formula": ""
          },
          "bonus": {
            "formula": ""
          },
          "label": ""
        },
        "formula": "",
        "ability": {
          "attack": "",
          "damage": "",
          "damageMult": 1,
          "critRange": 20,
          "critMult": 2
        },
        "save": {
          "dc": "",
          "type": "will",
          "description": "Will negates (see text)"
        },
        "effectNotes": [],
        "attackNotes": [],
        "soundEffect": "",
        "powerAttack": {
          "multiplier": null,
          "damageBonus": 2,
          "critMultiplier": 1
        },
        "naturalAttack": {
          "primaryAttack": true,
          "secondary": {
            "attackBonus": "-5",
            "damageMult": 0.5
          }
        },
        "nonlethal": false,
        "touch": true,
        "usesAmmo": false,
        "spellEffect": "",
        "spellArea": "",
        "conditionals": [],
        "enh": {
          "value": null
        }
      }
    ],
    "uses": {
      "autoDeductChargesCost": ""
    },
    "attackNotes": [],
    "effectNotes": [],
    "links": {
      "children": []
    },
    "scriptCalls": [],
    "learnedAt": {
      "class": [
        ["cleric", 8],
        ["inquisitor", 6],
        ["oracle", 8],
        ["warpriest", 6]
      ],
      "domain": [],
      "subDomain": [],
      "elementalSchool": [],
      "bloodline": []
    },
    "level": 8,
    "school": "con",
    "subschool": "teleportation",
    "components": {
      "verbal": true,
      "somatic": true
    },
    "spellbook": "",
    "sr": false,
    "shortDescription": "<p>All attacks made by the target match your alignment, counting as either chaotic, evil, good, or lawful as appropriate. If your alignment includes multiple alignment components, such as lawful good, you select one alignment component to impart to the target. Whenever the target confirms a critical hit against or takes damage from a creature, that creature must attempt a Will save. On a failed save, the creature is sent to the Outer Plane matching your alignment, as per @Compendium[pf1.spells.q3st18udsalnyz5v]{plane shift}, and the spell ends. A warpriest treats this spell as a 6th-level cleric spell for the purposes of preparing the spell, determining DCs, and so forth.</p>"
  },
  "flags": {},
  "sort": 0,
  "_id": "DElMwKX5Ub8hWCoT"
}
