{
  "name": "Revealing Light",
  "type": "spell",
  "img": "icons/magic/light/beam-strike-orange-gold.webp",
  "system": {
    "tags": [],
    "actions": [
      {
        "_id": "EmnjNrsvi7AHI8nY",
        "name": "Use",
        "img": "icons/magic/light/beam-strike-orange-gold.webp",
        "description": "",
        "tag": "",
        "activation": {
          "cost": 1,
          "type": "standard"
        },
        "unchainedAction": {
          "activation": {
            "cost": 2,
            "type": "action"
          }
        },
        "duration": {
          "value": "10 minutes/level",
          "units": ""
        },
        "target": {
          "value": "object touched"
        },
        "range": {
          "value": null,
          "units": "touch",
          "maxIncrements": 1,
          "minValue": null,
          "minUnits": ""
        },
        "uses": {
          "autoDeductChargesCost": "",
          "self": {
            "value": 0,
            "maxFormula": "",
            "per": ""
          }
        },
        "measureTemplate": {
          "type": "circle",
          "size": "20",
          "overrideColor": false,
          "customColor": "",
          "overrideTexture": false,
          "customTexture": ""
        },
        "attackName": "",
        "actionType": "msak",
        "attackBonus": "",
        "critConfirmBonus": "",
        "damage": {
          "parts": [],
          "critParts": [],
          "nonCritParts": []
        },
        "attackParts": [],
        "formulaicAttacks": {
          "count": {
            "formula": ""
          },
          "bonus": {
            "formula": ""
          },
          "label": ""
        },
        "formula": "",
        "ability": {
          "attack": "",
          "damage": "",
          "damageMult": 1,
          "critRange": 20,
          "critMult": 2
        },
        "save": {
          "dc": "",
          "type": "",
          "description": ""
        },
        "effectNotes": [],
        "attackNotes": [],
        "soundEffect": "",
        "powerAttack": {
          "multiplier": null,
          "damageBonus": 2,
          "critMultiplier": 1
        },
        "naturalAttack": {
          "primaryAttack": true,
          "secondary": {
            "attackBonus": "-5",
            "damageMult": 0.5
          }
        },
        "nonlethal": false,
        "touch": true,
        "usesAmmo": false,
        "spellEffect": "",
        "spellArea": "",
        "conditionals": [],
        "enh": {
          "value": null
        }
      }
    ],
    "uses": {
      "autoDeductChargesCost": ""
    },
    "attackNotes": [],
    "effectNotes": [],
    "links": {
      "children": []
    },
    "scriptCalls": [],
    "learnedAt": {
      "class": [
        ["arcanist", 2],
        ["bard", 1],
        ["cleric", 2],
        ["inquisitor", 2],
        ["medium", 1],
        ["oracle", 2],
        ["psychic", 2],
        ["skald", 1],
        ["sorcerer", 2],
        ["warpriest", 2],
        ["wizard", 2]
      ],
      "domain": [],
      "subDomain": [],
      "elementalSchool": [],
      "bloodline": []
    },
    "school": "evo",
    "types": "light",
    "components": {
      "verbal": true,
      "somatic": true,
      "material": true,
      "divineFocus": 2
    },
    "materials": {
      "value": "piece of a mirror"
    },
    "spellbook": "",
    "sr": false,
    "shortDescription": "<p>The touched object emits a shimmering light (as per @Compendium[pf1.spells.ip9onjfp6nf1vlv9]{light}) that causes shadows to shift constantly in a 20-foot radius. Creatures lose any racial bonus on @UUID[Compendium.pf1.pf1e-rules.x175kVqUfLGPt8tC.JournalEntryPage.wRWHk7tCUHR99PzD]{Stealth} checks while in the area, and the light suppresses any bonuses on Stealth checks granted by visual camouflage (such as from camouflage netting<sup>UE</sup> or the @Compendium[pf1.class-abilities.58JR74Tzt6zxEJmE]{camouflage} rogue talent). The unpredictable light patterns also interfere with spells and effects of the pattern subschool, granting all creatures in the area a +2 bonus on saves against such effects.</p>"
  },
  "flags": {},
  "sort": 0,
  "_id": "GeNvBJJptxIqFXZK"
}
