{
  "_id": "tdfqdc797vjgspfo",
  "name": "Rune of Jandelay",
  "type": "spell",
  "img": "systems/pf1/icons/misc/magic-swirl.png",
  "sort": 0,
  "flags": {},
  "system": {
    "tags": [],
    "actions": [
      {
        "_id": "6my0ptjxk3bpwhh3",
        "name": "Use",
        "img": "systems/pf1/icons/misc/magic-swirl.png",
        "description": "",
        "tag": "",
        "activation": {
          "cost": 3,
          "type": "round"
        },
        "unchainedAction": {
          "activation": {
            "cost": 9,
            "type": "action"
          }
        },
        "duration": {
          "value": "10 minutes/level",
          "units": ""
        },
        "target": {
          "value": ""
        },
        "range": {
          "value": "0",
          "units": "ft",
          "maxIncrements": 1,
          "minValue": null,
          "minUnits": ""
        },
        "uses": {
          "autoDeductChargesCost": "",
          "self": {
            "value": 0,
            "maxFormula": "",
            "per": null
          },
          "per": "",
          "value": 0,
          "maxFormula": ""
        },
        "measureTemplate": {
          "type": "",
          "size": "0",
          "overrideColor": false,
          "customColor": "",
          "overrideTexture": false,
          "customTexture": ""
        },
        "attackName": "",
        "actionType": "spellsave",
        "attackBonus": "",
        "critConfirmBonus": "",
        "damage": {
          "parts": [],
          "critParts": [],
          "nonCritParts": []
        },
        "attackParts": [],
        "formulaicAttacks": {
          "count": {
            "formula": ""
          },
          "bonus": {
            "formula": ""
          },
          "label": null
        },
        "formula": "",
        "ability": {
          "attack": "",
          "damage": "",
          "damageMult": 1,
          "critRange": 20,
          "critMult": 2
        },
        "save": {
          "dc": "0",
          "type": "",
          "description": "see below"
        },
        "effectNotes": [],
        "attackNotes": [],
        "soundEffect": "",
        "powerAttack": {
          "multiplier": "",
          "damageBonus": 2,
          "critMultiplier": 1
        },
        "naturalAttack": {
          "primaryAttack": true,
          "secondary": {
            "attackBonus": "-5",
            "damageMult": 0.5
          }
        },
        "nonlethal": false,
        "usesAmmo": false,
        "spellEffect": "",
        "spellArea": "one rune",
        "conditionals": [],
        "enh": {
          "value": null
        }
      }
    ],
    "uses": {
      "per": ""
    },
    "attackNotes": [],
    "effectNotes": [],
    "links": {
      "children": []
    },
    "scriptCalls": [],
    "learnedAt": {
      "class": [
        ["sorcerer/wizard", 9],
        ["witch", 9]
      ],
      "domain": [],
      "subDomain": [],
      "elementalSchool": [],
      "bloodline": []
    },
    "level": 9,
    "school": "trs",
    "components": {
      "verbal": true,
      "somatic": true,
      "material": true
    },
    "materials": {
      "value": "cold iron, powdered diamond, and ground adamantine worth a total of 5,000 gp",
      "gpValue": 5000
    },
    "spellbook": "",
    "preparation": {
      "spontaneousPrepared": false
    },
    "sr": false,
    "shortDescription": "<p>You scribe a potent rune of power upon a surface, similar to the way in which a <i>symbol</i> spell is cast. When inscribed, the <i>Rune of Jandelay</i> manifests as a shape that evokes the face of a monstrous elephantine creature-the legendary Oliphant of Jandelay itself. The rune is 5 feet across when created, and the surface on which it is to be inscribed must be large enough to bear it.  The <i>Rune of Jandelay</i> is a potent ward against the primal chaos of the Great Beyond. While it is primarily intended to combat the forces of the Maelstrom, it is equally useful against forces from the other chaotic Outer Planes. When cast, the rune stabilizes and reinforces an area in a 120-foot-radius sphere centered on it. <i>Earthquake</i>, <i>transmute rock to mud</i>, <i>stone shape</i>, <i>spike stones</i>, and other spell effects that magically damage or manipulate terrain or structures deal no damage and do not alter anything in the area. Damaging spells that specifically target these structures or regions do not deal damage, but area-affecting spells may damage creatures in the area as normal. Strong chaos planar alignment is reduced to mild alignment, and mild chaos planar alignment is negated entirely in this area.  Creatures with the chaotic subtype in the area of a <i>Rune of Jandelay</i> must save against the spell or gain 2 negative levels for as long as they remain in the area. A creature that saves and leaves the area must save again upon reentering the area. These negative levels can never result in permanent level loss but cannot be restored by <i>restoration</i> or similar magic.</p>"
  }
}
