{
  "name": "Suspend Drowning",
  "type": "spell",
  "img": "systems/pf1/icons/misc/magic-swirl.png",
  "system": {
    "tags": [],
    "actions": [
      {
        "_id": "qfzWMhOAGlRxAc1n",
        "name": "Use",
        "img": "systems/pf1/icons/misc/magic-swirl.png",
        "description": "",
        "tag": "",
        "activation": {
          "cost": 1,
          "type": "immediate"
        },
        "unchainedAction": {
          "activation": {
            "cost": 1,
            "type": "reaction"
          }
        },
        "duration": {
          "value": "1 round/level",
          "units": ""
        },
        "target": {
          "value": "one Medium creatures or smaller drowning creature/level, no two of which can be more than 20 ft. apart"
        },
        "range": {
          "value": null,
          "units": "close",
          "maxIncrements": 1,
          "minValue": null,
          "minUnits": ""
        },
        "uses": {
          "autoDeductChargesCost": "",
          "self": {
            "value": 0,
            "maxFormula": "",
            "per": ""
          }
        },
        "measureTemplate": {
          "type": "",
          "size": "",
          "overrideColor": false,
          "customColor": "",
          "overrideTexture": false,
          "customTexture": ""
        },
        "attackName": "",
        "actionType": "spellsave",
        "attackBonus": "",
        "critConfirmBonus": "",
        "damage": {
          "parts": [],
          "critParts": [],
          "nonCritParts": []
        },
        "attackParts": [],
        "formulaicAttacks": {
          "count": {
            "formula": ""
          },
          "bonus": {
            "formula": ""
          },
          "label": null
        },
        "formula": "",
        "ability": {
          "attack": null,
          "damage": "",
          "damageMult": 1,
          "critRange": 20,
          "critMult": 2
        },
        "save": {
          "dc": "",
          "type": "",
          "description": "Will negates (harmless)"
        },
        "effectNotes": [],
        "attackNotes": [],
        "soundEffect": "",
        "powerAttack": {
          "multiplier": "",
          "damageBonus": 2,
          "critMultiplier": 1
        },
        "naturalAttack": {
          "primaryAttack": true,
          "secondary": {
            "attackBonus": "-5",
            "damageMult": 0.5
          }
        },
        "nonlethal": false,
        "usesAmmo": false,
        "spellEffect": "",
        "spellArea": "",
        "conditionals": [],
        "enh": {
          "value": null
        }
      }
    ],
    "uses": {
      "autoDeductChargesCost": ""
    },
    "attackNotes": [],
    "effectNotes": [],
    "links": {
      "children": []
    },
    "scriptCalls": [],
    "learnedAt": {
      "class": [
        ["bard", 1],
        ["cleric/oracle", 1],
        ["druid", 1],
        ["hunter", 1],
        ["ranger", 1],
        ["skald", 1],
        ["warpriest", 1]
      ],
      "domain": [],
      "subDomain": [],
      "elementalSchool": [],
      "bloodline": []
    },
    "school": "trs",
    "components": {
      "verbal": true
    },
    "spellbook": "",
    "shortDescription": "<p>The affected creatures immediately—though temporarily—stop drowning and cannot suffocate or drown while this spell is in effect. A target that had been reduced to below 1 hit point from drowning immediately returns to 1 hit point. The magic of this spell allows the targets to breathe, drink, and talk normally for the duration of the spell, but targets cannot inhale to increase the amount of air remaining in their lungs. When the spell effect ends, the target resumes drowning unless it is in an environment that allows it to breathe normally (such as an air-breathing creature returning to the surface) or has obtained a method of breathing normally (such as by consuming a <em>potion of water breathing</em>).</p>"
  },
  "flags": {},
  "sort": 0,
  "_id": "kXjnSV9hqErXaQjS"
}
