{
  "name": "Symbol of Storms",
  "type": "spell",
  "img": "icons/commodities/treasure/stone-cracked-lightning-blue.webp",
  "system": {
    "tags": [],
    "actions": [
      {
        "_id": "9wWErlUG6rJOLG0F",
        "name": "Use",
        "img": "icons/commodities/treasure/stone-cracked-lightning-blue.webp",
        "description": "",
        "tag": "",
        "activation": {
          "cost": 10,
          "type": "minute"
        },
        "unchainedAction": {
          "activation": {
            "cost": 10,
            "type": "minute"
          }
        },
        "duration": {
          "value": "see text",
          "units": ""
        },
        "target": {
          "value": ""
        },
        "range": {
          "value": "0 ft.; see text",
          "units": "spec",
          "maxIncrements": 1,
          "minValue": null,
          "minUnits": ""
        },
        "uses": {
          "autoDeductChargesCost": "",
          "self": {
            "value": 0,
            "maxFormula": "",
            "per": ""
          }
        },
        "measureTemplate": {
          "type": "",
          "size": "",
          "overrideColor": false,
          "customColor": "",
          "overrideTexture": false,
          "customTexture": ""
        },
        "attackName": "",
        "actionType": "spellsave",
        "attackBonus": "",
        "critConfirmBonus": "",
        "damage": {
          "critParts": [],
          "nonCritParts": [],
          "parts": [
            [
              "10d6",
              {
                "values": ["electric"],
                "custom": ""
              }
            ]
          ]
        },
        "attackParts": [],
        "formulaicAttacks": {
          "count": {
            "formula": ""
          },
          "bonus": {
            "formula": ""
          },
          "label": null
        },
        "formula": "",
        "ability": {
          "attack": null,
          "damage": "",
          "damageMult": 1,
          "critRange": 20,
          "critMult": 2
        },
        "save": {
          "dc": "",
          "type": "ref",
          "description": "Reflex half; see text"
        },
        "effectNotes": [],
        "attackNotes": [],
        "soundEffect": "",
        "powerAttack": {
          "multiplier": null,
          "damageBonus": 2,
          "critMultiplier": 1
        },
        "naturalAttack": {
          "primaryAttack": true,
          "secondary": {
            "attackBonus": "-5",
            "damageMult": 0.5
          }
        },
        "nonlethal": false,
        "touch": false,
        "usesAmmo": false,
        "spellEffect": "one symbol",
        "spellArea": "",
        "conditionals": [],
        "enh": {
          "value": null
        }
      }
    ],
    "uses": {
      "autoDeductChargesCost": ""
    },
    "attackNotes": [],
    "effectNotes": [],
    "links": {
      "children": []
    },
    "scriptCalls": [],
    "learnedAt": {
      "class": [
        ["arcanist", 6],
        ["cleric", 6],
        ["druid", 6],
        ["hunter", 3],
        ["oracle", 6],
        ["ranger", 3],
        ["sorcerer", 6],
        ["warpriest", 6],
        ["witch", 6],
        ["wizard", 6]
      ],
      "domain": [],
      "subDomain": [],
      "elementalSchool": [],
      "bloodline": []
    },
    "level": 6,
    "school": "evo",
    "types": "air, electricity",
    "components": {
      "verbal": true,
      "somatic": true,
      "material": true
    },
    "materials": {
      "value": "powdered copper and pumice worth a total of 1,500 gp",
      "gpValue": 1500
    },
    "spellbook": "",
    "shortDescription": "<p>This spell functions as @Compendium[pf1.spells.g0x2fnktg1553wv1]{symbol of death}, except that when triggered, a 30-foot-radius centered on the symbol fills with hurricane-force winds (75 mph). Each round, a bolt of lightning that deals 10d6 points of electricity damage strikes a random creature within the area. A successful Reflex save halves this damage. Unlike <em>symbol of death</em>, <em>symbol of storms</em> has no hit point limit. Regardless of the trigger method or methods chosen, a creature more than 30 feet from a symbol of storms can’t trigger it (even if it meets one or more of the triggering conditions, such as reading the rune). Once triggered, a symbol of storms remains active for 1 minute per caster level.</p>"
  },
  "flags": {},
  "sort": 0,
  "_id": "DuaTNlfR9hzv5euv"
}
