{
  "name": "Toxic Blood",
  "type": "spell",
  "img": "systems/pf1/icons/skills/green_29.jpg",
  "system": {
    "tags": [],
    "actions": [
      {
        "_id": "sZA7UaNr7X79GpKG",
        "name": "Use",
        "img": "systems/pf1/icons/skills/green_29.jpg",
        "description": "",
        "tag": "",
        "activation": {
          "cost": 1,
          "type": "standard"
        },
        "unchainedAction": {
          "activation": {
            "cost": 2,
            "type": "action"
          }
        },
        "duration": {
          "value": "1 minute/level",
          "units": ""
        },
        "target": {
          "value": "creature touched"
        },
        "range": {
          "value": null,
          "units": "touch",
          "maxIncrements": 1,
          "minValue": null,
          "minUnits": ""
        },
        "uses": {
          "autoDeductChargesCost": "",
          "self": {
            "value": 0,
            "maxFormula": "",
            "per": ""
          }
        },
        "measureTemplate": {
          "type": "",
          "size": "",
          "overrideColor": false,
          "customColor": "",
          "overrideTexture": false,
          "customTexture": ""
        },
        "attackName": "",
        "actionType": "msak",
        "attackBonus": "",
        "critConfirmBonus": "",
        "damage": {
          "parts": [],
          "critParts": [],
          "nonCritParts": []
        },
        "attackParts": [],
        "formulaicAttacks": {
          "count": {
            "formula": ""
          },
          "bonus": {
            "formula": ""
          },
          "label": ""
        },
        "formula": "",
        "ability": {
          "attack": "",
          "damage": "",
          "damageMult": 1,
          "critRange": 20,
          "critMult": 2
        },
        "save": {
          "dc": "",
          "type": "fort",
          "description": "Fortitude negates; see text"
        },
        "effectNotes": [],
        "attackNotes": [],
        "soundEffect": "",
        "powerAttack": {
          "multiplier": null,
          "damageBonus": 2,
          "critMultiplier": 1
        },
        "naturalAttack": {
          "primaryAttack": true,
          "secondary": {
            "attackBonus": "-5",
            "damageMult": 0.5
          }
        },
        "nonlethal": false,
        "touch": true,
        "usesAmmo": false,
        "spellEffect": "",
        "spellArea": "",
        "conditionals": [],
        "enh": {
          "value": null
        }
      }
    ],
    "uses": {
      "autoDeductChargesCost": ""
    },
    "attackNotes": [],
    "effectNotes": [],
    "links": {
      "children": []
    },
    "scriptCalls": [],
    "learnedAt": {
      "class": [
        ["alchemist", 3],
        ["arcanist", 3],
        ["bloodrager", 3],
        ["cleric", 3],
        ["druid", 3],
        ["hunter", 3],
        ["investigator", 3],
        ["magus", 3],
        ["oracle", 3],
        ["ranger", 3],
        ["sorcerer", 3],
        ["summoner", 3],
        ["summoner (unchained)", 3],
        ["witch", 3],
        ["wizard", 3]
      ],
      "domain": [],
      "subDomain": [],
      "elementalSchool": [],
      "bloodline": []
    },
    "level": 3,
    "school": "trs",
    "types": "poison",
    "components": {
      "verbal": true,
      "somatic": true,
      "material": true
    },
    "materials": {
      "value": "vial of black adder venom"
    },
    "spellbook": "",
    "sr": false,
    "shortDescription": "<p>The target creature’s blood becomes poisonous. Anytime the target takes piercing or slashing damage, a spray of acidic blood spurts from its body in the direction of the opponent who inflicted the wound. This blood travels in a 10-foot line, striking the first creature or object it touches. A creature struck by the blood is exposed to black adder venom and must save against the poison as normal, with a DC equal to the spell’s DC.</p><p><em>Toxic blood</em> can be made permanent with a @Compendium[pf1.spells.nsxngq65mbrzgwnm]{permanency} spell cast by a caster of 11th level or higher, at a cost of 7,500 gp.</p>"
  },
  "flags": {},
  "sort": 0,
  "_id": "IHFIFyvEVyfS68C2"
}
