{
  "_id": "h4ewhg376sfgp9d8",
  "name": "Undead Anatomy III",
  "type": "spell",
  "img": "systems/pf1/icons/misc/magic-swirl.png",
  "sort": 0,
  "flags": {},
  "system": {
    "tags": [],
    "actions": [
      {
        "_id": "awkcfrf233bls2iv",
        "name": "Use",
        "img": "systems/pf1/icons/misc/magic-swirl.png",
        "description": "",
        "tag": "",
        "activation": {
          "cost": 1,
          "type": "standard"
        },
        "unchainedAction": {
          "activation": {
            "cost": 2,
            "type": "action"
          }
        },
        "duration": {
          "value": "1 minute/level (D)",
          "units": ""
        },
        "target": {
          "value": "you"
        },
        "range": {
          "value": null,
          "units": "personal",
          "maxIncrements": 1,
          "minValue": null,
          "minUnits": ""
        },
        "uses": {
          "autoDeductChargesCost": "",
          "self": {
            "value": 0,
            "maxFormula": "",
            "per": null
          },
          "per": "",
          "value": 0,
          "maxFormula": ""
        },
        "measureTemplate": {
          "type": "",
          "size": "0",
          "overrideColor": false,
          "customColor": "",
          "overrideTexture": false,
          "customTexture": ""
        },
        "attackName": "",
        "actionType": "",
        "attackBonus": "",
        "critConfirmBonus": "",
        "damage": {
          "parts": [],
          "critParts": [],
          "nonCritParts": []
        },
        "attackParts": [],
        "formulaicAttacks": {
          "count": {
            "formula": ""
          },
          "bonus": {
            "formula": ""
          },
          "label": null
        },
        "formula": "",
        "ability": {
          "attack": "",
          "damage": "",
          "damageMult": 1,
          "critRange": 20,
          "critMult": 2
        },
        "save": {
          "dc": "0",
          "type": "",
          "description": ""
        },
        "effectNotes": [],
        "attackNotes": [],
        "soundEffect": "",
        "powerAttack": {
          "multiplier": "",
          "damageBonus": 2,
          "critMultiplier": 1
        },
        "naturalAttack": {
          "primaryAttack": true,
          "secondary": {
            "attackBonus": "-5",
            "damageMult": 0.5
          }
        },
        "nonlethal": false,
        "usesAmmo": false,
        "spellEffect": "",
        "spellArea": "",
        "conditionals": [],
        "enh": {
          "value": null
        }
      }
    ],
    "uses": {
      "per": ""
    },
    "attackNotes": [],
    "effectNotes": [],
    "links": {
      "children": []
    },
    "scriptCalls": [],
    "learnedAt": {
      "class": [
        ["sorcerer/wizard", 6],
        ["alchemist", 6],
        ["magus", 6],
        ["spiritualist", 6]
      ],
      "domain": [],
      "subDomain": [],
      "elementalSchool": [],
      "bloodline": []
    },
    "level": 6,
    "school": "trs",
    "subschool": "polymorph",
    "components": {
      "verbal": true,
      "somatic": true,
      "material": true
    },
    "materials": {
      "value": "a piece of the creature whose form you plan to assume"
    },
    "sr": false,
    "shortDescription": "<p>This spell functions as <i>undead anatomy II</i>, except it also allows you to assume the form of a <i>Diminutive</i> or <i>Huge</i> corporeal creature of the undead type. If the form you assume has any of the following abilities, you gain the listed ability: burrow 30 feet, climb 90 feet, fly 90 feet (good maneuverability), swim 90 feet, all-around vision, blindsense 30 feet, darkvision 60 feet, low-light vision, scent, constrict, disease, DR 5/-, fear aura, grab, jet, natural cunning, overwhelming, poison, pounce, rake, trample, trip, unnatural aura, and web.</p><p>If the creature has immunity or resistance to any energy types, you gain resistance 20 to those energy types. If the creature has vulnerability to an energy type, you gain that vulnerability. In this form, you gain a +8 bonus on saves against mind-affecting effects, disease, poison, sleep, and stunning. If the form has a vulnerability to an attack (such as sunlight), you gain that vulnerability.</p><p><i>Diminutive</i> undead: If the form you take is that of a <i>Diminutive</i> undead, you gain a +6 size bonus to your Dexterity, a -4 penalty to your Strength, and a +1 natural armor bonus.</p><p><i>Huge</i> undead: If the form you take is that of a <i>Huge</i> undead, you gain a +6 size bonus to your Strength, a -4 penalty to your Dexterity, and a +6 natural armor bonus.</p>"
  }
}
