{
  "_id": "srrymli8ai6zj352",
  "name": "Visualization of the Mind",
  "type": "spell",
  "img": "systems/pf1/icons/misc/magic-swirl.png",
  "sort": 0,
  "flags": {},
  "system": {
    "tags": [],
    "actions": [
      {
        "_id": "sa1a4n03fwty63d8",
        "name": "Use",
        "img": "systems/pf1/icons/misc/magic-swirl.png",
        "description": "",
        "tag": "",
        "activation": {
          "cost": 1,
          "type": "hour"
        },
        "unchainedAction": {
          "activation": {
            "cost": 1,
            "type": "hour"
          }
        },
        "duration": {
          "value": "24 hours or until discharged",
          "units": ""
        },
        "target": {
          "value": "you"
        },
        "range": {
          "value": null,
          "units": "personal",
          "maxIncrements": 1,
          "minValue": null,
          "minUnits": ""
        },
        "uses": {
          "autoDeductChargesCost": "",
          "self": {
            "value": 0,
            "maxFormula": "",
            "per": null
          },
          "per": "",
          "value": 0,
          "maxFormula": ""
        },
        "measureTemplate": {
          "type": "",
          "size": "0",
          "overrideColor": false,
          "customColor": "",
          "overrideTexture": false,
          "customTexture": ""
        },
        "attackName": "",
        "actionType": "",
        "attackBonus": "",
        "critConfirmBonus": "",
        "damage": {
          "parts": [],
          "critParts": [],
          "nonCritParts": []
        },
        "attackParts": [],
        "formulaicAttacks": {
          "count": {
            "formula": ""
          },
          "bonus": {
            "formula": ""
          },
          "label": null
        },
        "formula": "",
        "ability": {
          "attack": "",
          "damage": "",
          "damageMult": 1,
          "critRange": 20,
          "critMult": 2
        },
        "save": {
          "dc": "0",
          "type": "",
          "description": ""
        },
        "effectNotes": [],
        "attackNotes": [],
        "soundEffect": "",
        "powerAttack": {
          "multiplier": "",
          "damageBonus": 2,
          "critMultiplier": 1
        },
        "naturalAttack": {
          "primaryAttack": true,
          "secondary": {
            "attackBonus": "-5",
            "damageMult": 0.5
          }
        },
        "nonlethal": false,
        "usesAmmo": false,
        "spellEffect": "",
        "spellArea": "",
        "conditionals": [],
        "enh": {
          "value": null
        }
      }
    ],
    "uses": {
      "per": ""
    },
    "attackNotes": [],
    "effectNotes": [],
    "links": {
      "children": []
    },
    "scriptCalls": [],
    "learnedAt": {
      "class": [
        ["cleric/oracle", 2],
        ["shaman", 2]
      ],
      "domain": [],
      "subDomain": [],
      "elementalSchool": [],
      "bloodline": []
    },
    "level": 2,
    "school": "trs",
    "types": "meditative",
    "components": {
      "verbal": true,
      "material": true
    },
    "materials": {
      "value": "soothing incense worth 200 gp",
      "gpValue": 200
    },
    "spellbook": "",
    "preparation": {
      "spontaneousPrepared": false
    },
    "sr": false,
    "shortDescription": "<p>You enhance a single aspect of your mind, nurturing and empowering it. Choose a single mental ability score (Charisma, Intelligence, or Wisdom). You gain a +5 bonus on ability checks and skill checks associated with that ability score.  At any time during the spell's duration, you can expend the spell's remaining duration as an immediate action in order to gain a one-time mental enhancement associated with the ability score you chose to visualize, as detailed below. After you do so, the spell ends. <br><b>Charisma</b>: You are immediately infused with a wave of supernatural luck, and gain a +2 luck bonus on all d20 rolls for 1 minute. <br><b>Intelligence</b>: You immediately gain a flash of insight, and gain a number of ranks equal to your Hit Dice in any skill in which you have no ranks. These ranks last for 1 minute, during which time you can also treat that skill as a class skill. <br><b>Wisdom</b>: When you fail a Will save, you can immediately attempt that saving throw again, gaining a +4 bonus on the new saving throw to resist the effect.</p>"
  }
}
