{
  "_id": "lun2gymejsmkjg4g",
  "name": "Winds of Vengeance",
  "type": "spell",
  "img": "systems/pf1/icons/misc/magic-swirl.png",
  "sort": 0,
  "flags": {},
  "system": {
    "tags": [],
    "actions": [
      {
        "_id": "t0t445j8ke9lm4uv",
        "name": "Use",
        "img": "systems/pf1/icons/misc/magic-swirl.png",
        "description": "",
        "tag": "",
        "activation": {
          "cost": 1,
          "type": "standard"
        },
        "unchainedAction": {
          "activation": {
            "cost": 2,
            "type": "action"
          }
        },
        "duration": {
          "value": "1 minute/level",
          "units": ""
        },
        "target": {
          "value": "you"
        },
        "range": {
          "value": null,
          "units": "personal",
          "maxIncrements": 1,
          "minValue": null,
          "minUnits": ""
        },
        "uses": {
          "autoDeductChargesCost": "",
          "self": {
            "value": 0,
            "maxFormula": "",
            "per": null
          },
          "per": "",
          "value": 0,
          "maxFormula": ""
        },
        "measureTemplate": {
          "type": "",
          "size": "0",
          "overrideColor": false,
          "customColor": "",
          "overrideTexture": false,
          "customTexture": ""
        },
        "attackName": "",
        "actionType": "",
        "attackBonus": "",
        "critConfirmBonus": "",
        "damage": {
          "parts": [],
          "critParts": [],
          "nonCritParts": []
        },
        "attackParts": [],
        "formulaicAttacks": {
          "count": {
            "formula": ""
          },
          "bonus": {
            "formula": ""
          },
          "label": null
        },
        "formula": "",
        "ability": {
          "attack": "",
          "damage": "",
          "damageMult": 1,
          "critRange": 20,
          "critMult": 2
        },
        "save": {
          "dc": "0",
          "type": "",
          "description": ""
        },
        "effectNotes": [],
        "attackNotes": [],
        "soundEffect": "",
        "powerAttack": {
          "multiplier": "",
          "damageBonus": 2,
          "critMultiplier": 1
        },
        "naturalAttack": {
          "primaryAttack": true,
          "secondary": {
            "attackBonus": "-5",
            "damageMult": 0.5
          }
        },
        "nonlethal": false,
        "usesAmmo": false,
        "spellEffect": "",
        "spellArea": "",
        "conditionals": [],
        "enh": {
          "value": null
        }
      }
    ],
    "uses": {
      "per": ""
    },
    "attackNotes": [],
    "effectNotes": [],
    "links": {
      "children": []
    },
    "scriptCalls": [],
    "learnedAt": {
      "class": [
        ["sorcerer/wizard", 9],
        ["cleric/oracle", 9],
        ["druid", 9],
        ["shaman", 9]
      ],
      "domain": [],
      "subDomain": [["Wind", 9]],
      "elementalSchool": [],
      "bloodline": []
    },
    "level": 9,
    "school": "evo",
    "types": "air",
    "components": {
      "verbal": true,
      "somatic": true,
      "divineFocus": 1
    },
    "sr": false,
    "shortDescription": "<p>You surround yourself with a buffeting shroud of supernatural, tornado-force winds. These winds grant you a fly speed of 60 feet with perfect maneuverability. Neither your armor nor your load affects this fly speed. The winds shield you from any other wind effects, and form a shell of breathable air around you, allowing you to fly and breathe underwater or in outer space.</p><p>Ranged weapons (including giant-thrown boulders, siege weapon projectiles, and other massive ranged weapons) passing through the winds are deflected by the winds and automatically miss you. Gases and most gaseous breath weapons cannot pass though the winds.</p><p>In addition, when a creature hits you with a melee attack, you can shape your winds so they lash out at that creature as an immediate action. The creature must make a Fortitude saving throw or take 5d8 points of bludgeoning damage and be knocked prone (if on the ground). On a failed save, Huge flying creatures are checked and Large-sized or smaller flying creatures are blown away instead of knocked prone (see page 439 of the <i>Pathfinder RPG Core Rulebook</i> for more information).</p><p>On a successful save, the damage is halved and the creature is not knocked prone (or checked or blown away).</p>"
  }
}
