{
  "name": "Wing Thorns",
  "type": "spell",
  "img": "icons/commodities/biological/wing-lizard-yellow-teal.webp",
  "system": {
    "tags": [],
    "actions": [
      {
        "_id": "FqWdPNxnNXe5GvCO",
        "name": "Use",
        "img": "icons/commodities/biological/wing-lizard-yellow-teal.webp",
        "description": "",
        "tag": "",
        "activation": {
          "cost": 1,
          "type": "standard"
        },
        "unchainedAction": {
          "activation": {
            "cost": 2,
            "type": "action"
          }
        },
        "duration": {
          "value": "1 round/level",
          "units": ""
        },
        "target": {
          "value": "you"
        },
        "range": {
          "value": null,
          "units": "personal",
          "maxIncrements": 1,
          "minValue": null,
          "minUnits": ""
        },
        "uses": {
          "autoDeductChargesCost": "",
          "self": {
            "value": 0,
            "maxFormula": "",
            "per": ""
          }
        },
        "measureTemplate": {
          "type": "",
          "size": "",
          "overrideColor": false,
          "customColor": "",
          "overrideTexture": false,
          "customTexture": ""
        },
        "attackName": "",
        "actionType": "",
        "attackBonus": "",
        "critConfirmBonus": "",
        "damage": {
          "parts": [],
          "critParts": [],
          "nonCritParts": []
        },
        "attackParts": [],
        "formulaicAttacks": {
          "count": {
            "formula": ""
          },
          "bonus": {
            "formula": ""
          },
          "label": null
        },
        "formula": "",
        "ability": {
          "attack": null,
          "damage": null,
          "damageMult": 1,
          "critRange": 20,
          "critMult": 2
        },
        "save": {
          "dc": "",
          "type": "",
          "description": ""
        },
        "effectNotes": [],
        "attackNotes": [],
        "soundEffect": "",
        "powerAttack": {
          "multiplier": null,
          "damageBonus": 2,
          "critMultiplier": 1
        },
        "naturalAttack": {
          "primaryAttack": true,
          "secondary": {
            "attackBonus": "-5",
            "damageMult": 0.5
          }
        },
        "nonlethal": false,
        "touch": false,
        "usesAmmo": false,
        "spellEffect": "",
        "spellArea": "",
        "conditionals": [],
        "enh": {
          "value": null
        }
      }
    ],
    "uses": {
      "autoDeductChargesCost": ""
    },
    "attackNotes": [],
    "effectNotes": [],
    "links": {
      "children": []
    },
    "scriptCalls": [],
    "learnedAt": {
      "class": [
        ["alchemist", 3],
        ["anitpaladin", 3],
        ["bloodrager", 3],
        ["druid", 3],
        ["hunter", 3],
        ["investigator", 3],
        ["magus", 4],
        ["shaman", 3],
        ["witch", 3]
      ],
      "domain": [],
      "subDomain": [],
      "elementalSchool": [],
      "bloodline": []
    },
    "level": 3,
    "school": "trs",
    "types": "poison",
    "components": {
      "verbal": true,
      "somatic": true
    },
    "spellbook": "",
    "sr": false,
    "shortDescription": "<p>Your wings sprout poisonous thorns each the size of a dagger. You can use these thorns like armor spikes. In addition, you can make two wing attacks as primary natural weapons. If you are Small, the wings deal 1d3 points of bludgeoning and piercing damage plus your Strength modifier (unless you also attack with a weapon, in which case they are treated as a secondary natural weapon). A creature damaged by your wing thorns experiences intense itching, gaining the @Compendium[pf1.pf1e-rules.NSqfXaj4MevUR2uJ.JournalEntryPage.7LwCMwrX3tchvrjW]{sickened} condition while the spell lasts unless it succeeds at a Fortitude saving throw.</p>"
  },
  "flags": {},
  "sort": 0,
  "_id": "wMX7ZG4zBkB873bo"
}
