{
  "_id": "WLqBCT5DqmGAx8Wd",
  "name": "Fighter",
  "type": "class",
  "img": "systems/pf1/icons/skills/yellow_37.jpg",
  "sort": 0,
  "flags": {},
  "system": {
    "description": {
      "value": "<p><strong>Role</strong>: Fighters excel at combat—defeating their enemies, controlling the flow of battle, and surviving such sorties themselves. While their specific weapons and methods grant them a wide variety of tactics, few can match fighters for sheer battle prowess.</p>\n<p><strong>Alignment</strong>: Any.</p>\n<p><strong>Hit Die</strong>: d10.</p>\n<p><strong>Starting Wealth</strong>: 5d6 x 10 gp (average 175 gp.) In addition, each character begins play with an outfit worth 10 gp or less.</p>\n<h2>Class Skills</h2>\n<p>The fighter’s class skills are <em>Climb</em> (<em>Str</em>), <em>Craft</em> (<em>Int</em>), <em>Handle Animal</em> (<em>Cha</em>), <em>Intimidate</em> (<em>Cha</em>), <em>Knowledge</em> (dungeoneering) (<em>Int</em>), <em>Knowledge</em> (engineering) (<em>Int</em>), <em>Profession</em> (<em>Wis</em>), <em>Ride</em> (<em>Dex</em>), <em>Survival</em> (<em>Wis</em>), and <em>Swim</em> (<em>Str</em>).</p>\n<p><strong>Skill Ranks Per Level</strong>: 2 + <em>Int</em> modifier.</p>"
    },
    "tags": [],
    "changes": [],
    "links": {
      "children": [],
      "classAssociations": [
        {
          "id": "pf1.class-abilities.CV8BsY3ciUb9TA1Y",
          "dataType": "compendium",
          "name": "Bonus Feats (FGT)",
          "img": "systems/pf1/icons/skills/affliction_18.jpg",
          "level": 1,
          "_index": 0
        },
        {
          "id": "pf1.class-abilities.h0Brxw6khcjlEf1T",
          "dataType": "compendium",
          "name": "Bravery",
          "img": "systems/pf1/icons/skills/affliction_24.jpg",
          "level": 2,
          "_index": 1
        },
        {
          "id": "pf1.class-abilities.5JFfSqLMCpbRmERa",
          "dataType": "compendium",
          "name": "Armor Training",
          "img": "systems/pf1/icons/items/armor/field-plate.png",
          "level": 3,
          "_index": 2
        },
        {
          "id": "pf1.class-abilities.RzEzudurxQFirFoF",
          "dataType": "compendium",
          "name": "Weapon Training",
          "img": "systems/pf1/icons/items/weapons/dagger-swordbreaker.PNG",
          "level": 5,
          "_index": 3
        },
        {
          "id": "pf1.class-abilities.McXAM1BoPHZLO1n4",
          "dataType": "compendium",
          "name": "Weapon Mastery",
          "img": "systems/pf1/icons/items/weapons/sabre-sawtooth.png",
          "level": 20,
          "_index": 4
        }
      ]
    },
    "tag": "fighter",
    "useCustomTag": true,
    "armorProf": {
      "value": ["lgt", "med", "hvy", "shl", "twr"]
    },
    "weaponProf": {
      "value": ["sim", "mar"]
    },
    "languages": {
      "value": []
    },
    "scriptCalls": [],
    "hd": 10,
    "hp": 10,
    "bab": "high",
    "skillsPerLevel": 2,
    "savingThrows": {
      "fort": {
        "value": "high"
      }
    },
    "classSkills": {
      "acr": false,
      "apr": false,
      "art": true,
      "blf": false,
      "clm": true,
      "crf": true,
      "dip": false,
      "dev": false,
      "dis": false,
      "esc": false,
      "fly": false,
      "han": true,
      "hea": false,
      "int": true,
      "kar": false,
      "kdu": true,
      "ken": true,
      "kge": false,
      "khi": false,
      "klo": false,
      "kna": false,
      "kno": false,
      "kpl": false,
      "kre": false,
      "lin": false,
      "lor": true,
      "per": false,
      "prf": false,
      "pro": true,
      "rid": true,
      "sen": false,
      "slt": false,
      "spl": false,
      "ste": false,
      "sur": true,
      "swm": true,
      "umd": false
    }
  }
}
