{
  "_id": "5mQIOIw4hDhlREPo",
  "name": "Monk (Unchained)",
  "type": "class",
  "img": "systems/pf1/icons/items/equipment/gloves.jpg",
  "sort": 0,
  "flags": {},
  "system": {
    "description": {
      "value": "<p>Physical and mental perfection — that is the life goal of every monk. For these skilled warriors, martial prowess and mental clarity are one and the same. Capable of pummeling foes with both f ist and weapon, monks are among the more versatile combatants on the battlef ield. Monks are also able to harness their ki, a spiritual life force that resides within, allowing them to perform amazing acts of acrobatics and mystical skill. All of this depends on incredible discipline and focus, and monks spend their entire lives perfecting these arts.</p>\n<p><strong>Unchained:</strong> Much of the monk has been reworked, including its base attack bonus, Hit Die, saves, and many of its special abilities. The result is a version of the monk that not only is easier to play, but also possesses a great deal more versatility. Flurry of blows is now much simpler to use in play. Many of the higher-level abilities of the monk, such as abundant step and quivering palm, have been incorporated into the new system of ki powers. As a monk advances in level, he can select from a variety of ki powers, allowing the player to truly customize his character.</p>\n<p><strong>Alignment:</strong> Any lawful.</p>\n<p><strong>Hit Die:</strong> d10.</p>\n<p><strong>Starting Wealth:</strong> 1d6 x 10 gp (average 35 gp).</p>\n<h2>Class Skills</h2>\n<p>The monk's class skills are <em>Acrobatics</em> (<em>Dex</em>), <em>Climb</em> (<em>Str</em>), <em>Craft</em> (<em>Int</em>), <em>Escape Artist</em> (<em>Dex</em>), <em>Intimidate</em> (<em>Cha</em>), <em>Knowledge</em> (history) (<em>Int</em>), <em>Knowledge</em> (religion) (<em>Int</em>), <em>Perception</em> (<em>Wis</em>), <em>Perform</em> (<em>Cha</em>), <em>Profession</em> (<em>Wis</em>), <em>Ride</em> (<em>Dex</em>), <em>Sense Motive</em> (<em>Wis</em>), <em>Stealth</em> (<em>Dex</em>), and <em>Swim</em> (<em>Str</em>).</p>\n<p><strong>Skill Ranks per Level</strong>: 4 + <em>Int</em> modifier.</p>"
    },
    "tags": [],
    "changes": [],
    "links": {
      "children": [],
      "classAssociations": [
        {
          "id": "pf1.class-abilities.hp7tP0bRAj8eNqN9",
          "dataType": "compendium",
          "name": "Perfect Self (UC)",
          "img": "systems/pf1/icons/skills/violet_03.jpg",
          "level": 20,
          "_index": 0
        },
        {
          "id": "pf1.class-abilities.TaBxJdJQp5SFDPyn",
          "dataType": "compendium",
          "name": "Flurry of Blows (UC)",
          "img": "systems/pf1/icons/items/weapons/cestus.png",
          "level": 1,
          "_index": 1
        },
        {
          "id": "pf1.class-abilities.2ausI8g6SsmbOpgF",
          "dataType": "compendium",
          "name": "Stunning Fist",
          "img": "systems/pf1/icons/skills/yellow_08.jpg",
          "level": 1,
          "_index": 2
        },
        {
          "id": "pf1.class-abilities.a4SPdPuOFdmfJdHN",
          "dataType": "compendium",
          "name": "Unarmed Strike",
          "img": "systems/pf1/icons/skills/blood_11.jpg",
          "level": 1,
          "_index": 3
        },
        {
          "id": "pf1.class-abilities.KQYCRLEdD4bGA5ak",
          "dataType": "compendium",
          "name": "Evasion",
          "img": "systems/pf1/icons/skills/blue_06.jpg",
          "level": 2,
          "_index": 4
        },
        {
          "id": "pf1.class-abilities.Cc2eFfhJYlClCGEH",
          "dataType": "compendium",
          "name": "Improved Evasion",
          "img": "systems/pf1/icons/skills/blue_06.jpg",
          "level": 9,
          "_index": 5
        },
        {
          "id": "pf1.class-abilities.7BfYNNkYjjBevun8",
          "dataType": "compendium",
          "name": "Ki Pool (UC)",
          "img": "systems/pf1/icons/skills/red_09.jpg",
          "level": 3,
          "_index": 6
        },
        {
          "id": "pf1.class-abilities.NsP31IshAuY4gv0s",
          "dataType": "compendium",
          "name": "Ki powers (UC)",
          "img": "systems/pf1/icons/skills/ice_10.jpg",
          "level": 4,
          "_index": 7
        },
        {
          "id": "pf1.class-abilities.TTn7hey3SfqaTsLr",
          "dataType": "compendium",
          "name": "Still Mind (UMK)",
          "img": "systems/pf1/icons/feats/blind-fight.jpg",
          "level": 4,
          "_index": 8
        },
        {
          "id": "pf1.class-abilities.82G7gl4C1AvtSHI4",
          "dataType": "compendium",
          "name": "Purity of Body",
          "img": "systems/pf1/icons/skills/blue_35.jpg",
          "level": 5,
          "_index": 9
        },
        {
          "id": "pf1.class-abilities.0eJ9MA8iVuOG8VJi",
          "dataType": "compendium",
          "name": "Style Strikes (UC)",
          "img": "systems/pf1/icons/skills/yellow_08.jpg",
          "level": 5,
          "_index": 10
        },
        {
          "id": "pf1.class-abilities.TX1sNG0DXRxr9Tlx",
          "dataType": "compendium",
          "name": "Tongue of the Sun and Moon (UC)",
          "img": "systems/pf1/icons/skills/green_13.jpg",
          "level": 13,
          "_index": 11
        },
        {
          "id": "pf1.class-abilities.5JlthJkVGEHPZypG",
          "dataType": "compendium",
          "name": "Timeless Body",
          "img": "systems/pf1/icons/skills/green_15.jpg",
          "level": 17,
          "_index": 12
        },
        {
          "id": "pf1.class-abilities.TXGAg84E7T6MFA8v",
          "dataType": "compendium",
          "name": "Flawless Mind (UC)",
          "img": "systems/pf1/icons/skills/blue_35.jpg",
          "level": 19,
          "_index": 13
        },
        {
          "id": "pf1.class-abilities.MJbeCji2yK4omd80",
          "dataType": "compendium",
          "name": "AC Bonus (UMK)",
          "img": "systems/pf1/icons/spells/fog-air-1.jpg",
          "level": 1,
          "_index": 14
        },
        {
          "id": "pf1.class-abilities.Ic2FoBmkW0lrmMHS",
          "dataType": "compendium",
          "name": "Fast Movement (UMK)",
          "img": "systems/pf1/icons/feats/dodge.jpg",
          "level": 3,
          "_index": 15
        },
        {
          "id": "pf1.class-abilities.namjAdSqeAIksq7a",
          "dataType": "compendium",
          "name": "Bonus Feat (UMK)",
          "img": "systems/pf1/icons/skills/blue_10.jpg",
          "level": 1,
          "_index": 16
        }
      ]
    },
    "tag": "monkUnchained",
    "useCustomTag": true,
    "armorProf": {
      "value": []
    },
    "weaponProf": {
      "value": [],
      "custom": "club;light crossbow;heavy crossbow;dagger;handaxe;javelin;kama;nunchaku;quarterstaff;sai;short sword;shortspear;shuriken;siangham;sling;spear;monk quality"
    },
    "languages": {
      "value": []
    },
    "scriptCalls": [],
    "hd": 10,
    "hp": 10,
    "bab": "high",
    "skillsPerLevel": 4,
    "savingThrows": {
      "fort": {
        "value": "high"
      },
      "ref": {
        "value": "high"
      }
    },
    "classSkills": {
      "acr": true,
      "apr": false,
      "art": true,
      "blf": false,
      "clm": true,
      "crf": true,
      "dip": false,
      "dev": false,
      "dis": false,
      "esc": true,
      "fly": false,
      "han": false,
      "hea": false,
      "int": true,
      "kar": false,
      "kdu": false,
      "ken": false,
      "kge": false,
      "khi": true,
      "klo": false,
      "kna": false,
      "kno": false,
      "kpl": false,
      "kre": true,
      "lin": false,
      "lor": true,
      "per": true,
      "prf": true,
      "pro": true,
      "rid": true,
      "sen": true,
      "slt": false,
      "spl": false,
      "ste": true,
      "sur": false,
      "swm": true,
      "umd": false
    }
  }
}
